****************************************
report_physical_constraints
Version: L-2016.03-SP2
Date: Thu Jan  2 10:08:08 2020
****************************************

 Design pipeline
 Unit is micron

1
