 
****************************************
Report : area
Design : pipeline
Version: L-2016.03-SP2
Date   : Thu Jan  2 10:09:42 2020
****************************************

Library(s) Used:

    sc7p5mcpp96p_cln16fcll001_base_svt_c16_tt_typical_max_0p80v_25c (File: /afs/eecs.umich.edu/kits/ARM/TSMC_16FFC/arm_2018.02/TS74LB019-FB-00000-r2p0-03eac0/arm/tsmc/cln16fcll001/sc7p5mcpp96p_base_svt_c16/r2p0/db/sc7p5mcpp96p_cln16fcll001_base_svt_c16_tt_typical_max_0p80v_25c.db)
    sram_2p_uhde_tt_0p80v_0p80v_25c (File: /n/trenton/v/westbl/memory/sram_2p_uhde_64b_tt_0p80v_0p80v_25c.db)
    sram_sp_hde_tt_0p80v_0p80v_25c (File: /n/trenton/v/westbl/memory/sram_sp_hde_32b_tt_0p80v_0p80v_25c.db)
    sram_dp_uhde_tt_0p80v_0p80v_25c (File: /n/trenton/v/westbl/memory/sram_dp_uhde_32b_tt_0p80v_0p80v_25c.db)

Number of ports:                         3484
Number of nets:                         17775
Number of cells:                        13088
Number of combinational cells:          11082
Number of sequential cells:              1965
Number of macros/black boxes:               6
Number of buf/inv:                        623
Number of references:                       6

Combinational area:               3887.354865
Buf/Inv area:                      114.831362
Noncombinational area:            1497.277448
Macro/Black Box area:           188681.363525
Net Interconnect area:      undefined  (Wire load has zero net area)

Total cell area:                194065.995839
Total area:                 undefined

Core Area:                     11726
Aspect Ratio:                 1.0036
Utilization Ratio:            0.6608


The above information was reported from the logical library. The following are from the physical library:

  Total moveable cell area: 6785.8
  Total fixed cell area: 0.0
  Total physical cell area: 6785.8
 Core area: 0.000, 0.000, 108.096, 108.480
1
