1800 0000 08a0 74a2 1cbb 3e29 563c b471
563b e40f 690f 43d3 6397 8ee0 93b6 4fbb
370c 4c5d 18ff 2dcb 0196 0c57 a255 d7c5
5ca0 1dce 7574 3b1c b495 4b97 969e 55b3
bbdc a94b 1c81 b478 bae8 246a 3b34 2742
3690 eb51 a70d 839c 552e cfa8 b638 0eeb
4179 2055 05dd 7e97 a422 b354 1b27 f640
7769 4b54 7634 555d 074e 994d 451f a31e
381d e590 6e77 3e8e 87cc 7580 3944 56cc
3723 f388 4652 ba38 76ec 0f50 5f7c 592f
893a 71d0 98c1 2369 157b bc88 5941 0450
4286 c243 7582 060e b133 a6af 251f 92ca
2915 148d bbc2 d70f 5b1d 6579 9f63 0c1a
2855 c2e3 7887 90ed 6a9f 7f1c 1ec5 28ce
8db1 b685 822c 63a7 3a89 9cb7 7d9d 4d17
8f22 da07 7b13 eac3 0bee b6e8 1c8b 8e13
3354 04c4 886a a4a1 8eca 4371 3157 ede8
4fb0 7bcb 14fc 402e 2962 1c32 3b27 dfcd
1819 ddd2 9eb4 7dc7 b560 b258 7f85 7688
9d5c 6de1 66b2 c24f 955a 6cc0 9dd0 d6e5
42c8 d454 6264 1abd 913a 1f99 b4d6 8f42
59c7 bc85 86c1 f49c b9a2 95d3 4ba2 ecfa
bd1c f3b7 aa76 9f7c 28d3 a7ff 32f8 fbbc
647e bb62 42d8 5150 1199 659d 939a 9167
b8b8 9270 69c1 5444 8d58 5166 9659 d9fa
1dc6 02ed 37e8 31e1 8f5a 18ff a033 aca9
14d6 ce57 50b4 36a4 9f65 9910 9c8a 01f1
1a79 fe6f 5fe1 838a 3276 ca1b 6946 4bf7
beea fead 37a2 b9c3 ace7 a8d3 9ab7 3d38
a6b9 62d7 3eed a7cc 0208 a908 4bdd 6aba
4a8c ff34 9053 222f aa10 7663 32f0 1fea
4dd0 0379 5343 db36 9196 7b23 1f87 8d9c
62f6 b9dd 8698 b287 0569 65bc 8d3a 1f8c
7ca4 4d20 6e36 e6d6 4b99 f1ed 694a a9c9
25c8 24a8 60b0 693e 0a82 ad14 51fd f07d
55d6 12eb 4a7e 5a64 77fb 2b37 4b8f a7c2
002c 588c 228a eee5 27d5 f3e1 8f85 7010
be7f 8a89 8538 e4f4 b748 a1b1 b354 2802
0f7d edb8 1480 ca6f 0381 cc86 9f85 8df2
81d3 d4b5 264a 8687 6680 4c4e 272b abb2
4dc2 72d9 9596 fcaf 4f14 d6d8 9487 81b0
3358 133d 53fc 1f18 5acb 4410 1333 6c0d
4dc8 cbe5 232f 44b9 8d1a 4e3a 25b2 225a
6c4e 8139 a8fe 7e17 6117 4a39 087b 26e3
a7a5 7948 4593 783d 2020 df7c 9eb1 9e1f
5430 4c01 3fa1 b33b 31de 75ca 08cb f682
6e46 e106 47a8 9d73 782f a72e 9594 a4c2
4119 10e8 0bc7 6b8b 7802 5770 af35 632e
4967 eabb b80b 86bd 5f7f 64cb 33ab c2c8
7893 9f12 bcd4 fe4a 9913 dc2d 0a75 8ba4
251e 6804 15cf de99 0890 3aeb 6864 f345
3b2d 4ada 3463 300d 87e6 fd66 877d f6bb
6df5 bf45 0a99 99d5 7ab2 9828 0e1d ffb2
6b68 16f7 3ade 2312 329e bd44 539d b204
806d 9185 00a8 e9f1 6712 8a95 a412 a0f4
8438 da0f 61a2 d85f bf54 9730 7d2e 2946
5f8a 8d44 67a3 8493 7719 e0dc 93b8 be20
92e2 6ee7 717a ade5 82be 2893 1566 e51e
82b6 a2f0 1830 2804 4735 01ad 2c27 01be
05b6 2ac0 4e31 30d3 515d f65f 6bc6 54b0
85b9 942f 5fc4 163a b00e abcb 0e58 e28d
9f3e 30bf 6d97 fbc0 7f95 4cdf 4b2e f667
7d21 5bac 82ea 594f 1f5f 7f4a 84d2 44f8
59ce afc1 24f6 83cd 0adb d025 2f38 e40a
bd08 d725 50bc 7a5f bf11 0dc7 b44e e72b
8af9 00a7 35d5 4ad3 5286 78fc 18eb 137c
ac4d 6527 6f2f 4b35 5bf3 f7eb a02f 59ab
1c24 55e6 371a 68d6 6392 2816 5e61 5481
7201 5b70 526d 74c1 312f cc17 040c 6285
7d25 07b3 83af cb58 05f6 6690 a112 caf4
2bb3 26e4 19fe 442b b4e0 3a70 8123 940a
7b7e 996b 39e9 a82e 5a2d 61f4 a05c 430e
1c0a 5861 06e1 84a4 9b3a 69c0 a433 72b1
7392 05d9 7de2 7298 7e62 b8c1 bf1d bde1
457b a7f3 0a97 bc68 965a 72cc 86d4 bf12
48bd 4301 57d3 7fe5 65c5 704d 1986 f805
bcd2 3f3c 180a 31d8 7038 d2d2 0e76 7e5b
6e8d 8fa8 02e9 8b31 3f7c 7954 9daf f6ec
a91a ff09 4112 7e51 717b 399b 3b09 3b94
7c94 c383 3154 6817 948d f43f 695a 0f5a
7ccd e620 aa89 7e6f 0621 5763 091e 90bc
3496 3c9a 7ee1 fa16 2dec c38e 23e1 2fdf
56da 8828 59dd e577 5451 154f aca0 3707
20b8 7a03 6836 091a 26e4 dc2e 9ab1 7ea3
8d5f 4bec 0f85 6e3c 7529 f80d 7d98 e4ba
ae9b 6d21 b67f 1f4a 9d73 e9b9 2c99 fc57
9d32 6668 218f c098 9b6b 9632 a113 ac04
8f9a 65cc a558 8e01 3361 eea7 2ad6 eb0f
23b0 767f 598d aa33 8352 cc24 082e 29ec
38dd 0298 98dd 2e5a 4d11 d8e6 4dbf 2496
1cc1 f566 3bd3 df67 9a4a b263 b538 7480
b429 1166 5483 3bd7 7801 30ee 52af 8afa
6cfe e038 3394 40ae 0483 a41f 9bac e782
249b f44f 6005 91d9 028c c76d a350 a486
3919 7225 1ec2 b5fa 008d a049 2b16 f5b5
a6c4 9a7a ad8d bb7f 9712 b613 748c 0448
5d5b 6af5 b5db 8720 2f59 d82d 56f3 f6a1
23f2 42cb 7021 eb9e 360e 079f 502f c6a7
2375 9f1d 7055 d7ea 763f 18e7 617a e6c1
6ad2 5dd0 78fb 0c93 4ac7 0841 8997 5aac
3f5e fc01 aba2 aef3 15ca 0c75 87d1 50c3
1fd5 7643 621e b492 1151 eea6 39d5 91b8
186d eba4 9570 f751 6ab1 baa5 239f 8208
241a 617e 57aa 4594 b62d 26ba 2c9a da8e
a8bd 73ca 7cb9 bcba 3860 a8a8 a023 c998
6cdf fb17 4c45 2332 0e70 5a12 8173 976c
bb7f c478 a748 da1a 92b7 4af6 2d07 e260
3a73 dc58 38c2 9180 2269 b06c 86e6 6ba2
2b9a dac4 0128 1395 1aae 7c96 1c66 2d21
5bc6 54c8 4c66 e6f3 aba4 35f6 3af7 79b4
6979 ca13 848f 15ad 66f9 27ac b920 b7fb
bbf0 2271 7f3e 9be2 2155 cffe 308b 078a
73fe e95b 63e7 4e3a 1338 a8e0 378d 580c
31fd 9da4 7776 1594 8b75 1c07 34f2 a9bc
150e 8277 50cb 0252 67dc 795c 6cf8 89ff
8af8 a82c ba63 72f3 4b80 b2f5 9381 b419
bdd8 859c af1a c397 1908 8ef7 8714 077b
394b 5d8d 768b ec47 46a7 ac0a 381c 65fc
7522 6082 777a 19d4 8861 5115 871f 05a1
1ad0 de59 9d45 b3b7 7d16 9dfd 8a26 9da7
a32a a4ff 615f d2c4 4b38 e8eb 22f6 42db
4ce7 c492 79bb 1eaa 133b 528b 2e33 0c15
099a e4ed 037b d70d 60e6 f364 b71d be75
04b4 bf8e 3c35 97ad b212 3691 2ff2 b6b9
2b75 8373 5170 2d7c a7a7 4f74 497b 5619
b7be 9c73 bfab 57c5 36ac f434 8173 a77e
4509 0ac8 848d e0fb 1d06 35b2 8796 9afc
b387 a099 a226 0532 02a7 c368 57d6 2888
912f 186a 311a 241c 0bd2 b7ef ada0 b397
a77c 1e55 5729 44b5 4b5a 319a 3d23 2802
1448 87a8 1a04 d9e0 4154 6504 b203 1b68
4f3e 26d2 69fa b302 6b23 ac43 82d3 e763
b203 9a91 6e66 a1fe a1c6 f195 a405 a377
8009 862b 5e97 4d13 6073 f959 b7ec 489e
0764 e660 7fc5 13e4 18a6 74ec 3ff7 7f67
28d6 f60c 5d6b ec1b 2815 928c 188a 29c3
a5ab 103d b55a c07d 3e21 16d6 80d8 95f0
a642 fc3f 421d 2c9c 0a05 3928 a33b d3b9
1711 feee af5c 0cbe 97f5 b0f6 210e 1779
a9fe b1b0 35cf d726 99f8 a63d 181e 2121
363b c454 1b83 09ad b8f0 958a 3fd7 4806
0cfa b08b 68ed 7775 b411 bb1b 1612 43dd
a4f0 c8fd 7b67 2e5e 09d4 5006 9a05 b72c
5b45 51ce 0092 d1b7 93da cc50 1927 6776
277f 6e82 1259 87d8 41f2 4c8f 4099 1cc2
95a6 7aa0 8311 a9ac a50e 603f 2787 4716
53b5 3c3a bb59 69be 6850 9864 7787 0bc2
24af 20cf 3f54 9a43 2542 e324 4497 96a2
0b37 2e85 1a9b 2570 12fb 14d6 af3f 4123
a4d5 6272 1acc daae 2c91 c92c 8175 1668
4800 0000 444f 3767 6938 f500 9209 a8d9
81e8 5a9b 13dc 53af 88f0 17bf ab2b 8b20
2090 c4ad 0584 1aff 187c bf93 05bd 4d36
09ce 23fd a013 c39b 3038 cf27 2366 2a38
3756 1ffa 4d7b 8fcb 5a74 1514 6975 9c2e
51a0 d83b 80c0 6642 5117 6f3e 0afa 7fc5
598c 9685 8080 cdb6 093e 1f4b 54af 3817
077d 0ee7 af94 2904 3cf1 80c9 9bb9 6d71
6d11 dba3 8e19 baec 51e7 5235 43a8 4081
4b25 e6d5 5156 6ce3 4056 8a0f 7f58 384c
be6e 0705 2f03 0dd1 4b4e d727 927f 2df0
92d2 4ee9 aee3 c025 1610 44e9 a067 281c
409a b7bb 1074 c2aa 57b3 12cc 785f ab02
4395 aa9f a722 b838 09b6 be64 4ff9 26cc
091c 2699 0f09 d455 7620 8809 a7fd 21fc
3ce3 21df 9e03 4447 22b5 76db 09c5 5c5c
1c22 9e5c a003 31bc b495 5926 9b97 cb0c
7b9c 29aa 50d0 33df 75d2 72e7 76e0 bc7a
47de 16f3 40b6 e832 21b9 afa5 99a2 96e5
7acb 4643 5f09 c4a2 aa7f 2f49 b8bb f0d3
ba1b 8121 88ca 74f9 0b73 0d09 43de e517
93cb 49ad bb5f b975 521e d59b 7f36 6b58
1b98 bf76 7833 4886 2fe7 a0cb 4707 397e
72bb 2e86 08ae 48f3 32a7 057c 0a07 ef8c
4d45 2097 a087 774d 05da 3137 27e1 e638
5650 3d1d 5b7e a192 4e08 98a4 b4c4 3a00
293e 2dfe 50cb d327 74aa 4719 b8cd 2650
4ad7 d77e bca9 c30d 64d5 54d2 a453 364a
4c53 24ab 72e5 e761 15f9 2903 4b84 4c31
0722 e758 5517 f06a b2f1 9228 30f1 8e9c
62e8 a1ff b864 4fe3 517d 8e8e 6024 8fa3
89b7 858e 9f87 ea20 0d74 6516 4e0e 661b
078f 579c b0e9 f183 1ea2 899a 6e66 4b4b
715e 4d1f 83d1 8c48 6942 ccc0 1d61 49f8
4d7b f26e 9b7b a9b5 58a9 6719 8c8f 4c90
8960 ffb7 a501 d56e aa0d c493 68ef 4dc2
9193 f4cf 263d 0813 3c05 148e a0e5 b2f6
80ce 23fd a780 4184 2ecf 5933 4652 38aa
4726 7035 4c33 17cd 566e d3d4 1718 3189
a429 8177 a870 bc36 7804 4900 3b5c c3bb
514d 1c24 6729 1db9 6c67 f169 0687 fd99
8df3 d08a 877a 5ab4 9562 7bfb 6150 f866
8899 e9f9 4af2 24b8 410c 1c57 437a 0067
81ee eb92 9d8e 8bed 426e 9fea 21aa 6052
11de 8ed1 aa4a aabb 4e99 4011 1a90 9111
a073 60ed 7b89 6bec 5f21 9da5 7019 23fd
9671 9839 600d 70dd 5d18 b153 86a7 e63e
573c babf 2c13 2893 28f3 2d9b 1837 cc25
84a6 9c14 457a efc9 9a87 83e2 6617 8480
1542 0726 2d46 6852 b562 ff49 9f8f 6b95
255e 2975 2a34 5ba0 1cfe 164d 273b 1f7c
5eb5 240c 6ce2 f1f4 197e 4417 bff6 e2ad
a4c6 7561 5f13 58d6 b12d 5823 2f39 9afb
3115 0841 493f 4983 46ae 0542 5a8b 012d
4e54 60c7 1f17 a9e3 9a95 611a 3ca5 80ef
b8ca 83a1 9bad 453c 4e51 d9a9 b76e 5b78
85ff e4d3 1ed0 678b 9225 2edd a8e2 6637
8b0f f8a4 4f14 ab7b 9cd0 ae3e 41a9 1f28
24d6 3c0c 47e6 39fa 82f0 1cf6 7894 6afd
418b 9de8 7a2b c68a bb7c a3a5 91ac 4cdb
9d5a 8f48 4867 bb0c 9d73 24d9 2518 3025
0211 0894 1b7a ed4d a9e6 15a8 86c2 c027
0a04 20e6 be51 1aed 50a1 29d4 23ce 2558
887e d87e 4041 d1dd a3ad 6ce4 2bf7 598c
11b6 f795 6820 8102 7a7f 8421 191c b77a
0451 b35a 862e 3ae0 8bbc 9424 4ec9 7a2f
427a c4a6 a471 b907 7bdd 6fa1 6970 4054
274d a64c 4b1c 7844 6dd0 3eff 28a5 e3b4
9196 5887 8752 39b2 87de 8885 39a3 d481
b68c b19d 13b6 9bcb 3f86 593b 063d 0fb5
a62f c7f7 3233 1384 09a6 acdc 7ce3 478f
555c 876c 54ee 5463 8859 7efe 4003 ecf4
4cf6 6dcc 425e 64dc 27fd 5eeb 1fd9 c70c
9e40 9574 2aee 1521 a1e6 619b 160c 1469
31d5 d9db b447 1dc3 adc7 6f5a ac12 152e
b3ab ccfa 8371 05bc a190 9659 6608 1209
387e 7bd6 4818 4389 11a3 7e7c 3b45 a193
88e2 b3c2 9f76 86bd 38ac 3f15 b2bb bc41
035c 9f05 b92b b5ec 9793 2d85 751b 0f5d
0bd8 7a94 6b33 3db8 096a a7e5 0161 0fcc
b0b7 86b1 0949 f299 9301 9cdb 10fc 6111
489f b76a 8c5d 9193 b499 f8eb 44a5 de39
8d00 c0b8 aece 39de 8adf 4d12 2550 52b8
71f2 220f a0f6 04f0 4ac7 db51 5890 d176
a2a4 bba1 23fc 9579 746e e439 53bd e0e1
0aa0 2f96 2675 74cc 3ac4 9c82 5eb2 f9ea
1857 9c9e 6ed3 4b5c 16c5 3eea 0a74 2d0f
3fac eb1b 065d 12b0 49af 7efd 1ae1 d899
09a6 32df 71b9 bb2e aadd 42e3 7043 54e4
65c4 37fa 14c2 a328 995c 74ba 8996 bbfb
4b94 596f 9fcd 600f 0519 6ee8 0ea6 0882
9473 37f6 4a18 89f3 8d7e 440a 6fb5 1fa7
21d7 082b 5af9 2f1d 3f2f 2752 2a05 17b2
5f0d dfe0 93d2 8a23 5c92 6d06 15c1 0565
56bb 29bc af4b eff3 050d ab74 3f3c 78db
b769 1144 70b0 4ea8 b90f 5abb abd3 3c41
b0b4 00da 2d50 2b7f 673e d1f4 a989 1bab
5bc2 40ec 92c2 c289 b761 422d 626e 156e
37b1 b097 7311 77e4 48b0 17ce 7e8c b5ec
9c72 ed86 1416 fd78 7e02 677b 044c 7b07