0020 0000 82be 211a a6b1 fb54 0a05 5cc7
579e 3917 bc0d c9fb 25aa 7a02 2e39 4760
be68 cecb 4d5a 6210 0f1a debb ad46 8de8
78e3 ba62 00af 8984 8c30 8084 9f49 bac0
05f1 4c50 61fb 2920 b89f 2328 1dca 5771
375d 1fb8 bfa9 23ff 434e 6078 1522 9922
b2f3 be72 6ebe cd14 025c 7846 951e 8f66
9723 fa0a 02ea e38b 6c52 2a97 b427 2139
16b0 747f 40fa a4f0 bfcb 0a6f 3998 498e
1c0a 7da9 b7a8 8db9 646d b90d 0521 c7f0
9d6d 90b5 8e59 1e79 00fb 313d 7684 47ac
aeb3 25a3 1072 1464 4af5 0c9d bece 1c99
3055 314f 23bd deca bb56 e43b 5a0f 625d
08f7 2ca7 a504 a3a3 8503 7bb3 0028 01a5
8072 f906 a853 8454 0b21 e913 552e 7634
bcb5 4fd3 27a0 d365 2c25 adb5 bdf3 bc5d
4fc2 d4cb 0dd1 2bdf abcd 0e22 7b3f 04e6
0073 cd1c 8a00 812b a11b 52d0 06cf db3e
5f88 447f b986 eb6e 1f95 401e 3528 bf5a
bf77 436e 45a6 e6da 13a1 3ebc b1b2 80eb
7128 f91b 01dd b0ae 9310 458e 9920 2f0e
0388 dab4 69e3 794d b54c 75e9 184a 8e60
3eac 17c2 bfdc f114 3bd9 dd76 1a55 fd93
b6a3 5451 66df 8b9f 0461 70c5 9b87 2436
9079 febe 0156 b7a4 7421 123a b012 986f
11d6 9386 4893 3ae2 bf23 94db 3279 1154
21db 5403 ba90 bd1d 5c81 899c 07f7 85d3
a34b c4f8 8742 a7b9 0040 053e 7e22 6588
a9e8 f8e7 0c4c a205 52c0 81e0 bd4d 59c6
29a0 970c 2a1a bd18 bd6e f8dc 522d fdd8
0c95 32df aa46 e55e 7d95 c276 0048 05ff
87c9 7df5 a2e2 0b21 07bd 4f8c 5d15 73de
ba5f bfd4 216a eb0d 32fb 86b6 bf35 7112
4803 d3c9 122c a5ab b063 9e4a 7390 476d
016e a1f0 90f9 7468 9b12 d992 0436 435f
6773 2136 b663 8b84 19f0 a247 3c63 1b8f
bfde d4f2 3e21 7afa 18ad 2018 b58f a28f
6950 3851 03b0 66ef 9996 c681 9292 c651
01c2 0d70 71ba 801f b164 ab98 1348 2098
4635 52b8 bf69 294b 34a4 8bee 2003 2a45
b9bb 75bb 5ef4 463e 0706 92ff a187 a8f3
897b 451a 0068 06c8 7bcc c999 ab72 1556
0d85 55b9 5054 c3fd bdd5 ce71 2ba9 6f7e
2818 ccde bcda 9a75 549b 75ce 0b67 2882
a8b4 54c5 7fe7 8f12 002c 3b7d 858b d596
a49d 97c3 08b9 8193 5aa3 1fec bb29 7c24
234b 09ca 30d5 d2de bee3 b7e8 4a64 c23d
10c5 0c29 af07 4e7f 75f4 5146 010f 5e99
8eda 7547 9cfb a64c 04f3 0095 6501 8a98
b76c 336d 1ba2 69b6 3a20 120b bfd0 b5b8
406e c0a0 1710 2c2c b46d a680 6bbf 56ce
030e c801 979c ca7d 94a3 1b8d 023d 20b4
6f50 f801 b2a9 26a7 14c6 7de0 43db b953
bf9e ce4a 36d7 4457 1e35 b06c b8d7 31b3
6167 2f97 0624 7c68 9fb8 9b18 8bac f4e0
009f ff95 7972 8908 acee 97f8 0ecb cff5
4deb a40d be4e 9708 2dbb 05bc 2620 32df
bc36 b9f0 570a d4e2 0a47 3f3b a715 9f93
8234 078d 0020 723b 8347 e7dd a64d ae9f
09c4 4733 5831 b146 bbe3 feac 2535 4c26
2eb7 ffa0 be82 2596 4cc9 4c83 0f6a ae45
ad9d cbb5 7854 b06e 00bf f692 8cb3 a2dc
9eda 4398 05be f2d1 628f 1df0 b866 4171
1d5f 9c3a 37e3 5bed bfb2 95c2 42c1 4bfd
157f 66c8 b33d 9093 6e2c 7f03 027c aef8
9599 84ac 96aa a632 02c7 dce2 6ce4 e105
b3df d36c 1651 6b82 4186 d32b bfc4 7ae2
3910 dc94 1c73 338b b7e4 1725 63d9 dcf3
0551 67d2 9dde e8bd 8dd7 593a 00e7 e64b
7714 086b ae5e 4140 101f da30 4b85 8922
beb7 9f61 2fd5 0155 2431 4361 bb83 72ab
597b b2f6 0935 a71e a56b 0b0e 847a c99d
0024 ac2f 80fe 15a7 a7f2 078b 0add 73de
55c1 9060 bc8f 2847 2729 6040 2ca2 677c
be10 ca69 4f31 0c4b 0e1d c5d9 ac27 524e
7ab0 ff47 0080 771d 8a85 5925 a0ae 6188
0699 f803 601c 43de b951 8bcc 1f27 ef77
35ad 58db bf84 7a17 4518 b9c4 13fb 12dc
b1ff 9391 7097 4933 01fa 343b 938d 4b1d
98a9 0f7b 0362 2acd 6a76 a2b9 b508 7e02
17e8 a787 3f37 03f4 bfda 28c8 3b50 f581
1abb fedf b6e2 4eab 664b e5a7 048d 787c
9bfa e101 8ffa 1590 013f aee9 74b1 ad0f
afc0 d3c6 1181 3ba2 4922 d9cc bf10 d5ef
31f7 086d 224c 510e bac0 e298 5bed a7ad
0832 8ddf a3b4 de72 86bb 73ef 0038 e8a6
7eae c0cb a98a 5c52 0c04 d89e 5353 2579
bd2a dc5c 2926 f290 2a95 6391 bd8f b94f
519b 9abf 0cde 8a7e aaa4 20d6 7d08 d8e6
0050 ead6 884f f562 a277 b1eb 0783 eb96
5da9 6513 ba2d eb31 20fb 1736 337e 675e
bf46 6a6b 4774 a5d7 1283 7142 b0b3 e497
72ff 4e02 0187 6d94 9178 755f 9a9e 022a
040b f0b0 6806 a50d b622 f4dd 198b eded
3cec ae84 bfdf d45e 3d97 2ee7 1910 5bc4
b5d2 0354 68bc e124 03d8 cf22 9a0c d4ba
9214 ce92 01a7 4ac4 724b dce5 b116 1452
12ef b943 46c3 fc0c bf5a 2bcd 3420 bfd3
2071 ace5 b9ef 2a36 5e60 4a7b 073e 1ec3
a1f3 62f0 88f5 a632 005d 243e 7c5a 4c0d
ab16 68c3 0d3a 441d 50e6 d885 bdb7 00ec
2b2d adfd 2891 4b8d bcff 07d6 5408 908f
0bad 3187 a914 77f7 7f5b d918 0031 59ad
8613 d601 a435 e861 087c a677 5b36 ea42
bafb 3ad3 22d8 c572 3156 e4d0 bef8 711b
49d4 ab59 1118 c0b9 af5a bb0a 7564 268f
0124 6e30 8f5b 5c70 9c89 2a92 04c5 1230
6595 5036 b72f 08d0 1b3a f8ac 3aa8 34c9
bfd5 7cb1 3fe3 2789 1770 91a6 b4b3 6299
6b2c 6707 0333 89ef 9815 166c 9427 2a46
021e a88f 6fe2 fe70 b25d c9e4 146b 15de
4469 553c bf93 94ba 3651 cb0a 1ea1 a62c
b90e 6c8b 60d3 32b7 0658 829e a026 e39a
8b29 0129 0091 58ea 7a01 1b0a ac95 eab6
0e7d 82ae 4e7d 111e be33 7e8d 2d3d 3be2
2696 75a3 bc5e ce29 5677 8605 0a89 edf2
a778 9a71 81a9 9c7f 0021 c8e9 83d1 5a8f
a5e8 ba63 0983 ff1b 58c5 3c0e bbb9 5867
24c0 aa62 2f37 2d4f be9a 9b2e 4c38 64bd
0fbb 3dd4 adf4 508f 77c5 6c7f 00d1 4697
8d36 5aaf 9e6a 36ac 058d 7062 6323 0ca7
b82c 8d15 1cf5 7fc6 3869 f7b7 bfbb 237c
4234 7d32 15dc e5f6 b386 9c5a 6d9a 0f2d
029d c47e 9613 fa39 9630 d017 02a5 b45a
6d77 78b8 b397 bdc2 15f3 1218 4213 4a04
bfbd 0721 3889 cc60 1cdc 8a64 b81e cf21
6345 f7ad 0581 dfc9 9e4f ad58 8d55 26bf
00d5 7df2 77a3 922c ae08 a21f 0fce 5e52
4c16 3672 bea0 4076 2f55 4423 24a5 367b
bbaf 270c 58e8 1316 0974 f065 a5d0 cd0e
83f1 c09b 0022 3b23 8188 e3ab a78f df52
0a99 c987 5654 c2f6 bc68 242c 26b2 748a
2d1f 9ba9 be2c f850 4e9f 6bd8 0e6b 22f1
ac80 e104 7a22 ba0e 008e 04ad 8b09 cbce
a040 d620 0664 e9ce 60b0 42f9 b91b 5754
1ebb 3953 3632 5736 bf90 cd24 448a ccca
1455 9c20 b24b e2d4 7005 71c2 0217 97d2
9409 d5d5 9831 68e5 033c 5798 6b09 b336
b4c3 bb7b 1787 6c78 3fc2 3e45 bfd6 7c15
3ac8 64f5 1b22 a538 b720 79fd 65b8 30ae
04ba 5a1c 9c6e 0edf 8f79 ba10 0129 87f5
7542 1695 af6e 5113 112c 9ec8 49b2 af32
befd 347c 3175 6d39 22bd e120 baf0 2fd3
5b59 cf72 086e 6724 a41d 5697 8633 e3da
0032 b048 7f3a d2f2 a92b 1081 0bbd d755
53e5 e747 bd07 80f1 28ad d0c6 2b10 8952
bdaf 9ad0 5109 59f1 0d28 a834 ab00 aa72
7c7b aa25 005a b3ad 88d6 0cc1 a20c ba54
074b 5a78 5e3d 5bda b9fb 3fac 208b d98a
3401 b213 bf56 80bd 46e5 b262 12da f57e
0060 0000 82a6 eff3 a682 ca46 0a3e c1ab
57a3 d179 bbd0 56f9 25d1 6aac 2e5a 8199
be29 c93f 4d66 d4a0 0f50 ded1 ad12 f858
78d3 1d07 00ef 29b3 8c13 0104 9f1f 7b83
062d 6a28 61f9 d694 b863 faae 1df6 89f2
3778 4003 bf69 489e 4361 87ef 1554 92b9
b2bc 5ed4 6eb4 f543 029a fa21 94fb 19df
96ff 2b1e 0329 0654 6c49 f112 b3ee f46a
16e1 6481 410f 5a14 bf8b 186c 39b1 ec93
1c37 db1f b76e 09da 646a c440 055e 704d
9d44 8f54 8e3a 2e15 013a 9eeb 7675 3fcf
ae7e 9cb2 10a7 2f5f 4b03 1899 be8e d36d
3075 031e 23e6 1849 bb19 eb50 5a13 596e
0931 45e7 a4d6 9130 84ea c67a 0067 fc4d
805d 4fd2 a823 3c8e 0b5a 9005 5535 aef8
bc77 6cfc 27c6 74b9 2c48 4acb bdb5 04f8
4fcd abda 0e08 080b ab9a 7490 7b2c d4d3
00b3 952b 89e4 777c a0ef dcc6 070b 6484
5f88 946c b94b 283a 1fc0 4049 3545 5862
bf37 8959 45b8 7d72 13d4 3991 b17b f7bd
711d 84a3 021c 872a 92ee 2f58 98fa 0ce3
03c6 940a 69dc df74 b513 854b 187a 6ca0
3ec2 571c bf9c f31f 3bf1 feee 1a84 7e6b
b669 7ed1 66da f510 049e 9987 9b5f 6789
9059 a2a0 0195 e83a 7413 a25d afdd 24e3
120a c088 48a2 ddf1 bee4 12a1 3297 7569
2204 cf9f ba54 4878 5c83 deb1 0832 49bb
a31e d8d0 8728 728c 007f efde 7e0e 47e5
a9b7 a27a 0c84 818f 52c9 59d1 bd0f 1172
29c4 e2c0 2a3e b742 bd30 9a17 5237 3797
0ccc e1f7 aa15 503e 7d82 02b5 0087 eb47
87ae eec7 a2b5 658d 07f8 3a50 5d17 6636
ba23 6be3 2194 b1b2 3319 93b6 bef5 e2ed
4813 d692 1260 9939 b02d f4a8 7383 3838
01ad c28f 90d8 c335 9aeb 6a86 0473 88f3
676e 2822 b629 e099 1a1f 66c7 3c7a e169
bf9e d5ba 3e38 16dc 18dc bc8c b556 8519
694a 00c4 03ee 05e0 9970 552c 9271 03e2
0200 f660 71ae aa82 b12e 565e 137b 56ea
4646 8a3e bf29 789f 34c1 7d36 202d e111
b97f 8f75 5ef4 f8f5 0741 f7be a15b ea98
895f 945c 00a7 d6b4 7bba 3ae3 ab3f b87e
0dbc 6485 505f 39a2 bd97 2b06 2bcc 5f83
283e 1e1b bc9c 9ebb 54a3 10b4 0b9f a13a
a883 cc5f 7fd2 42ef 006c 3353 8572 c557
a46f ca19 08f3 c3fe 5aa6 b45d baec a188
2373 8ff0 30f5 4ed0 bea4 6050 4a73 2e8a
10f9 efc2 aed2 8d5f 75e5 a983 014e bed0
8ebb 2e8c 9cd2 f0f6 052f c82c 64fe 331f
b731 d7d7 1bd0 0ca6 3a39 5a6d bf90 bfed
4083 d326 1740 dc49 b435 4a9e 6bb7 7f4c
034c d2d5 9777 aaeb 947f f86e 027b b77c
6f46 be9e b271 f8d4 14f8 b4f4 43ee 826f
bf5e f9ce 36f2 bdfd 1e61 9b45 b89b e3cd
6166 3fd2 0660 7814 9f8e 11d8 8b8f cd30
00df aa23 7961 8c58 acbb 3d1f 0f02 04d1
4df7 b5a5 be0f a2fd 2ddc 943d 2646 d4f3
bbf9 2b9a 5710 cfa8 0a80 7823 a6e6 2c03
821d 3296 0060 71ee 8330 5abf a61e c085
09fd d789 5836 e737 bba6 a790 255c 8b08
2ed8 e542 be43 0f21 4cd6 1feb 0fa0 7914
ad69 fbe8 7844 728e 00ff 8bca 8c95 cbd2
9eb0 4ec4 05fb 3244 628d 68a0 b82b 3eef
1d8c 15fa 37fe 229d bf72 b413 42d4 d1a2
15b1 226d b305 ffad 6e23 08dd 02bb 1b52
9575 bd11 9686 2844 0306 170d 6cdc 4590
b3a7 d635 1682 9af5 419b 2abc bf84 8d41
392a da00 1ca0 4b1b b7a9 6b87 63d7 4ada
058d f065 9db5 9bb3 8db8 bf76 0127 60da
7704 a098 ae29 f0fa 1055 2c10 4b93 34aa
be78 6539 2ff5 28b7 2459 2fd8 bb46 5c02
5980 0c9d 096f 96a9 a53c b43f 8462 6fa4
0064 a911 80e8 0f97 a7c2 00d9 0b16 4883
55c8 66f2 bc51 5ee9 274f 5150 2cc4 b150
bdd1 ff9f 4f3c 44ab 0e54 6ee2 abf4 7c7b
7a9f 2e02 00c0 36b8 8a68 f6c9 a083 3438
06d5 a542 601c 3100 b915 ec39 1f53 389a
35c9 9960 bf44 b72f 452a af45 142d d1b9
b1c8 d6f0 708c 35fb 0238 f7ae 936a e173
9883 3cd6 039f fdf7 6a6f a6a3 b4cf bac2
1818 c722 3f4c e692 bf9a 2cae 3b69 725c
1aea 3b9f b6a8 4f21 6647 b1a7 04ca 83db
9bd2 d712 8fda 0ed5 017e eedf 74a3 dcac
af8b 96cf 11b5 a19c 4932 1cfc bed1 6039
3215 c351 2275 813e ba84 4dd0 5bf0 5f7a
086d 2a5f a387 ac23 86a1 9903 0078 d805
7e9a 4577 a959 450d 0c3c e813 535b 9b88
bcec ab0e 294b 8f78 2ab9 0bdc bd51 44ac
51a5 3636 0d16 08a1 aa72 4d7a 7cf5 7734
0090 ca2e 8835 0c71 a24b 5355 07be fca9
5daa f4aa b9f1 b884 2125 2882 339c 1d00
bf06 d0f1 4785 0834 12b7 2ae0 b07e 055f
72f2 9f94 01c6 7da6 9157 6f65 9a76 e11d
0449 5286 6801 4980 b5e9 750f 19ba f5a6
3d04 1888 bf9f d47b 3dae 271b 193f b5fa
b598 b98e 68b7 0bf1 0416 5319 99e6 1496
91f3 6039 01e6 4590 723f a63f b0df f38f
1323 2a98 46d4 d457 bf1a 8523 343e 0916
209c 19ec b9b3 216c 5e61 5ffb 0779 5e6f
a1c7 5cac 88da 4ea6 009c fb6e 7c47 5ee0
aae4 491d 0d71 8506 50f0 eca6 bd78 7211
2b50 f09f 28b6 4c5b bcc0 f3ca 5410 8d83
0be5 7b7e a8e3 af64 7f46 ea38 0071 4e18
85fa 6af9 a408 5fee 08b7 1181 5b3a 1c0c
babe 7f18 2301 97df 3176 0a99 beb9 0bae
49e3 77d6 114d 6c72 af25 c23a 7555 df09
0163 c058 8f3b bfa9 9c60 c1a8 0501 f871
6591 9618 b6f4 d60f 1b68 e0a9 3ac1 224b
bf95 83b6 3ff8 973f 17a1 016a b47a d829
6b24 f19b 0371 7c39 97ef a68d 9404 59e4
025d 53ad 6fd8 6393 b226 ce5f 149d 89f7
447b bfd1 bf53 c7be 366d 9dc9 1ecd 48f4
b8d2 f9c7 60d2 a5bb 0694 5b8f 9ffc 10bc
8b0c 318e 00d1 0d40 79ef bf2f ac62 cb0f
0eb3 ebcf 4e88 c1a3 bdf4 9c98 2d5f 1e5a
26bc c8c6 bc21 2512 567d e320 0ac2 fa57
a748 e4cd 8193 23ef 0061 c7b8 83b9 71b0
a5ba 0fae 09bd ba5a 58ca 0f81 bb7c 1dc3
24e8 371f 2f57 be0b be5b 7465 4c45 98e1
0ff0 d2dc adc0 4701 77b5 8e42 0110 d041
8d18 2c63 9e40 8ca5 05c9 d0e2 6320 f497
b7f1 b119 1d22 405c 3884 648b bf7b 3c17
4248 60d5 160e 6331 b34e dab2 6d90 fac7
02dc 1ac2 95ef e0df 960c a37d 02e4 0552
6d6e 7b69 b35f f0aa 1624 8086 4227 43d0
bf7d 1e7a 38a4 23f5 1d09 5ba3 b7e3 fc51
6343 c84d 05be 4801 9e26 1507 8d36 e3e4
0115 04cb 7793 ca88 add4 8b00 1003 e696
4c23 8167 be61 15e8 2f75 c0c9 24cc d58c
bb71 f336 58ec cf48 09ae b5b1 a5a2 3252
83d9 c21b 0062 39a6 8172 80f2 a760 1a26
0ad2 cb57 565b 3745 bc2a 74d9 26d8 b4fd
2d41 91e9 bdee 1ab6 4eab 056e 0ea1 9856
ac4d cf68 7a11 47c2 00cd bb3c 8aed 1108
a015 f1f0 06a0 ba78 60af cd50 b8df dbf1
1ee6 cb08 364e 3ef3 bf51 0202 449d 2108
1488 1e8e b214 f342 6ffa bfe5 0256 47a8
93e7 1908 980b e61f 037a 4401 6b02 54f5
b48b 2622 17b7 ccfa 3fd7 c3f3 bf96 826f
3ae1 3cfa 1b50 9d72 b6e6 50f3 65b4 5f48
04f7 4785 9c45 b80e 8f5a 0903 0168 d6b4
7533 e5cb af39 4b30 1161 3d3e 49c1 925e
bebd cbe1 3194 7ea1 22e6 c581 bab3 7b77
5b5c e9f0 08a8 dbb1 a3ef de8b 861a 636d
0072 a3ce 7f25 fa1d a8fa 38d9 0bf6 1630
53ed fb5e bcc9 673d 28d2 be8a 2b33 df69
bd71 10e5 5113 5709 0d5f f4de aace 9950
7c68 a6b3 009a 8c7d 88ba ca4d a1e0 a325
0786 914e 5e3e 88ac b9bf 2ed1 20b6 3517
341f 1011 bf16 dc85 46f6 742c 130e 74af
00a0 0000 828f becd a653 9939 0a78 268e
57a9 69db bb92 e3f7 25f8 5b55 2e7b bbd3
bdea c3b3 4d73 472f 0f86 dee8 acdf 62c7
78c2 7fab 012e c9e2 8bf5 8184 9ef5 3c47
0669 87ff 61f8 8408 b828 d234 1e22 bc73
3793 604e bf29 6d3d 4374 af67 1586 8c51
b284 ff35 6eab 1d73 02d9 7bfc 94d7 a458
96da 5c32 0367 291d 6c41 b78d b3b6 c79a
1712 5483 4124 0f38 bf4b 266a 39cb 8f98
1c65 3895 b733 85fa 6467 cf73 059b 18ab
9d1b 8df3 8e1b 3db0 017a 0c9a 7666 37f2
ae4a 13c0 10dc 4a5b 4b11 2494 be4f 8a42
3094 d4ee 240e 51c8 badc f265 5a17 507f
096b 5f27 a4a8 7ebd 84d2 1140 00a7 f6f5
8047 a69f a7f2 f4c9 0b93 36f6 553c e7bc
bc39 8a26 27ec 160c 2c6a e7e1 bd76 4d92
4fd8 82e9 0e3e e437 ab67 dafe 7b1a a4c0
00f3 5d3a 89c8 6dcd a0c4 66bd 0746 edca
5f88 e459 b90f 6507 1feb 4074 3561 f16b
bef7 cf43 45ca 140a 1407 3465 b145 6e8e
7112 102c 025b 5da7 92cc 1923 98d3 eab8
0404 4d61 69d6 459a b4da 94ac 18aa 4ae1
3ed8 9677 bf5c f529 3c0a 2065 1ab2 ff42
b62f a952 66d6 5e80 04db c24a 9b37 aadd
9039 4682 01d5 18d0 7406 3281 afa7 b156
123e ed8a 48b2 8100 bea4 9068 32b5 d97f
222e 4b3b ba17 d3d3 5c86 33c7 086d 0da3
a2f1 eca9 870e 3d60 00bf da7e 7dfa 2a42
a986 4c0c 0cbc 6118 52d2 31c3 bcd0 c91e
29e9 2e75 2a62 b16d bcf2 3b51 5240 7157
0d04 9110 a9e3 bb1e 7d6e 42f3 00c7 d090
8794 5f98 a288 bff9 0833 2514 5d19 588f
b9e7 17f2 21be 7858 3337 a0b6 beb6 54c7
4823 d95b 1294 8cc6 aff8 4b06 7376 2904
01ec e32e 90b8 1201 9ac3 fb7b 04b0 ce88
6769 2f0e b5f0 35ae 1a4e 2b47 3c92 a743
bf5e d682 3e4e b2be 190c 5900 b51d 67a3
6943 c936 042b a4d0 9949 e3d7 924f 4172
023f df4f 71a2 d4e6 b0f8 0125 13ae 8d3b
4657 c1c4 bee9 c7f3 34de 6e7f 2058 97dc
b943 a92f 5ef5 abad 077d 5c7e a130 2c3d
8943 e39e 00e7 a69f 7ba7 ac2d ab0d 5ba6
0df3 7351 5069 af46 bd58 879b 2bef 4f89
2863 6f58 bc5e a300 54aa ab99 0bd8 19f2
a853 43f9 7fbc f6cb 00ac 2b28 8559 b519
a441 fc6f 092e 0668 5aaa 48cf baaf c6ed
239c 1616 3114 cac2 be65 08b8 4a81 9ad8
112e d35b ae9d cc40 75d7 01bf 018e 1f06
8e9b e7d1 9caa 3ba0 056c 8fc4 64fa dba5
b6f7 7c41 1bfd af96 3a52 a2ce bf50 ca22
4098 e5ac 1771 8c66 b3fc eebb 6baf a7cb
038a dda8 9752 8b5a 945c d550 02ba 4e43
6f3c 853b b23a cb00 152a ec08 4401 4b8c
bf1f 2553 370e 37a3 1e8d 861d b860 95e7
6165 500d 069c 73bf 9f63 8898 8b72 a57f
011f 54b2 7950 8fa8 ac87 e246 0f38 39ad
4e03 c73e bdd0 aef2 2dfe 22be 266d 7707
bbbb 9d44 5716 ca6e 0ab9 b10c a6b6 b872
8206 5da0 00a0 71a2 8318 cda0 a5ef d26c
0a37 67df 583c 1d28 bb69 5074 2583 c9eb
2ef9 cae5 be03 f8ab 4ce2 f354 0fd6 43e4
ad36 2c1b 7834 34ae 013f 2102 8c77 f4c9
9e86 59f0 0637 71b8 628b b350 b7f0 3c6d
1db8 8fbb 3818 e94c bf32 d264 42e8 5746
15e2 de11 b2ce 6ec7 6e19 92b6 02f9 87ac
9551 f576 9661 aa56 0344 5137 6cd3 aa1c
b36f d8ff 16b3 ca67 41af 824c bf44 9f9f
3944 d76c 1ccd 62ab b76e bfe9 63d4 b8c1
05ca 78f8 9d8c 4ea9 8d9a 25b2 0166 db6a
76f5 38c5 adf5 a0b3 108a 7def 4ba0 e032
be39 2b10 3015 5018 2481 1c4f bb09 4559
5984 6643 09a9 8634 a50e 5d70 844a 15aa
00a4 a5f2 80d2 0986 a791 fa27 0b4f 1d27
55cf 3d84 bc13 958b 2775 4260 2ce6 fb24
bd93 34d4 4f47 7d0b 0e8b 17ec abc1 a6a8
7a8d 5cbd 00ff f653 8a4c 946d a058 06e8
0711 5281 601c 1e21 b8da 4ca7 1f7e 81bd
35e5 d9e5 bf04 f447 453c a4c5 1460 9097
b192 1a4f 7081 22c4 0277 bb22 9348 77c8
985d 6a30 03dd d121 6a68 aa8e b496 f783
1848 e6bd 3f62 c930 bf5a 3094 3b81 ef38
1b18 785f b66e 4f98 6643 7da8 0507 8f39
9baa cd24 8fba 081a 01be 2ed5 7496 0c48
af56 59d8 11ea 0796 4941 602c be91 ea83
3234 7e34 229e b16d ba47 b907 5bf3 1748
08a7 c6e0 a35a 79d3 8687 be18 00b8 c765
7e85 ca23 a928 2dc8 0c74 f788 5364 1196
bcae 79c0 2970 2c60 2adc b427 bd12 d00a
51ae d1ae 0d4d 86c4 aa40 7a1d 7ce2 1583
00d0 a987 881a 2380 a21e f4bf 07fa 0dbd
5dac 8441 b9b5 85d6 214f 39cd 33b9 d2a2
bec7 3777 4795 6a91 12ea e47d b048 2627
72e5 f126 0205 8db8 9136 696a 9a4f c011
0486 b45b 67fb edf4 b5af f542 19e9 fd60
3d1b 828d bf5f d499 3dc5 1f4e 196f 1031
b55f 6fc9 68b1 36bf 0453 d711 99bf 5473
91d1 f1e0 0225 405d 7233 6f9a b0a9 d2cb
1356 9bed 46e5 aca1 beda de79 345b 5259
20c6 86f2 b977 18a3 5e62 757b 07b4 9e1a
a19b 5668 88be f71a 00dc d29d 7c34 71b4
aab2 2977 0da8 c5ee 50fb 00c7 bd39 e336
2b74 3341 28db 4d29 bc82 dfbe 5418 8a77
0c1d c576 a8b2 e6d1 7f31 fb58 00b1 4283
85e0 fff2 a3da d77b 08f1 7c8b 5b3d 4dd5
ba81 c35d 232a 6a4c 3195 3063 be79 a641
49f2 4453 1182 182b aef0 c96a 7547 9782
01a3 127f 8f1c 22e2 9c38 58be 053e deb2
658d dbfa b6ba a34d 1b96 c8a6 3ada 0fcc
bf55 8abb 400e 06f4 17d1 712e b442 4db9
6b1d 7c2f 03af 6e84 97ca 36ae 93e1 8982
029b fecb 6fcd c8b5 b1ef d2da 14cf fe0f
448e 2a67 bf13 fac1 3689 7088 1ef8 ebbb
b897 8703 60d2 18c0 06d0 3480 9fd1 3dde
8aef 61f3 0110 c197 79de 6353 ac2f ab68
0eea 54f0 4e94 7228 bdb5 baa3 2d81 00d3
26e3 1be9 bbe3 7bfb 5684 403b 0afc 06bd
a719 2f2a 817c ab5e 00a1 c687 83a1 88d1
a58b 64f9 09f7 7599 58ce e2f5 bb3e e31f
250f c3dd 2f78 4ec8 be1c 4d9b 4c52 cd05
1026 67e4 ad8c 3d73 77a5 b005 0150 59ea
8cf9 fe17 9e16 e29d 0606 3162 631e dc87
b7b6 d51c 1d4f 00f2 389e d160 bf3b 54b2
425c 4478 163f e06c b317 1909 6d87 e660
031a 7107 95cb c785 95e8 76e4 0322 564a
6d65 7e19 b328 2392 1655 eef4 423b 3d9d
bf3d 35d2 38be 7b8a 1d36 2ce1 b7a9 2980
6341 98ee 05fa b039 9dfc 7cb6 8d18 a109
0154 8ba4 7784 02e4 ada0 73e2 1039 6eda
4c30 cc5b be21 eb59 2f96 3d70 24f4 749c
bb34 bf60 58f1 8b7a 09e8 7afe a573 9796
83c1 c39b 00a2 3828 815c 1e39 a730 54fa
0b0b cd26 5661 ab95 bbec c587 26fe f56f
2d63 8828 bdaf 3d1c 4eb6 9f04 0ed8 0dbb
ac1a bdcc 79ff d575 010d 71cb 8ad0 5642
9feb 0dc0 06dc 8b22 60af 57a7 b8a4 608e
1f12 5cbd 366a 26b1 bf11 36e1 44af 7546
14ba a0fc b1de 03b1 6ff0 0e09 0294 f77d
93c4 5c3a 97e6 6358 03b8 306b 6afa f6b3
b452 90c9 17e8 2d7d 3fed 49a1 bf56 88c9
3afa 14ff 1b7e 95ac b6ac 27e9 65b0 8de2
0534 34ed 9c1d 613c 8f3a 57f7 01a8 2574
7525 b501 af04 454d 1195 dbb3 49d0 758b
be7e 6346 31b3 9008 230f a9e2 ba76 c71b
5b60 046f 08e3 503d a3c2 667e 8600 e300
00b2 9754 7f11 2148 a8c9 6131 0c2e 550a
53f6 0f75 bc8b 4d89 28f7 ac4f 2b57 357f
bd32 86fb 511d 5422 0d97 4187 aa9c 882e
7c55 a340 00da 654e 889f 87d9 a1b4 8bf6
07c1 c824 5e3f b57d b983 1df6 20e0 90a5
343c 6e0f bed7 384e 4707 35f5 1341 f3e1
00e0 0000 8278 8da7 a624 682c 0ab1 8b72
57af 023e bb55 70f4 261f 4bff 2e9c f60c
bdab be28 4d7f b9bf 0fbc defe acab cd37
78b1 e250 016e 6a11 8bd8 0204 9eca fd0b
06a5 a5d6 61f7 317b b7ed a9b9 1e4e eef4
37ae 8099 bee9 91db 4387 d6df 15b8 85e9
b24d 9f96 6ea1 45a2 0317 fdd7 94b4 2ed2
96b5 8d47 03a5 4be6 6c39 7e09 b37e 9aca
1743 4486 4138 c45b bf0b 3468 39e5 329e
1c92 960b b6f9 021a 6464 daa6 05d7 c108
9cf2 8c92 8dfc 4d4c 01b9 7a48 7657 3015
ae15 8acf 1111 6556 4b1f 3090 be10 4116
30b4 a6be 2436 8b46 ba9f f97a 5a1b 4790
09a5 7867 a47a 6c49 84b9 5c06 00e7 f19c
8031 fd6b a7c2 ad03 0bcb dde8 5544 2080
bbfb a750 2811 b760 2c8d 84f7 bd37 962d
4fe3 59f8 0e75 c063 ab35 416c 7b08 74ac
0133 254a 89ac 641f a098 f0b4 0782 7711
5f89 3446 b8d3 a1d4 2016 409e 357e 8a74
beb8 152e 45db aaa3 143a 2f3a b10e e560
7106 9bb4 029a 3423 92aa 02ed 98ad c88e
0442 06b8 69cf abc1 b4a1 a40d 18da 2921
3eee d5d2 bf1c f734 3c22 41dd 1ae1 8019
b5f5 d3d3 66d1 c7f1 0518 eb0c 9b0f ee31
9018 ea64 0214 4965 73f8 c2a5 af72 3dca
1273 1a8c 48c2 240f be65 0e2f 32d4 3d95
2257 c6d7 b9db 5f2e 5c88 88dd 08a7 d18b
a2c5 0081 86f4 0834 00ff c51e 7de6 0c9f
a954 f59f 0cf4 40a1 52db 09b4 bc92 80ca
2a0d 7a29 2a86 ab98 bcb3 dc8c 5249 ab16
0d3c 4028 a9b2 25fe 7d5a 8332 0107 b5d8
8779 d06a a25c 1a65 086e 0fd8 5d1b 4ae8
b9aa c400 21e8 3efd 3355 adb5 be76 c6a2
4833 dc24 12c8 8053 afc2 a164 7369 19cf
022c 03cd 9097 60ce 9a9c 8c6f 04ee 141d
6764 35fa b5b6 8ac2 1a7c efc7 3caa 6d1e
bf1e d749 3e65 4ea0 193b f574 b4e4 4a2d
693d 91a9 0469 43c0 9923 7282 922d 7f02
027e c83e 7196 ff49 b0c1 abeb 13e1 c38d
4668 f94a beaa 1747 34fb 5fc7 2083 4ea7
b907 c2e9 5ef6 5e64 07b8 c13e a104 6de3
8928 32df 0127 768b 7b95 1d77 aada fece
0e2a 821d 5074 24eb bd19 e430 2c12 3f8f
2888 c096 bc20 a745 54b2 467e 0c10 92aa
a822 bb93 7fa7 aaa8 00ec 22fe 8540 a4da
a414 2ec5 0968 48d2 5aad dd40 ba72 ec51
23c4 9c3d 3134 46b4 be25 b121 4a90 0725
1163 b6f4 ae69 0b21 75c8 59fc 01cd 7f3c
8e7c a116 9c81 864a 05a9 575b 64f7 842c
b6bd 20ab 1c2b 5286 3a6b eb30 bf10 d457
40ad f832 17a2 3c84 b3c4 92d8 6ba7 d049
03c8 e87c 972d 6bc8 9439 b232 02f8 e50a
6f32 4bd8 b203 9d2c 155d 231b 4414 14a9
bedf 50d8 3729 b148 1eb9 70f6 b825 4801
6164 6049 06d8 6f6b 9f38 ff59 8b55 7dcf
015e ff40 793f 92f9 ac54 876d 0f6e 6e8a
4e0f d8d6 bd91 bae6 2e1f b13f 2694 191b
bb7e 0eee 571c c533 0af2 e9f5 a687 44e1
81ef 88a9 00e0 7156 8301 4081 a5c0 e453
0a70 f835 5841 5319 bb2b f958 25ab 08cd
2f1a b087 bdc4 e235 4cef c6bd 100c 0eb3
ad02 5c4e 7823 f6cf 017e b63a 8c5a 1dbf
9e5c 651c 0673 b12b 6289 fdff b7b5 39ec
1de5 097b 3833 affc bef2 f0b5 42fb dceb
1614 99b6 b296 dde1 6e10 1c8f 0337 f406
952e 2ddb 963d 2c68 0382 8b62 6ccb 0ea7
b337 dbc8 16e4 f9da 41c3 d9dc bf04 b1fe
395e d4d8 1cfa 7a3b b734 144b 63d2 26a7
0607 018b 9d63 019f 8d7b 8bee 01a6 55f9
76e5 d0f2 adc1 506d 10bf cfce 4bae 8bbb
bdf9 f0e8 3035 777a 24a9 08c7 bacc 2eaf
5988 bfea 09e3 75c0 a4e0 06a1 8431 bbb0
00e4 a2d4 80bc 0376 a761 f375 0b87 f1cb
55d6 1416 bbd5 cc2d 279b 3370 2d09 44f7
bd54 6a09 4f52 b56b 0ec1 c0f6 ab8e d0d4
7a7b 8b78 013f b5ee 8a30 3211 a02c d998
074c ffc0 601c 0b43 b89e ad15 1fa9 cae1
3602 1a6a bec5 3160 454e 9a46 1493 4f75
b15b 5dae 7076 0f8d 02b6 7e96 9326 0e1e
9837 978a 041b a44a 6a61 ae78 b45e 3443
1879 0658 3f78 abcf bf1a 347b 3b9a 6c13
1b46 b51e b634 500e 663f 49a8 0544 9a97
9b82 c335 8f9a 015e 01fd 6ecb 7488 3be5
af21 1ce1 121e 6d90 4950 a35c be52 74ce
3253 3917 22c7 e19c ba0b 243e 5bf5 cf15
08e2 6360 a32d 4783 866d e32c 00f8 b6c4
7e71 4ece a8f7 1683 0cad 06fd 536c 87a4
bc70 4872 2994 c948 2b00 5c72 bcd4 5b68
51b8 6d25 0d85 04e7 aa0e a6c1 7cce b3d2
0110 88df 87ff 3a8f a1f2 9629 0835 1ed0
5dae 13d8 b979 5328 2179 4b19 33d7 8845
be87 9dfd 47a5 ccee 131e 9e1a b012 46ef
72d9 42b8 0244 9dc9 9115 636f 9a28 9f05
04c4 1630 67f6 9267 b576 7574 1a19 0519
3d32 ec91 bf1f d4b6 3ddc 1782 199e 6a67
b526 2603 68ab 618c 0491 5b08 9998 9450
91b0 8387 0264 3b29 7227 38f4 b073 b208
138a 0d42 46f6 84ec be9b 37cf 3478 9b9c
20f0 f3f9 b93b 0fd9 5e63 8afb 07ef ddc5
a16f 5024 88a3 9f8e 011c a9cd 7c21 8487
aa80 09d2 0de0 06d6 5105 14e8 bcfb 545b
2b97 75e3 2900 4df6 bc44 cbb2 5420 876b
0c56 0f6e a882 1e3e 7f1d 0c77 00f1 36ee
85c7 94ea a3ad 4f08 092b e795 5b40 7f9f
ba45 07a2 2353 3cb9 31b4 562c be3a 40d4
4a01 10cf 11b6 c3e4 aebb d09b 7539 4ffb
01e2 64a6 8efc 861a 9c0f efd4 057b c4f2
658a 21dc b680 708c 1bc4 b0a3 3af2 fd4d
bf15 91bf 4023 76aa 1801 e0f2 b409 c349
6b16 06c3 03ed 60ce 97a4 c6cf 93be b921
02da a9e9 6fc3 2dd8 b1b8 d755 1502 7227
44a0 94fc bed4 2dc4 36a5 4347 1f24 8e83
b85c 143f 60d1 8bc4 070c 0d72 9fa6 6b00
8ad2 9257 0150 75ed 79cd 0778 abfc 8bc1
0f20 be11 4ea0 22ac bd76 d8ae 2da2 e34c
2709 6f0b bba5 d2e4 568a 9d56 0b35 1322
a6e9 7986 8166 32ce 00e1 c556 8389 9ff1
a55c ba44 0a31 30d8 58d3 b669 bb01 a87b
2537 509a 2f98 df85 bddd 26d1 4c60 0128
105b fced ad58 33e4 7795 d1c8 018f e394
8cdb cfcb 9ded 3895 0642 91e2 631c c476
b77b f91f 1d7b c187 38b9 3e34 befb 6d4e
4270 281b 1671 5da7 b2df 5760 6d7e d1fa
0358 c74b 95a7 ae2b 95c4 4a4a 0360 a742
6d5c 80c9 b2f0 5679 1687 5d62 424f 3769
befd 4d2a 38d8 d31f 1d62 fe20 b76e 56b0
633f 698e 0637 1871 9dd2 e465 8cfa 5e2f
0194 127d 7774 3b40 ad6c 5cc4 106e f71e
4c3e 1750 bde2 c0cb 2fb6 ba17 251c 13ad
baf7 8b8a 58f6 47ac 0a22 404a a544 fcd9
83a9 c51b 00e2 36ab 8145 bb81 a700 8fce
0b44 cef6 5668 1fe4 bbaf 1634 2725 35e2
2d85 7e68 bd70 5f82 4ec2 389a 0f0e 8320
abe7 ac31 79ee 6328 014d 285a 8ab3 9b7b
9fc0 2990 0718 5bcb 60ae e1fd b868 e52a
1f3d ee72 3686 0e6f bed1 6bbf 44c1 c984
14ed 236a b1a7 141f 6fe5 5c2c 02d3 a752
93a1 9f6d 97c0 e091 03f6 1cd5 6af3 9872
b419 fb6f 1818 8dff 4002 cf4e bf16 8f23
3b12 ed03 1bac 8de6 b671 fee0 65ac bc7c
0571 2255 9bf5 0a6b 8f1a a6eb 01e7 7433
7517 8437 aecf 3f6b 11ca 7a29 49df 58b7
be3e faab 31d2 a170 2338 8e42 ba3a 12bf
5b63 1eed 091d c4ca a394 ee72 85e7 6292
00f2 8adb 7efc 4873 a898 8988 0c66 93e5
53fe 238c bc4d 33d5 291c 9a13 2b7a 8b96
bcf3 fd10 5127 513a 0dce 8e31 aa6a 770c
7c42 9fcd 011a 3e1e 8884 4565 a188 74c8
07fc fefa 5e40 e24f b947 0d1c 210a ec32
3459 cc0d be97 9417 4717 f7bf 1375 7312
0120 0000 8261 5c80 a5f5 371f 0aea f056
57b4 9aa0 bb17 fdf2 2646 3ca8 2ebe 3045
bd6c b89c 4d8c 2c4e 0ff2 df14 ac78 37a6
78a1 44f5 01ae 0a40 8bba 8283 9ea0 bdcf
06e1 c3ad 61f5 deef b7b2 813f 1e7b 2175
37c9 a0e4 bea9 b67a 439a fe56 15ea 7f81
b216 3ff7 6e97 6dd1 0356 7fb2 9490 b94b
9690 be5b 03e3 6eb0 6c31 4484 b346 6dfa
1774 3488 414d 797f becb 4265 39fe d5a3
1cbf f381 b6be 7e3a 6461 e5d9 0614 6966
9cc9 8b31 8ddd 5ce7 01f8 e7f6 7648 2838
ade1 01de 1146 8052 4b2d 3c8c bdd0 f7eb
30d4 788d 245e c4c5 ba63 008e 5a1f 3ea0
09df 91a7 a44c 59d6 84a0 a6cd 0127 ec44
801c 5437 a792 653e 0c04 84da 554b 5944
bbbd c47a 2837 58b3 2cb0 220d bcf8 dec7
4fee 3108 0eac 9c8f ab02 a7da 7af6 4499
0172 ed59 8990 5a70 a06d 7aab 07be 0057
5f89 8433 b897 dea0 2041 40c9 359b 237d
be78 5b18 45ed 413b 146d 2a0e b0d8 5c31
70fb 273c 02d9 0a9f 9287 ecb7 9887 a663
047f c00e 69c9 11e7 b468 b36e 190a 0762
3f05 152c bedc f93f 3c3a 6354 1b10 00f0
b5bb fe53 66cd 3162 0556 13cf 9ae8 3184
8ff8 8e46 0253 79fb 73eb 52c9 af3c ca3e
12a7 478e 48d1 c71e be25 8bf5 32f2 a1ab
2281 4273 b99e ea89 5c8a ddf3 08e2 9573
a298 145a 86d9 d308 013f afbe 7dd1 eefc
a923 9f31 0d2c 202a 52e3 e1a6 bc54 3876
2a31 c5de 2aaa a5c2 bc75 7dc6 5252 e4d5
0d73 ef41 a980 90de 7d46 c370 0147 9b21
875f 413b a22f 74d1 08a8 fa9c 5d1d 3d41
b96e 700f 2212 05a3 3373 bab5 be37 387c
4843 deed 12fc 73e1 af8c f7c2 735c 0a9a
026b 246c 9076 af9b 9a75 1d64 052b 59b2
675f 3ce7 b57c dfd7 1aab b447 3cc2 32f8
bede d811 3e7b ea82 196b 91e8 b4ab 2cb6
6937 5a1c 04a6 e2b1 98fd 012e 920b bc93
02bd b12e 718b 29ac b08b 56b2 1414 f9df
467a 30d0 be6a 669c 3518 5110 20ae 0573
b8cb dca3 5ef7 111c 07f4 25fd a0d8 af88
890c 8221 0167 4676 7b82 8ec1 aaa8 a1f6
0e61 90e8 507e 9a8f bcdb 40c6 2c35 2f94
28ae 11d3 bbe2 ab8a 54b9 e163 0c49 0b62
a7f2 332d 7f92 5e85 012c 1ad4 8527 949c
a3e6 611c 09a2 8b3d 5ab1 71b2 ba36 11b6
23ed 2263 3153 c2a6 bde6 5989 4a9e 7372
1198 9a8d ae34 4a01 75b9 b238 020c df73
8e5d 5a5b 9c58 d0f4 05e6 1ef3 64f4 2cb2
b682 c515 1c58 f576 3a85 3391 bed0 de8c
40c3 0ab7 17d2 eca1 b38c 36f5 6b9f f8c7
0406 f34f 9708 4c37 9416 8f14 0337 7bd1
6f28 1275 b1cc 6f59 158f 5a2f 4426 ddc6
be9f 7c5d 3745 2aee 1ee5 5bcf b7e9 fa1c
6163 7084 0714 6b17 9f0e 7619 8b38 561e
019e a9cf 792e 9649 ac21 2c94 0fa4 a366
4e1b ea6f bd52 c6db 2e41 3fc0 26ba bb2f
bb40 8098 5722 bff9 0b2c 22de a657 d150
81d8 b3b2 0120 710a 82e9 b362 a591 f63a
0aaa 888b 5846 890a baee a23c 25d2 47af
2f3b 9629 bd85 cbbf 4cfc 9a26 1041 d983
acce 8c81 7813 b8ef 01be 4b72 8c3c 46b6
9e32 7048 06af f09e 6288 48af b77a 376a
1e11 833c 384e 76ab beb3 0f06 430f 628f
1646 555b b25f 4cfb 6e06 a669 0376 6060
950a 6640 9618 ae79 03c0 c58d 6cc2 7333
b2ff de91 1716 294d 41d8 316d bec4 c45d
3978 d244 1d27 91cc b6f9 68ad 63cf 948e
0643 8a1e 9d39 b495 8d5c f22a 01e5 d088
76d6 6920 ad8d 0027 10f5 21ad 4bbc 3743
bdba b6c0 3055 9edb 24d0 f53e ba8f 1806
598d 1990 0a1d 654b a4b1 afd2 8419 61b6
0124 9fb5 80a5 fd66 a731 ecc3 0bc0 c670
55dc eaa8 bb98 02cf 27c1 2480 2d2b 8ecb
bd15 9f3f 4f5d edcb 0ef8 6a00 ab5b fb01
7a69 ba32 017f 7589 8a13 cfb5 a001 ac48
0788 acff 601b f865 b863 0d82 1fd5 1404
361e 5aef be85 6e78 4560 8fc7 14c6 0e52
b124 a10c 706a fc56 02f5 4209 9303 a473
9811 c4e4 0459 7774 6a5a b262 b425 7103
18a9 25f3 3f8e 8e6d beda 3861 3bb2 e8ee
1b74 f1de b5fa 5084 663b 15a8 0581 a5f5
9b5a b946 8f79 faa3 023c aec1 747a 6b81
aeeb dfeb 1252 d38b 495f e68c be12 ff18
3271 f3fb 22f1 11cc b9ce 8f76 5bf8 86e3
091c ffe0 a300 1533 8654 0841 0138 a623
7e5c d37a a8c5 ff3d 0ce5 1671 5374 fdb3
bc32 1724 29b9 6630 2b24 04bd bc95 e6c5
51c2 089c 0dbc 830a a9dc d365 7cbb 5221
0150 6838 87e4 519e a1c6 3793 0870 2fe3
5daf a36f b93d 207a 21a3 5c65 33f5 3de7
be48 0482 47b6 2f4b 1352 57b7 afdc 67b6
72cc 944a 0283 addb 90f4 5d74 9a01 7df8
0501 7806 67f1 36da b53c f5a6 1a48 0cd2
3d4a 5695 bedf d4d3 3df3 0fb5 19cd c49d
b4ec dc3e 68a5 8c5a 04ce deff 9971 d42d
918f 152d 02a3 35f5 721b 024f b03d 9145
13bd 7e97 4707 5d37 be5b 9125 3495 e4e0
211b 60ff b8ff 070f 5e64 a07b 082b 1d71
a143 49e0 8888 4802 015c 80fc 7c0e 975b
aa4d ea2c 0e17 47be 510f 2909 bcbc c580
2bba b885 2925 4ec4 bc06 b7a6 5428 845f
0c8e 5965 a851 55ab 7f08 1d97 0131 2b59
85ae 29e2 a37f c695 0966 529f 5b43 b169
ba08 4be7 237c 0f27 31d3 7bf6 bdfa db67
4a0f dd4c 11eb 6f9c ae86 d7cb 752b 0874
0221 b6cd 8edc e953 9be7 86ea 05b8 ab33
6586 67be b646 3dcb 1bf2 98a0 3b0b eacf
bed5 98c4 4038 e65f 1832 50b6 b3d1 38da
6b0e 9157 042b 5318 977f 56f0 939b e8bf
0319 5507 6fb8 92fb b181 dbd0 1534 e63f
44b2 ff91 be94 60c7 36c1 1606 1f50 314a
b820 a17b 60d0 fec9 0747 e663 9f7b 9822
8ab5 c2bc 0190 2a43 79bb ab9d abc9 6c1a
0f57 2733 4eab d331 bd37 f6b9 2dc4 c5c5
272f c22e bb68 29cd 5690 fa71 0b6e 1f88
a6b9 c3e3 814f ba3d 0121 c425 8371 b712
a52e 0f8f 0a6a ec17 58d8 89dd bac4 6dd8
255e dd57 2fb9 7041 bd9e 0008 4c6d 354c
1091 91f5 ad24 2a56 7785 f38b 01cf 6d3d
8cbd a17f 9dc3 8e8d 067e f262 631a ac66
b741 1d22 1da8 821d 38d3 ab09 bebb 85e9
4284 0bbe 16a2 dae2 b2a7 95b7 6d75 bd94
0397 1d90 9583 94d2 95a0 1db0 039e f83b
6d53 837a b2b8 8961 16b8 cbd0 4263 3136
bebd 6483 38f3 2ab4 1d8f cf5f b733 83e0
633d 3a2f 0673 80a9 9da9 4c14 8cdc 1b54
01d3 9956 7764 739c ad38 45a5 10a4 7f61
4c4b 6245 bda3 963c 2fd7 36be 2543 b2be
baba 57b4 58fb 03de 0a5c 0596 a516 621d
8391 c69b 0122 352e 812f 58c8 a6d0 caa2
0b7d d0c5 566e 9434 bb71 66e2 274b 7654
2da7 74a8 bd31 81e8 4ecd d230 0f44 f886
abb4 9a95 79dc f0db 018c dee9 8a96 e0b5
9f95 4560 0754 2c75 60ae 6c54 b82d 69c7
1f69 8027 36a1 f62d be91 a09d 44d4 1dc3
151f a5d8 b170 248d 6fda aa50 0312 5728
937e e29f 979b 5dca 0434 093f 6aec 3a30
b3e1 6616 1848 ee82 4018 54fc bed6 957d
3b2b c508 1bda 8620 b637 d5d6 65a8 eb15
05ae 0fbe 9bcc b399 8efa f5de 0226 c2f3
7509 536d ae9a 3988 11ff 189e 49ee 3be3
bdff 920f 31f1 b2d8 2361 72a3 b9fd 5e63
5b66 396c 0958 3957 a367 7666 85cd e225
0132 7e61 7ee7 6f9e a867 b1e0 0c9e d2c0
5406 37a3 bc0f 1a21 2941 87d7 2b9d e1ac
bcb5 7326 5131 4e53 0e05 dada aa38 65ea
7c2f 9c5b 015a 16ef 8869 02f1 a15c 5d99
0838 35d0 5e42 0f21 b90a fc41 2135 47c0
3477 2a0b be57 efe0 4728 b989 13a8 f243
0160 0000 824a 2b5a a5c6 0611 0b24 553a
57ba 3302 bada 8af0 266d 2d52 2edf 6a7e
bd2d b310 4d98 9ede 1028 df2a ac44 a216
7890 a799 01ed aa6f 8b9d 0303 9e76 7e92
071d e184 61f4 8c63 b777 58c5 1ea7 53f7
37e4 c12f be69 db19 43ae 25ce 161c 7919
b1de e058 6e8d 9601 0395 018d 946d 43c4
966b ef6f 0421 9179 6c29 0aff b30e 412b
17a5 248a 4162 2ea3 be8b 5063 3a18 78a8
1ced 50f7 b683 fa5b 645e f10c 0651 11c3
9ca0 89d0 8dbe 6c83 0238 55a5 7639 205b
adac 78ec 117b 9b4d 4b3b 4887 bd91 aebf
30f4 4a5d 2486 fe43 ba26 07a3 5a23 35b1
0a19 aae7 a41e 4763 8487 f193 0167 e6ec
8006 ab03 a762 1d78 0c3d 2bcb 5552 9208
bb7f e1a4 285c fa07 2cd2 bf23 bcba 2762
4ff9 0817 0ee3 78bb aad0 0e48 7ae4 1486
01b2 b568 8974 50c1 a042 04a1 07f9 899d
5f89 d420 b85c 1b6d 206c 40f4 35b7 bc85
be38 a102 45fe d7d3 14a0 24e3 b0a1 d303
70ef b2c5 0317 e11c 9265 d681 9861 8438
04bd 7965 69c2 780e b42f c2cf 1939 e5a2
3f1b 5487 be9c fb49 3c52 84cc 1b3e 81c8
b582 28d4 66c8 9ad3 0593 3c91 9ac0 74d8
8fd8 3228 0292 aa91 73dd e2ed af07 56b2
12db 7490 48e1 6a2d bde6 09bc 3311 05c1
22aa be0f b962 75e4 5c8d 3309 091d 595b
a26b 2833 86bf 9ddc 017f 9a5e 7dbd d15a
a8f2 48c4 0d63 ffb3 52ec b997 bc15 f022
2a56 1193 2ace 9fed bc37 1f01 525c 1e95
0dab 9e59 a94e fbbe 7d33 03af 0187 8069
8744 b20d a202 cf3e 08e3 e560 5d1f 2f9a
b932 1c1e 223b cc48 3391 c7b5 bdf7 aa57
4853 e1b6 1330 676e af57 4e20 734e fb65
02aa 450b 9055 fe67 9a4d ae59 0568 9f47
675a 43d3 b543 34ec 1ada 78c7 3cd9 f8d2
be9e d8d9 3e92 8664 199b 2e5c b472 0f40
6931 228e 04e4 81a1 98d6 8fd9 91e9 fa23
02fc 9a1d 717f 5410 b055 0178 1448 3031
468b 6856 be2a b5f0 3535 4258 20d8 bc3e
b88f f65d 5ef7 c3d3 082f 8abd a0ac f12d
88f0 d163 01a7 1662 7b70 000b aa76 451f
0e98 9fb4 5089 1034 bc9c 9d5b 2c58 1f9a
28d3 6310 bba4 afcf 54c1 7c48 0c81 841a
a7c1 aac7 7f7d 1261 016c 12a9 850e 845e
a3b8 9372 09dc cda7 5ab5 0624 b9f9 371a
2415 a889 3173 3e98 bda7 01f1 4aac dfc0
11cd 7e26 adff 88e2 75ab 0a75 024c 3fa9
8e3e 13a0 9c30 1b9e 0622 e68a 64f0 d539
b648 697f 1c86 9866 3a9e 7bf3 be90 e8c1
40d8 1d3d 1803 9cbe b353 db12 6b98 2146
0444 fe23 96e3 2ca5 93f3 6bf6 0376 1298
6f1d d912 b195 4185 15c1 9143 4439 a6e3
be5f a7e2 3760 a494 1f11 46a7 b7ae ac36
6162 80bf 0750 66c2 9ee3 ecd9 8b1b 2e6e
01de 545d 791d 999a abed d1bb 0fda d842
4e27 fc07 bd13 d2d0 2e62 ce41 26e1 5d43
bb02 f242 5728 babf 0b65 5bc7 a628 5dbf
81c1 debb 0160 70bd 82d2 2643 a563 0821
0ae4 18e1 584b befb bab1 4b20 25f9 8691
2f5c 7bcb bd46 b549 4d09 6d8f 1077 a452
ac9a bcb4 7803 7b10 01fd e0aa 8c1e 6fac
9e08 7b74 06ec 3012 6286 935e b73f 34e8
1e3d fcfc 3869 3d5b be73 2d56 4322 e834
1678 10ff b227 bc15 6dfd 3042 03b4 ccba
94e6 9ea5 95f4 308b 03fe ffb8 6cb9 d7be
b2c7 e15b 1747 58c0 41ec 88fd be84 d6bc
3992 cfb0 1d54 a95c b6be bd0f 63cd 0275
0680 12b0 9d10 678b 8d3e 5866 0225 4b18
76c7 014d ad58 afe1 112a 738c 4bc9 e2cc
bd7b 7c97 3075 c63d 24f8 e1b5 ba52 015d
5991 7337 0a57 54d6 a483 5903 8401 07bd
0164 9c97 808f f755 a701 e611 0bf9 9b14
55e3 c13a bb5a 3971 27e7 1590 2d4d d89e
bcd6 d474 4f69 262b 0f2f 130a ab29 252d
7a57 e8ed 01bf 3524 89f7 6d58 9fd6 7ef7
07c4 5a3e 601b e587 b827 6df0 2000 5d28
363a 9b73 be45 ab90 4572 8547 14f8 cd30
b0ed e46b 705f e91f 0334 057d 92e1 3ac8
97eb f23e 0497 4a9e 6a53 b64c b3ec adc3
18d9 458e 3fa4 710b be9a 3c47 3bcb 65c9
1ba3 2e9e b5c0 50fb 6636 e1a8 05be b153
9b32 af58 8f59 f3e8 027b eeb7 746c 9b1e
aeb6 a2f4 1287 3985 496f 29bc bdd3 8962
3290 aede 231a 41fb b991 faad 5bfb 3eb0
0957 9c60 a2d2 e2e4 863a 2d55 0178 9583
7e48 5826 a894 e7f8 0d1d 25e6 537d 73c1
bbf3 e5d6 29de 0318 2b47 ad08 bc57 7223
51cb a413 0df4 012d a9ab 0008 7ca7 f070
0190 4790 87c9 68ac a199 d8fd 08ab 40f6
5db1 3306 b900 edcd 21cd 6db0 3412 f389
be08 6b08 47c6 91a8 1386 1154 afa6 887e
72bf e5db 02c2 bdec 90d3 5779 99da 5cec
053e d9db 67eb db4e b503 75d8 1a77 148c
3d61 c09a be9f d4f0 3e0a 07e9 19fd 1ed3
b4b3 9278 689f b727 050c 62f6 994b 140a
916d a6d4 02e2 30c2 720e cba9 b007 7082
13f0 efec 4718 3582 be1b ea7a 34b3 2e23
2145 ce05 b8c2 fe45 5e65 b5fc 0866 5d1c
a117 439c 886c f076 019c 582c 7bfb aa2f
aa1b ca86 0e4e 88a7 5119 3d2a bc7e 36a5
2bdd fb28 294a 4f92 bbc8 a39b 5430 8153
0cc6 a35d a820 8d19 7ef3 2eb6 0171 1fc4
8594 bedb a352 3e22 09a0 bda9 5b46 e333
b9cb 902b 23a4 e194 31f2 a1bf bdbb 75f9
4a1e a9c8 1220 1b55 ae51 defb 751c c0ed
0261 08f5 8ebd 4c8c 9bbf 1e00 05f5 9173
6582 ad9f b60c 0b09 1c20 809c 3b24 d850
be95 9fc8 404e 5615 1862 c07a b398 ae6a
6b07 1bec 0469 4562 9759 e711 9379 185d
0358 0025 6fad f81e b14a e04b 1567 5a57
44c5 6a27 be54 93ca 36dc e8c5 1f7b d412
b7e5 2eb7 60d0 71ce 0783 bf54 9f50 c544
8a98 f321 01cf de99 79aa 4fc1 ab96 4c73
0f8d 9054 4eb7 83b6 bcf9 14c4 2de6 a83e
2756 1550 bb2a 80b6 5697 578d 0ba7 2bed
a68a 0e3f 8139 41ad 0161 c2f4 8359 ce33
a4ff 64da 0aa4 a756 58dd 5d50 ba87 3334
2586 6a15 2fda 00fe bd5e d93e 4c7a 696f
10c7 26fe acf0 20c8 7776 154e 020e f6e7
8c9f 7334 9d99 e485 06bb 52e2 6318 9455
b706 4126 1dd5 42b3 38ee 17dd be7b 9e84
4297 ef61 16d4 581d b26f d40f 6d6c a92e
03d5 73d4 955f 7b78 957b f117 03dd 4933
6d4a 862a b280 bc49 16ea 3a3e 4277 2b02
be7d 7bdb 390d 8249 1dbc a09e b6f8 b10f
633b 0acf 06af e8e2 9d7f b3c3 8cbd d879
0213 202f 7754 abf8 ad04 2e87 10da 07a5
4c58 ad39 bd64 6bae 2ff7 b365 256b 51ce
ba7d 23de 58ff c010 0a95 cae2 a4e7 c761
8379 c81b 0162 33b1 8118 f60f a6a1 0576
0bb6 d295 5675 0883 bb33 b78f 2771 b6c7
2dc9 6ae7 bcf2 a44e 4ed9 6bc6 0f7b 6deb
ab81 88f9 79cb 7e8e 01cc 9578 8a7a 25ef
9f6a 612f 078f fd1f 60ad f6ab b7f1 ee64
1f95 11dc 36bd ddea be51 d57b 44e6 7201
1552 2846 b139 34fb 6fcf f873 0351 06fd
935c 25d2 9775 db03 0471 f5a8 6ae4 dbef
b3a8 d0bc 1879 4f04 402d daaa be96 9bd7
3b44 9d0d 1c08 7e5a b5fd accc 65a5 19af
05ea fd26 9ba4 5cc8 8edb 44d2 0266 11b3
74fb 22a3 ae65 33a5 1233 b714 49fd 1f0f
bdc0 2974 3210 c43f 238a 5704 b9c0 aa07
5b69 53eb 0992 ade4 a339 fe59 85b4 61b7
0172 71e7 7ed2 96c9 a836 da38 0cd7 119b
540e 4bba bbd1 006d 2966 759b 2bc1 37c3
bc76 e93b 513b 4b6b 0e3d 2783 aa06 54c8
7c1c 98e8 0199 efbf 884d c07d a130 466a
0873 6ca6 5e43 3bf3 b8ce eb66 215f a34d
3494 8808 be18 4ba8 4739 7b52 13dc 7175
01a0 0000 8232 fa33 a596 d504 0b5d ba1d
57bf cb64 ba9d 17ed 2694 1dfb 2f00 a4b7
bcee ad85 4da5 116d 105e df40 ac11 0c85
7880 0a3e 022d 4a9e 8b7f 8383 9e4c 3f56
0759 ff5b 61f3 39d7 b73c 304a 1ed3 8678
37ff e179 be29 ffb8 43c1 4d45 164e 72b0
b1a7 80b9 6e83 be30 03d3 8368 9449 ce3d
9647 2084 045f b442 6c20 d17a b2d6 145b
17d6 148d 4176 e3c7 be4b 5e61 3a32 1bad
1d1a ae6d b649 767b 645b fc3f 068d ba21
9c77 886f 8d9f 7c1e 0277 c353 762a 187e
ad77 effb 11b0 b648 4b49 5483 bd52 6594
3114 1c2d 24af 37c2 b9e9 0eb8 5a27 2cc2
0a53 c427 a3f0 34f0 846f 3c5a 01a7 e194
7ff1 01d0 a731 d5b3 0c75 d2bd 5559 cacc
bb41 fece 2882 9b5a 2cf5 5c39 bc7b 6ffd
5003 df26 0f1a 54e7 aa9d 74b6 7ad1 e473
01f2 7d78 8958 4713 a016 8e98 0835 12e4
5f8a 240d b820 583a 2097 411e 35d4 558e
bdf8 e6ed 4610 6e6c 14d3 1fb7 b06b 49d5
70e4 3e4d 0356 b798 9243 c04b 983b 620d
04fb 32bb 69bb de34 b3f6 d230 1969 c3e3
3f31 93e2 be5c fd54 3c6a a643 1b6d 029f
b548 5354 66c4 0443 05d0 6553 9a98 b82b
8fb7 d60b 02d1 db27 73d0 7311 aed1 e326
130f a192 48f1 0d3c bda6 8783 332f 69d6
22d4 39aa b926 0140 5c8f 881f 0958 1d44
a23e 3c0b 86a5 68af 01bf 84fe 7da9 b3b7
a8c0 f257 0d9b df3c 52f5 9188 bbd7 a7ce
2a7a 5d47 2af2 9a18 bbf8 c03b 5265 5854
0de3 4d72 a91d 669e 7d1f 43ed 01c7 65b2
872a 22df a1d6 29aa 091e d024 5d21 21f3
b8f5 c82d 2265 92ee 33af d4b5 bdb8 1c32
4863 e47f 1364 5afc af21 a47e 7341 ec31
02e9 65aa 9035 4d34 9a26 3f4d 05a5 e4dc
6755 4abf b509 8a00 1b09 3d47 3cf1 beac
be5e d9a0 3ea9 2246 19ca cad0 b438 f1ca
692a eb01 0522 2092 98b0 1e84 91c8 37b3
033b 830d 7173 7e73 b01e ac3f 147b 6682
469c 9fdc bdeb 0544 3552 33a1 2103 730a
b854 1017 5ef8 768a 086a ef7c a081 32d2
88d5 20a4 01e6 e64d 7b5d 7155 aa43 e847
0ecf ae80 5093 85d8 bc5d f9f0 2c7b 0fa0
28f8 b44d bb66 b414 54c9 172d 0cb9 fcd2
a791 2261 7f67 c63e 01ac 0a7f 84f5 741f
a38a c5c8 0a17 1012 5ab8 9a95 b9bc 5c7e
243e 2eaf 3192 ba8a bd67 aa59 4abb 4c0d
1202 61bf adca c7c2 759c 62b1 028b 9fdf
8e1e cce5 9c07 6648 065f ae22 64ed 7dbf
b60e 0de9 1cb4 3b55 3ab7 c454 be50 f2f6
40ed 2fc3 1834 4cdb b31b 7f2f 6b90 49c4
0483 08f7 96be 0d14 93d0 48d8 03b4 a95f
6f13 9faf b15e 13b1 15f3 c857 444c 6fff
be1f d367 377c 1e39 1f3d 3180 b773 5e50
6161 90fa 078c 626e 9eb9 6399 8afe 06bd
021d feec 790c 9cea abba 76e2 1011 0d1f
4e34 0da0 bcd4 dec4 2e84 5cc2 2707 ff57
bac5 63ec 572e b584 0b9e 94b0 a5f8 ea2e
81ab 09c5 01a0 7071 82ba 9924 a534 1a08
0b1d a937 5850 f4ec ba73 f403 2620 c573
2f7d 616d bd07 9ed3 4d16 40f7 10ad 6f21
ac66 ece7 77f3 3d30 023d 75e2 8c00 98a2
9dde 86a0 0728 6f85 6284 de0e b704 3266
1e6a 76bc 3884 040b be33 4ba7 4336 6dd8
16a9 cca4 b1f0 2b2f 6df3 ba1b 03f3 3915
94c2 d70a 95cf b29d 043d 39e3 6cb1 3c4a
b28f e424 1778 8833 4200 e08e be44 e91b
39ac cd1c 1d81 c0ec b684 1171 63ca 705b
06bc 9b43 9ce7 1a80 8d1f bea1 0264 c5a7
76b7 997a ad24 5f9a 115f c56b 4bd7 8e54
bd3c 426f 3095 ed9e 2520 ce2c ba14 eab3
5995 ccde 0a91 4461 a455 0234 83e8 adc3
01a4 9978 8079 f145 a6d1 df5f 0c32 6fb8
55ea 97cc bb1c 7013 280d 06a1 2d70 2272
bc98 09aa 4f74 5e8a 0f65 bc13 aaf6 4f5a
7a46 17a8 01fe f4c0 89db 0afc 9fab 51a7
0800 077d 601b d2a9 b7eb ce5d 202b a64b
3656 dbf8 be05 e8a9 4584 7ac8 152b 8c0e
b0b7 27ca 7054 d5e7 0372 c8f1 92be d11e
97c6 1f98 04d5 1dc8 6a4c ba36 b3b3 ea84
1909 6529 3fba 53a9 be5a 402d 3be3 e2a5
1bd1 6b5d b586 5171 6632 ada9 05fb bcb1
9b0a a569 8f39 ed2c 02bb 2ead 745e caba
ae81 65fd 12bb 9f7f 497e 6cec bd94 13ac
32af 69c1 2343 722a b955 65e4 5bfd f67e
0992 38e1 a2a5 b094 8620 5269 01b8 84e2
7e33 dcd2 a863 d0b3 0d55 355b 5385 e9cf
bbb5 b488 2a02 a000 2b6b 5553 bc18 fd80
51d5 3f8b 0e2b 7f50 a979 2cac 7c94 8ebf
01d0 26e9 87ae 7fbb a16d 7a67 08e6 520a
5db2 c29d b8c4 bb1f 21f7 7efc 3430 a92b
bdc8 d18e 47d6 f405 13b9 caf1 af70 a946
72b3 376d 0301 cdfe 90b2 517e 99b3 3bdf
057c 3bb1 67e6 7fc1 b4c9 f60a 1aa6 1c45
3d79 2a9e be5f d50d 3e21 001c 1a2c 790a
b47a 48b3 6899 e1f5 0549 e6ee 9924 53e6
914c 387b 0321 2b8e 7202 9504 afd1 4fbf
1424 6141 4729 0dcc bddc 43d0 34d0 7766
2170 3b0c b886 f57c 5e66 cb7c 08a1 9cc8
a0eb 3d58 8851 98ea 01dc 2f5c 7be8 bd02
a9e9 aae0 0e85 c98f 5123 514b bc3f a7ca
2c01 3dca 296f 5060 bb8a 8f8f 5438 7e47
0cfe ed55 a7ef c486 7ede 3fd6 01b1 142f
857b 53d3 a324 b5af 09db 28b3 5b4a 14fc
b98e d470 23cd b401 3211 c788 bd7c 108c
4a2d 7645 1254 c70e ae1c e62c 750e 7966
02a0 5b1c 8e9d afc5 9b96 b516 0632 77b4
657e f381 b5d1 d848 1c4e 6899 3b3d c5d1
be55 a6cd 4063 c5ca 1893 303f b360 23fa
6aff a680 04a7 37ac 9734 7732 9356 47fc
0396 ab43 6fa3 5d40 b113 e4c6 1599 ce6f
44d7 d4bc be14 c6ce 36f8 bb84 1fa7 76d9
b7a9 bbf3 60cf e4d2 07bf 9845 9f25 f266
8a7c 2385 020f 92ef 7998 f3e6 ab63 2ccc
0fc3 f975 4ec3 343b bcba 32cf 2e08 8ab7
277c 6873 baec d79f 569d b4a8 0be0 3853
a65a 589c 8122 c91c 01a1 c1c3 8341 e553
a4d0 ba25 0ade 6295 58e2 30c4 ba49 f890
25ad f6d2 2ffa 91bb bd1f b274 4c87 9d93
10fc bc06 acbc 173a 7766 3710 024e 8090
8c81 44e8 9d70 3a7e 06f7 b362 6316 7c45
b6cb 6529 1e02 0348 3908 84b2 be3b b71f
42ab d305 1705 d558 b238 1266 6d63 94c7
0413 ca19 953b 621e 9557 c47d 041b 9a2b
6d41 88db b248 ef31 171b a8ac 428b 24cf
be3d 9333 3927 d9dd 1de9 71dd b6bd de3f
6338 db70 06ec 511a 9d56 1b72 8c9f 959e
0252 a708 7744 e454 acd0 1768 110f 8fe9
4c65 f82e bd25 411f 3018 300b 2592 f0df
ba3f f008 5904 7c42 0acf 902e a4b9 2ca5
8361 c99b 01a2 3233 8102 9357 a671 404a
0bef d465 567b 7cd2 baf6 083d 2797 f739
2deb 6127 bcb3 c6b3 4ee5 055c 0fb1 e350
ab4e 775d 79ba 0c42 020c 4c07 8a5d 6b29
9f3f 7cff 07cb cdc9 60ad 8102 b7b6 7300
1fc0 a391 36d9 c5a8 be12 0a59 44f8 c63f
1584 aab4 b102 456a 6fc5 4697 038f b6d3
9339 6904 9750 583c 04af e212 6add 7dad
b370 3b63 18a9 af87 4043 6057 be56 a231
3b5d 7511 1c36 7694 b5c3 83c3 65a1 4849
0627 ea8f 9b7c 05f6 8ebb 93c5 02a5 6072
74ec f1d9 ae30 2dc2 1268 558a 4a0c 023c
bd80 c0d9 322f d5a7 23b3 3b64 b983 f5ab
5b6c 6e69 09cd 2270 a30c 864d 859a e14a
01b2 656d 7ebd bdf4 a806 0290 0d0f 5075
5416 5fd2 bb92 e6ba 298b 635f 2be4 8dd9
bc38 5f51 5145 4883 0e74 742d a9d4 43a6
7c09 9576 01d9 c890 8832 7e09 a104 2f3c
08ae a37c 5e44 68c4 b892 da8b 2189 fedb
34b1 e606 bdd8 a771 474a 3d1c 140f f0a6
01e0 0000 821b c90d a567 a3f7 0b97 1f01
57c5 63c6 ba5f a4eb 26bb 0ea5 2f21 def0
bcaf a7f9 4db1 83fd 1094 df57 abdd 76f5
786f 6ce2 026c eacd 8b62 0403 9e22 001a
0796 1d32 61f1 e74a b701 07d0 1eff b8f9
381b 01c4 bdea 2457 43d4 74bd 1680 6c48
b170 211a 6e79 e65f 0412 0543 9426 58b7
9622 5198 049d d70b 6c18 97f5 b29d e78b
1807 048f 418b 98ea be0b 6c5f 3a4b beb3
1d48 0be3 b60e f29b 6459 0772 06ca 627e
9c4e 870e 8d80 8bba 02b7 3102 761b 10a1
ad43 6709 11e5 d144 4b57 607e bd13 1c68
3133 edfd 24d7 7141 b9ac 15cd 5a2b 23d3
0a8d dd67 a3c2 227c 8456 8720 01e7 dc3c
7fdb 589c a701 8ded 0cae 79ae 5561 0390
bb04 1bf8 28a8 3cae 2d17 f94f bc3c b897
500e b635 0f51 3114 aa6a db24 7abf b45f
0232 4587 893c 3d64 9feb 188f 0870 9c2a
5f8a 73fa b7e4 9506 20c2 4149 35f0 ee97
bdb9 2cd7 4622 0504 1506 1a8c b034 c0a6
70d8 c9d6 0395 8e15 9221 aa16 9815 3fe3
0538 ec12 69b5 445b b3bd e192 1999 a223
3f47 d33c be1c ff5f 3c82 c7bb 1b9b 8376
b50e 7dd5 66bf 6db4 060d 8e16 9a70 fb7f
8f97 79ed 0311 0bbc 73c3 0335 ae9c 6f9a
1343 ce94 4900 b04c bd67 0549 334d cdec
22fd b546 b8e9 8c9b 5c91 dd35 0992 e12c
a211 4fe4 868b 3383 01ff 6f9e 7d95 9614
a88f 9be9 0dd3 bec6 52fe 697a bb99 5f7a
2a9e a8fc 2b16 9442 bbba 6176 526e 9214
0e1a fc8a a8eb d17e 7d0b 842b 0207 4afa
870f 93b0 a1a9 8416 0959 bae8 5d23 144c
b8b9 743c 228f 5993 33cd e1b5 bd78 8e0c
4873 e748 1398 4e89 aeeb fadc 7334 dcfc
0328 8649 9014 9c01 99fe d042 05e3 2a71
6750 51ab b4cf df15 1b38 01c7 3d09 8487
be1e da68 3ebf be28 19fa 6744 b3ff d454
6924 b373 055f bf82 9889 ad2f 91a6 7543
037a 6bfc 7167 a8d7 afe8 5705 14ae 9cd4
46ad d762 bdab 5498 356f 24e9 212e 29d5
b818 29d1 5ef9 2942 08a6 543c a055 7478
88b9 6fe6 0226 b638 7b4a e29f aa11 8b6f
0f06 bd4c 509d fb7d bc1f 5685 2c9d ffa5
291e 058a bb28 b859 54d0 b212 0cf2 758a
a760 99fb 7f52 7a1a 01ec 0255 84dc 63e1
a35c f81e 0a51 527c 5abc 2f07 b97f 81e3
2466 b4d5 31b2 367c bd28 52c1 4ac9 b85a
1237 4559 ad96 06a3 758d baee 02cb 0016
8dff 862a 9bde b0f2 069c 75b9 64ea 2645
b5d3 b252 1ce1 de45 3ad1 0cb5 be10 fd2b
4102 4249 1864 fcf9 b2e3 234c 6b88 7242
04c1 13ca 9698 ed82 93ad 25ba 03f3 4026
6f09 664b b126 e5dd 1625 ff6a 445f 391c
bddf feec 3797 97df 1f69 1c59 b738 106a
6160 a135 07c8 5e19 9e8e da59 8ae0 df0d
025d a97a 78fb a03b ab87 1c09 1047 41fb
4e40 1f38 bc95 eab9 2ea5 eb43 272e a16c
ba87 d596 5734 b04a 0bd7 cd98 a5c9 769d
8194 34ce 01e0 7025 82a3 0c05 a505 2bef
0b57 398d 5856 2ade ba36 9ce7 2648 0456
2f9e 470f bcc8 885d 4d23 1460 10e3 39f1
ac33 1d1a 77e2 ff51 027d 0b1a 8be2 c199
9db4 91cc 0764 aef8 6283 28be b6c9 2fe5
1e96 f07d 389e caba bdf3 69f8 4349 f37d
16db 8849 b1b8 9a49 6dea 43f4 0431 a56f
949f 0f6f 95ab 34af 047b 740d 6ca8 a0d5
b257 e6ed 17a9 b7a5 4215 381e be04 fb7a
39c6 ca88 1dae d87c b649 65d3 63c7 de42
06f9 23d6 9cbd cd76 8d01 24dd 02a4 4036
76a8 31a7 acf0 0f54 1195 174b 4be5 39dd
bcfd 0847 30b6 1500 2548 baa4 b9d7 d40a
599a 2684 0acb 33ec a426 ab65 83d0 53c9
01e4 965a 8063 eb34 a6a1 d8ad 0c6b 445c
55f1 6e5e bade a6b5 2832 f7b1 2d92 6c46
bc59 3edf 4f7f 96ea 0f9c 651d aac3 7986
7a34 4663 023e b45b 89be a8a0 9f80 2457
083b b4bd 601b bfca b7b0 2ecb 2056 ef6f
3673 1c7d bdc6 25c1 4596 7049 155e 4aec
b080 6b29 7049 c2b0 03b1 8c64 929c 6773
97a0 4cf2 0512 f0f2 6a45 be20 b37b 2744
1939 84c3 3fd0 3647 be1a 4413 3bfc 5f80
1bff a81d b54c 51e8 662e 79a9 0638 c80f
9ae2 9b7a 8f19 e671 02fa 6ea3 7450 fa57
ae4c 2906 12f0 0579 498d b01b bd54 9df6
32ce 24a5 236c a25a b918 d11c 5c00 ae4b
09cc d561 a278 7e44 8606 777e 01f8 7441
7e1f 617d a832 b96d 0d8d 44d0 538e 5fde
bb77 833a 2a27 3ce8 2b8e fd9e bbda 88de
51de db02 0e62 fd74 a947 5950 7c81 2d0d
0210 0642 8793 96ca a141 1bd0 0921 631d
5db4 5235 b888 8871 2221 9047 344e 5ece
bd89 3814 47e7 5662 13ed 848e af3a ca0e
72a6 88ff 0340 de10 9091 4b83 998c 1ad3
05b9 9d86 67e1 2435 b490 763c 1ad5 23fe
3d90 94a2 be1f d52a 3e37 f850 1a5b d340
b440 feed 6894 0cc2 0587 6ae5 98fd 93c3
912a ca22 0360 265b 71f6 5e5e af9b 2efc
1457 d295 4739 e617 bd9c 9d26 34ed c0a9
219a a812 b84a ecb2 5e67 e0fc 08dc dc73
a0bf 3714 8836 415e 021c 068b 7bd5 cfd6
a9b7 8b3b 0ebd 0a77 512d 656c bc01 18ef
2c24 806c 2994 512e bb4c 7b83 5440 7b3b
0d37 374c a7be fbf3 7ec9 50f6 01f1 089a
8561 e8cb a2f7 2d3c 0a15 93bd 5b4d 46c6
b952 18b5 23f6 866e 3230 ed52 bd3c ab1f
4a3c 42c2 1289 72c7 ade7 ed5c 7500 31df
02df ad43 8e7e 12fe 9b6e 4c2c 066f 5df5
657b 3963 b597 a586 1c7c 5096 3b56 b352
be15 add1 4079 3580 18c3 a003 b327 998a
6af8 3114 04e5 29f6 970f 0753 9333 779a
03d5 5661 6f98 c263 b0dc e941 15cc 4287
44ea 3f51 bdd4 f9d1 3714 8e43 1fd3 19a1
b76e 492f 60cf 57d7 07fb 7137 9efb 1f88
8a5f 53ea 024f 4745 7987 980b ab30 0d25
0ffa 6296 4ece e4bf bc7b 50da 2e2a 6d30
27a2 bb96 baaf 2e87 56a4 11c3 0c19 44b8
a62a a2f8 810c 508c 01e1 c092 8329 fc74
a4a2 0f6f 0b18 1dd4 58e7 0438 ba0c bdec
25d5 838f 301b 2278 bce0 8baa 4c94 d1b6
1132 510f ac88 0dab 7756 58d3 028e 0a3a
8c63 169c 9d46 9076 0734 13e1 6314 6434
b690 892c 1e2e c3de 3922 f186 bdfb cfba
42bf b6a8 1737 5293 b200 50bd 6d5a 8061
0452 205d 9517 48c4 9533 97e4 0459 eb23
6d38 8b8b b211 2219 174d 171b 429f 1e9c
bdfd aa8c 3942 3172 1e16 431b b683 0b6e
6336 ac10 0728 b952 9d2c 8321 8c81 52c4
0292 2de1 7735 1cb0 ac9c 004a 1145 182d
4c73 4323 bce6 1691 3038 acb2 25ba 8ff0
ba02 bc32 5909 3874 0b09 557a a48a 91e8
8349 cb1b 01e2 30b6 80ec 309e a641 7b1f
0c28 d634 5681 f122 bab8 58ea 27be 37ab
2e0d 5766 bc74 e919 4ef0 9ef2 0fe8 58b5
ab1b 65c1 79a8 99f5 024c 0296 8a40 b063
9f14 98cf 0807 9e72 60ad 0b58 b77a f79d
1fec 3546 36f5 ad66 bdd2 3f38 450b 1a7d
15b7 2d22 b0cb 55d8 6fba 94bb 03ce 66a8
9316 ac37 972a d575 04ed ce7c 6ad6 1f6b
b337 a609 18da 1009 4058 e605 be16 a88c
3b76 4d16 1c64 6ece b589 5ab9 659d 76e3
0664 d7f7 9b53 af25 8e9b e2b9 02e4 af32
74de c10f adfb 27e0 129c f3ff 4a1a e568
bd41 583e 324e e70f 23dc 1fc5 b947 414f
5b6f 88e8 0a07 96fd a2df 0e40 8581 60dd
01f2 58f4 7ea8 e51f a7d5 2ae8 0d47 8f50
541e 73e9 bb54 cd06 29b0 5123 2c07 e3f0
bbf9 d566 514f 459c 0eab c0d6 a9a2 3284
7bf6 9203 0219 a160 8817 3b95 a0d8 180d
08e9 da52 5e45 9596 b856 c9b1 21b4 5a68
34cf 4404 bd99 033a 475a fee6 1443 6fd8
0220 0000 8204 97e6 a538 72ea 0bd0 83e5
57ca fc28 ba22 31e9 26e1 ff4f 2f43 1929
bc70 a26d 4dbd f68c 10ca df6d aba9 e164
785e cf87 02ac 8afc 8b44 8483 9df7 c0de
07d2 3b09 61f0 94be b6c5 df56 1f2b eb7a
3836 220f bdaa 48f6 43e7 9c34 16b2 65e0
b138 c17c 6e70 0e8f 0450 871e 9402 e330
95fd 82ac 04db f9d4 6c10 5e70 b265 babb
1837 f491 41a0 4e0e bdcb 7a5c 3a65 61b8
1d75 6959 b5d4 6ebb 6456 12a5 0707 0adc
9c25 85ad 8d61 9b55 02f6 9eb0 760c 08c4
ad0e de18 121a ec3f 4b65 6c7a bcd3 d33d
3153 bfcc 24ff aabf b96f 1ce2 5a2f 1ae3
0ac7 f6a6 a394 1009 843d d1e7 0227 d6e3
7fc5 af68 a6d1 4628 0ce7 20a0 5568 3c55
bac6 3921 28cd de01 2d3a 9665 bbfe 0132
5019 8d44 0f88 0d40 aa38 4192 7aad 844c
0272 0d96 8920 33b5 9fbf a286 08ac 2570
5f8a c3e7 b7a8 d1d3 20ed 4173 360d 87a0
bd79 72c1 4633 9b9c 1539 1560 affe 3778
70cd 555e 03d4 6491 91ff 93e0 97ef 1db8
0576 a569 69ae aa81 b384 f0f3 19c9 8064
3f5e 1297 bddd 0169 3c9a e932 1bca 044d
b4d4 a856 66ba d725 064a b6d8 9a49 3ed3
8f77 1dcf 0350 3c52 73b5 9359 ae66 fc0e
1377 fb96 4910 535b bd27 8310 336c 3202
2327 30e2 b8ad 17f6 5c94 324b 09cd a514
a1e4 63bd 8670 fe57 023f 5a3e 7d81 7871
a85e 457c 0e0b 9e4f 5307 416b bb5b 1726
2ac2 f4b0 2b3a 8e6d bb7c 02b0 5277 cbd3
0e52 aba3 a8ba 3c5e 7cf7 c46a 0247 3042
86f5 0482 a17c de82 0994 a5ac 5d25 06a5
b87d 204a 22b9 2039 33eb eeb5 bd38 ffe7
4883 ea12 13cc 4216 aeb6 513a 7327 cdc7
0367 a6e8 8ff3 eacd 99d7 6136 0620 7006
674b 5897 b496 342a 1b66 c647 3d21 4a61
bdde db2f 3ed6 5a0a 1a2a 03b9 b3c6 b6de
691e 7be6 059d 5e72 9863 3bdb 9184 b2d4
03b9 54eb 715b d33a afb2 01cc 14e1 d326
46bf 0ee8 bd6b a3ed 358c 1632 2158 e0a1
b7dc 438b 5ef9 dbf9 08e1 b8fb a029 b61d
889d bf28 0266 8624 7b38 53e9 a9df 2e97
0f3d cc18 50a8 7121 bbe0 b31b 2cc0 efab
2943 56c7 baea bc9e 54d8 4cf7 0d2a ee41
a730 1195 7f3d 2df7 022b fa2a 84c3 53a2
a32f 2a75 0a8b 94e7 5abf c378 b942 a747
248f 3afc 31d1 b26e bce8 fb2a 4ad8 24a7
126c 28f2 ad61 4584 757f 132b 030a 604c
8de0 3f6e 9bb5 fb9c 06d9 3d51 64e6 cecc
b599 56bc 1d0f 8135 3aea 5517 bdd1 0760