0000 0000 ffff ffff ffff fffe fffd fffc
fffb fff9 fff7 fff5 fff2 ffef ffeb ffe7
ffe3 ffde ffd9 ffd4 ffcf ffca ffc5 ffc2
ffbf ffbd ffbd ffc0 ffc5 ffce ffdb ffed
0004 0022 0048 0076 00ad 00ef 013c 0195
01fc 0271 02f6 038a 042f 04e6 05af 068a
0778 0879 098c 0ab0 0be7 0d2e 0e84 0fe9
115a 12d5 1459 15e3 1771 18ff 1a8a 1c0f
1d8c 1efb 205a 21a6 22d9 23f1 24ea 25c0
2670 26f8 2753 2780 277b 2744 26d9 2638
2561 2453 230f 2195 1fe7 1e07 1bf6 19b8
174f 14bf 120c 0f3b 0c4f 094e 063d 0321
0000 fcdf f9c3 f6b2 f3b1 f0c5 edf4 eb41
e8b1 e648 e40a e1f9 e019 de6b dcf1 dbad
da9f d9c8 d927 d8bc d885 d880 d8ad d908
d990 da40 db16 dc0f dd27 de5a dfa6 e105
e274 e3f1 e576 e701 e88f ea1d eba7 ed2b
eea6 f017 f17c f2d2 f419 f550 f674 f787
f888 f976 fa51 fb1a fbd1 fc76 fd0a fd8f
fe04 fe6b fec4 ff11 ff53 ff8a ffb8 ffde
fffc 0013 0025 0032 003b 0040 0043 0043
0041 003e 003b 0036 0031 002c 0027 0022
001d 0019 0015 0011 000e 000b 0009 0007
0005 0004 0003 0002 0001 0001 0001 0000
0000