00000000000001000001101110010010
00000000000000000000000000000000
11111111111111111011101001010011
11111111111111111111101000000010
11111111111111101000000011011100
00000000000000101011101111001111
11111111111111111111111111111001
11111111111111111111110110001011
00000000000000000000000000000000
11111111111111111111111111101110
11111111111111111111111111010100
11111111111111111001100001001101
00000000000000000000000000110101
11111111111111111111110110001001
00000000000000000001011000000011
00000000000000000000000000000000
00000000000000000000000000000000
00000000000000000000001110111100
11111111111111000110001110110100
00000000000000000000000000110001
11111111111111011000011110001100
00000000000000000100010011010100
11111111111111110101010100111011
00000000000000000101011000001001
00000000000000000000000011111100
00000000000000001100010101010010
00000000000000000000010010010001
00000000000000000000001010011101
11111111111111111011111111111000
00000000000000000001000000011100
00000000000000000110110011000001
11111111111111111111111110010101
00000000000000000011111011000001
00000000000000000000000000000000
00000000000000000000010001011000
11111111111111111111110110010111
11111111111111111111111111101101
11111111111111111101111110110000
11111111111111100110000001100101
00000000000000010000000011111001
00000000000000000000010110001010
11111111111111110000101011010011
11111111111111110000100011111101
00000000000000000101001100010011
11111111111101001000001100011100
00000000000000000000000000000000
00000000000000000000000001111100
00000000000000000000000000100010
00000000000000000000111100001001
11111111111111111111111110010010
00000000000000000001010001000111
11111111111111111011000000010010
11111111111111111110100111111101
00000000000000000000000000001001
00000000000000010010000011001110
00000000000000000000000000000000
11111111111111111111110001011111
11111111111111111111010011011110
00000000000000000000000000010111
00000000000000000001010100011011
00000000000000000010110111110101
00000000000000000000000000100011
00000000000000000000000000000000
11111111111111111111111011010100
00000000000000000000000000101011
11111111111111111111111111100001
00000000000000000000000000000000
11111111111111111111110101001110
00000000000000000000010001100010
00000000000000000000110011011111
11111111111111110011111110001101
00000000000000000000000000010110
11111111111101110100001110001011
11111111111111111111110101100100
11111111111111111111100001110011
00000000000000000000100000110101
00000000000000001011000010010010
00000000000000000000000111010111
00000000000000000000000001101011
00000000000000000000111011100010
00000000000000001000001111101111
00000000000000000000000001101110
00000000000000000000000000000000
00000000000000000000000000000000
00000000000001100000010010100000
00000000000000000000000000000000
11111111111111111111111111111011
00000000000000001101110010101011
00000000000000000010011100011111
11111111111111111111111110111100
00000000000000000000000000000000
11111111111111110001000001001001
11111111111111111111111111100101
11111111111111111111111101101111
00000000000000000000011010100000
00000000000000001010111011101111
00000000000000000001111100110111
11111111111111111111111111001111
00000000000000000000000000000000
00000000000000000010001000101010
11111111111111111111111111000100
11111111111111111101001001101011
00000000000000000000010010011011
11111111111100010010011010101110
00000000000000000000000000011111
11111111111111111111100111111110
00000000000000000001101010110010
11111111111111111111111111010111
11111111111111111111111110001011
11111111111111111111111111100000
11111111111111111111110110011101
11111111111111111111111111001100
11111111111111111111111111101111
11111111111111110111101011011010
00000000000000000000011101000011
11111111111111111111111100011100
11111111111111111111111111001011
11111111111111111110011110111000
11111111111111111111111011101010
00000000000000100010111100010110
00000000000000000000000000000000
00000000000000000000000000010000
00000000000000011001111001110001
11111111111111110101111111011000
00000000000000000000100101100000
00000000000000000001010001010001
11111111111111111011111111001010
00000000000000000000000000011101
11111111111111111111111110110110
00000000000000000000000001000011
00000000000010101000111001111111
00000000000000000000000000000000
11111111111111110110000010111111
00000000000000000000101011100110
11111111111111111010111000100110
11111111111111111110110001101101
11111111111111111111100110110001
11111111111111000100000101010111
11111111111111110111001101101110
11111111111111111111111111101110
00000000000000000000000000000000
00000000000000000011010100101000
11111111111111111111111010100110
11111111111111111011111111011101
00000000000000000000000000111001
11111111111111111000011111101011
11111111111111111110110011111000
11111111111111110111000011011001
11111111111111111111011111110000
11111111111111111111110001000100
00000000000000000011011100000011
11111111111111111111111100111101
11111111111111111111110111101111
00000000000000000011110111001010
11111111111111100101110001110001
00000000000000110010100111010010
00000000000000001001001100010111
00000000000000000010100100001101
11111111111111111111111111100100
00000000000000000000001110001000
00000000000000000001110111001100
00000000000000000000000000010100
11111111111111111010001010110001
11111111111111111111111110111000
00000000000000000000000010110100
11111111111111111111111011001010
11111111111111110110110100011110
11111111111111110001101101111101
00000000000000000000000001000010
11111111111111111111111101110101
11111111111111111101101001001111
00000000000000000000000000101010
11111111111110110101010010111101
00000000000000100111110000011001
11111111111111111101111001000010
11111111111111111111001100110011
00000000000000100110111011001011
11111111111111111111111111001111
11111111111111111111111111101011
00000000000000000000000001000001
00000000000000111101101011010011
00000000000000000000000000000000
00000000000000000000000001000110
00000000000000000101111000011101
00000000000000000000000000111001
11111111111111010011110101100100
11111111111111111111111010001001
11111111111110111101111010001110
11111111111111111100000101101110
00000000000000001001100110101110
00000000000000000000000000101000
11111111111111111011011111000110
00000000000000000000000111101001
00000000000000011000111101011011
11111111111111111111111111011101
00000000000000000000000011111001
11111111111111110110011111011001
11111111111111101100000010100011
11111111111111111111101010110110
00000000000000000000000000000000
11111111111111111111111101110110
11111111111111111111111000100101
00000000000000000000000000000000
11111111111111111101111110110011
00000000000000000001100111101101
00000000000000000000000001111101
11111111111111111111110001111110
00000000000000011100101110011110
11111111111111111100001101010000
11111111111111111111101101100110
00000000000000000000000000000000
00000000000000000000000000100111
00000000000000000011001100010100
00000000000000110010011100010001
11111111111111110110001100010011
00000000000001000001001111110101
11111111111111111111111000001101
11111111111111111111110101110011
11111111111111110000110011110011
11111111111111111110000000110101
11111111111111111110011011011100
11111111111111111000000010101001
00000000000000000000001100100111
11111111111111111111101001110100
00000000000000000000000000000000
11111111111111111110100110010100
00000000000001110010011101110100
00000000000000000000001101001001
00000000000000000000000001011000
11111111111111111111111111011110
00000000000000000000000000010110
00000000000000000000000000101001
11111111111111111111111111010011
00000000000000000000011000101011
00000000000000000000101010010101
00000000000000000000000000111101
00000000000000010011101100111101
00000000000000000000000000111101
11111111111111101000101001011100
00000000000000000100100000011010
11111111111111111111001000110010
11111111111111111111011011101100
00000000000000000101100101000011
11111111111111111111011100001101
00000000000000000001010110101011
11111111111111111111111110100100
11111111111111100111110100000011
00000000000001111101010010100011
11111111111111111111110001100010
00000000000000000000000110101010
00000000000000000000000110000110
11111111111111110110111011011010
00000000000000000110001010111011
11111111111111111111111110011111
11111111111111111111111111010110
00000000000000000000001001000000
00000000000000001110010111110011
11111111111111111111011011110101
00000000000000000000000000000000
00000000000000000011100101111011
11111111111111111111111111101110
11111111111111111111010101101010
11111111111111110001001011100111
11111111111111010000100100100010
00000000000000001001011101111101
11111111111111111100110010100000
00000000000000000000000000001011
00000000000000000000000000000000
00000000000000000000001000100010
11111111111111111111111111000011
00000000000000000000000000001111
11111111111110100110011010100010
00000000000000000000000000100001
11111111111111111110000110010011
00000000000000000000000000000000
00000000000000001111100110100000
00000000000000000000000100001010
11111111111111110010000100010000
00000000000000000000000000101101
00000000000000000000000000000000
00000000000000000000000001000111
00000000000000111111001100111000
00000000000000000000000000000000
11111111111111011100000011001101
00000000000000000000000001111101
00000000000000001000100001011111
11111111111111111010001010010110
00000000000000000000000110001111
11111111111111111111111111000010
00000000000000000000000110100111
00000000000001011010110100011001
11111111111111111111111111101001
11111111111111111111101010011011
11111111111111111011110001000001
00000000000000001011000000011111
11111111111111111111011111011010
11111111111111111111111011101010
00000000000000000000000000000000
11111111111111101010100010100010
11111111111111111111011110010110
00000000000000000001010100011010
00000000000000000000111010100111
11111111111111111111111101101110
00000000000000000000001010111000
11111111111111111000001101001011
11111111111111111111100001000100
00000000000000000000000000100010
00000000000000001100110110000110
11111111111111111111111111010001
00000000000000000000000000011111
11111111111111111111111111010000
00000000000000000000000000000000
00000000000000000000001001010001
00000000000000000011011101100101
00000000000000000000000000000000
11111111111111111111111100010100
00000000000000000000011000100001
00000000000001000000010110001011
11111111111111011111111100000000
11111111111111111110000101110111
11111111111111111111111111111100
11111111111111111111000110100101
11111111111111111111111010011100
00000000000000000000000011110011
00000000000000000000110110001000
00000000000000000000000000000000
00000000000000111000101000110000
00000000000000000000000000010101
00000000000000000000001100000101
11111111111111110101001110001100
00000000000000000000000010101111
00000000000000010000111110000000
00000000000000000000000000000000
00000000000000000000000000000000
11111111111110000001011001000111
11111111111111111011011111011100
00000000000000000000000000000000
00000000000000000000001110010111
00000000000000000000000001001111
00000000000000100010010100000100
11111111111111111111011110001111
00000000000000000000000000000000
00000000000000000000000100001100
00000000000000000000000000000001
00000000000000000000000000000000
11111111111111111111111110111111
00000000000000000000000000101100
11111111111101111110101000111001
00000000000000000000000000011000
00000000000000000100100101101010
00000000000000000001001110000100
00000000000000000000000000000000
11111111111111111111110111110010
00000000000000000000000000000000
00000000000000000000000000000000
11111111111111111001010101001111
00000000000000000000000000011111
11111111111111111111111111100110
00000000000000000000100110001001
00000000000000000000001110010011
00000000000000000000010001011000
11111111111111111101111010101000
11111111111111101101101010111011
00000000000000000000000000000000
11111111111111111110011101100001
00000000000000000000001010101010
00000000000000000010110100000110
11111111111111100111101000111001
00000000000000000000000110100111
00000000000000000000000000001001
11111111111111011001011101011011
11111111111111111111001111010001
11111111111111111111111111100011
00000000000000000000000000000000
00000000000001110000111110110100
11111111111111101101100111010000
11111111111111111110110100111111
00000000000000111000110100100111
11111111111111111111111111001001
11111111111111111111111111110100
11111111111111111111100111111010
00000000000000000000000000100011
11111111111111111110101001000111
00000000000000000000001010100011
00000000000000000000111001000100
00000000000000000001100000000001
11111111111111111111101110000011
00000000000000000000010100111110
00000000000000000000000000000000
11111111111111111110111001010110
11111111111111111111111111011110
11111111111111111111110001111101
11111111111110101001000000000111
00000000000000000000000000101100
00000000000000000000010110001010
00000000000000001010111100010000
11111111111111111111111110110110
00000000000000000000000000010110
11111111111111111111111011100101
11111111111111110111111100000010
00000000000000000000011010100011
00000000000000000000110100111111
11111111111111111101111000010100
11111111111111111101001110011111
00000000000000000001001101100110
11111111111111111000001100101101
00000000000000000001000101001111
11111111111111111111111110010110
00000000000000000001010011001011
11111111111111111111111111110111
00000000000000000000011110101000
00000000000000001110111010010110
00000000000000000000000000011111
00000000000000000100111001010101
00000000000000011111100111000100
11111111111111111111111111001001
11111111111111011011111111100110
11111111111111111110111000010010
00000000000000000000000000000000
00000000000000000000000011111111
11111111111111111111110110001011
11111111111111111111111110110000
00000000000000000010110010110100
11111111111111111111000010011011
11111111111111111110110101001110
11111111111111110010010011010001
11111111111111111001101011101011
00000000000000000000010011101111
00000000000000000010001011001010
11111111111111111101011000110010
11111111111111111111110101111110
00000000000000000000000000011001
00000000000000000000000011101111
00000000000000000000000000000000
11111111111111111111111111110101
00000000000000000000000000000101
00000000000000011000111101110110
11111111111111111111111101101011
11111111111111111111111010100000
00000000000000000000000000000000
00000000000000000000000000001000
00000000000000000000000000000000
11111111111111111110000111111110
00000000000000000001100100100011
11111111111111111111011011111000
00000000000000000000000000000000
11111111111111111111010000111111
11111111111111111111111011111011
11111111111111111110101011010001
11111111111111111111100010110011
00000000000000000000000000011000
11111111111111111111111111100110
00000000000000000000000010111110
11111111111111111111100010110100
11111111111111001001000101010010
11111111111111111101100001111100
11111111111111111111010110010000
11111111111110100010111100101001
11111111111111111111111101101000
00000000000000000000000100011001
11111111111111000010100010111110
00000000000000000000000000000000
00000000000000000000000000000000
00000000000000000000000000000000
11111111111111010111101010101010
11111111111111110111110100000011
00000000000000000000001110110000
00000000000000000001110100100100
11111111111111111111111111111111
00000000000000000000000000000000
11111111111111101001100010001110
11111111111111111111111100010010
00000000000000000000100011101011
11111111111111111111011010000110
00000000000000000001010110011110
11111111111111111111111111100010
00000000000000000000000000100101
00000000000000000010000010100111
00000000000000000000000001011100
00000000000000000000000010011011
11111111111111111111111110010001
00000000000000000110101010110100
11111111111111111111011110000111
11111111111111111001001110111010
11111111111111111111110100100101
00000000000000000000000010001001
00000000000000000000000000000000
00000000000000000000000000000000
00000000000000000000000000000110
11111111111111111111111111100001
11111111111111111101111110010100
11111111111111110010101111100100
11111111111111111110010010011101
11111111111111110011110000110011
00000000000010100010000011010111
00000000000000000000000010100000
00000000000000000100001110000010
11111111111111111111111110111010
11111111111111111110101010011001
00000000000000000000000000000000
11111111111111111111000111000011
11111111111111111111111110110111
00000000000000100001101001101011
11111111111111111100100110010110
00000000000000000010100111001000
11111111111111111111111110110000
11111111111111111111111111000111
00000000000000000000000000000101
00000000000000000000000001101110
00000000000000000000010011001011
11111111111111111111111110101010
11111111111111111111111111101011
11111111111111111111111100110000
11111111111111111110100110011010
11111111111111111111111111001101
11111111111111111111111111000010
00000000000000000000101110100100
00000000000000000010010100111110
00000000000000000000001010000100
11111111111111111101101001000100
00000000000000000000000000110101
11111111111111111110001000001101
11111111111111111111111111111101
00000000000000000000000000000000
00000000000001100011001010100011
00000000000000000000000000000000
00000000000000000000000000100101
00000000000000000000000101001110
11111111111111110111101000101001
00000000000000000000011010100000
00000000000000000001101110101111
11111111111111111000110111001010
00000000000000000000000000100010
11111111111111111111111001001010
00000000000000000000000000101110
11111111111111111110011100101000
11111111111111111101011110011011
00000000000000000000000110010000
11111111111111111111100111111000
11111111111111111111111110011111
11111111111111000110010000111010
00000000000000000110101100000010
00000000000000000000000000000000
00000000000000000000000000000000
00000000000000001011001000100011
00000000000010100100100010100000
11111111111111111111100000000100
11111111111111001010111100101110
11111111111111111111111110010010
00000000000000000000011000010111
11111111111111111101001000011010
00000000000000000000101100110111
00000000000000000000000000000000
00000000000000000000000000111010
