0000000000100111
0000000000000000
0011010110010111
1111111101101010
0000010101100001
1110001101111000
1111010110100100
1111111111100010
1111111111111111
0000000000000011
1111111111111101
0100010110111111
1111111111111111
0010110100010011
0000010101100001
1111111111111011
0000000000000000
1110111010110111
1111001100001100
0000000000000011
0011000000111111
1111111000000010
0010110110111011
1111100001111101
1111111100111011
1110110101111011
1111101000011000
0001101011001100
0010000100100000
1111001100001100
1111101000011000
0000000000000001
0000000000010111
1111011000000001
0010000010100000
0011100110001010
0011001101100101
1111101011001110
0100000000000000
1111110101101000
1111110110000100
0000001011011011
0000000011100011
0000110000110011
0100100100000010
1111110101101000
0100110111101111
1111111111111100
1110010010111110
0000000000000100
0100011011100001
1110101100000101
1111001001010110
1111110010011000
1111110010010010
0001110011010010
0011111101010010
1111110010011000
1111111110011111
1111111000111101
0100101001011010
1111111111111100
0000000000000000
1111111111111011
0000101111011011
1111111100111011
1111111111011010
1110001101101001
1110010000000010
0001101011001100
1111000100100111
1111111101101110
1110110111010110
1111001101111011
1111110101001010
1111111100111011
1110010100110001
1111111011011010
1111001101111011
0100111110111110
1111110010010010
0000000000000100
1111110101001010
1111111111111001
0000101001000101
1111110110111001
1111111110110111
0010000010100000
0001010101100111
1111111110101001
1111111111111111
1110010100110001
1111111101101110
0000000000000100
0011100101000101
0001100000001011
1111110101101000
1111111001000000
1111010110100100
0011000000111111
1110100111010011
0011111101010010
0000010101100001
0001000000000001
0000000000000010
0100111111001111
1111110101000110
0000000000000001
0000000000000100
1111111111111100
1111001101111011
0100110110110101
1111111101010101
0000000000100111
0011011001111111
1111100001111101
1111100001111101
1111111011011001
0000000000000100
1110001010101010
1111111111111001
0000000000000100
0100011011100001
1110010100110001
1111111110000100
1111100100101111
0001001011100100
0000011011011011
1111111111111111
1111111011111101
0101000001101111
1110011010001001
0001100000001011
0000000000100111
1110010100110001
1110011001101011
0000000000100111
0010001110101010
1110011111100101
0100110111101111
0000000000000001
1111111000111101
1111111101101110
1111111101101010
1110100111010011
0001101011001100
1111111110011111
0000110000110011
1111110111101111
1111111001100010
0100101011101001
1110100010101011
0010001110101010
1111101011001110
0100110111101111
0100010010001001
0100001000000010
1111110110000100
1111110110100100
1111111001000000
1111111101010101
1111110010011000
1111100100101111
0100111011100100
0010000010100000
0010000100100000
0000001111101000
1111001100001100
0000000000000011
1111110111100111
1111111011001100
1111111111110000
0000011111010001
0000100001111101
1111110110100100
0100010110111111
0100000000000000
1111111111100110
0000000000000100
1111101101110101
0100010010001001
1111111111111001
0000000000000001
1110010110010110
0000000000000011
0100101001011010
1110010110010110
0101000001000010
1110011111100101
0000111001001000
0000000000000001
1110010000110111
1111110101010011
0011100101000101
1111111111011010
0000000000000100
1110011110010001
0000010101100001
1110101110011010
1111111111111111
1111111011011010
1111111010001010
0000000000000010
1111110101101000
1111111010001111
1111111111111100
0011010110010111
1111110010010010
0100101011101001
1111111000000010
0011100110001010
0000000000000001
0100001000000010
0010100110011101
0001100010000011
1110010110010110
1111111111100010
1111101000011000
1111000100100111
0100110110110101
1110110101111011
0001001011100100
1111111110110111
0000100001111101
1111111111011010
1110011111100101
0001100010000011
1110010100110001
1111111111101110
0011110001111100
1111111111100010
1111111110101001
1111111111011010
1111111100110110
1111110110111001
0000000000000100
0100110111101111
1111111100011101
0001010000111011
1111001100001100
0000001111101000
0100110010001110
1111011010100101
1111110110000100
1110100010101011
0000000000000010
1110110000111110
0011110010111111
1111111111011010
1111110110000100
1111110110000100
1110011001101011
1110111111110001
1111110000001110
1111111100110110
1111111010001111
0000010101100001
0100111111001111
1111110110100100
0001010101100111
1111111111110000
1110010000110111
0001100000001011
0100110110110101
1111110101000010
1110110111010110
1111011010100101
0001100000001011
1111111111111100
0000000000000100
1111111100110110
0000001111101000
1111111111111111
1111110111001000
1111111111101110
0011000110111100
0011001101100101
0001010000111011
1111111111111111
1111111111101110
0000000000000100
0000101001000101
1111111011011010
0011011001111111
1111110010010010
1111110101101000
1111110101001010
1111111111110000
1110100111010011
1111010110100100
1110110111010110
1111111111111111
1111011110011000
1111110111100111
1111110010010010
1111001101111011
0000000000000011
0000000000000001
1110011111100101
1111110101001010
1111111100110110
0011010110010111
0001000000000001
0010110110111011
1110011111100101
0010000010100000
0011111101010010
0001001011100100
0000000000000001
1111100001111101
1111111001101000
0000000000000000
1111111100111011
1111111010110110
0000000000000000
1111111111100010
0000001111101000
1110011001101011
1110011111100101
0001101011001100
0000000000000100
0000101001000101
1111110100010100
1110110101111011
0010100110011101
1111111111111100
1110001010101010
1111111101100000
1111111111101110
1111000100100111
1111111000111101
1110001010101010
0000000111001111
0011011001111111
0011100110001010
1110110101111011
1111000001010010
1111111110011000
1111111111111001
0100100000110011
1111001101111011
1111111010001111
1111111101101110
1111111111110010
0000000000000001
0000000000000010
1111111111110000
0101000001000010
1111110101000110
0000110000110011
1110010000110111
1111111100111011
1111011010100101
1111111111010000
1111111111111111
1110001101111000
1111110110000100
0000000000000100
1111111110000011
0100111100000101
0001100010000011
1111010110100100
1110111111110001
1111111111100010
1111110000001110
0010011011000100
1110010000000010
0011001101100101
1111111001100010
0000000000000010
0100110111101111
1111110101101000
1111111111111100
1111111111111111
0001001011100100
0011110001111100
1111111001000000
0000011111010001
0010011011000100
1111110010011000
1111111011011001
0100111011100100
1111111010001010
1111111111111100
1110110101111011
0001100010000011
0100100100000010
0010110110111011
0000000000000010
1111111111100110
1110100111010011
1111111010001010
1110011111100101
1111111010001010
1110010000110111
0001010000111011
1111111100000101
0000000000000001
0100101001011010
1111100100101111
1111110110000100
0001100010000011
1111000100100111
1110101110011010
1111110110100100
0000100001111101
1111101011001110
1111111100111011
1111000001010010
0000000000100111
1110010000110111
0101000001000010
1111111100011101
0100000000000000
0000100001111101
1111111001000000
1110001101101001
1111110111101111
0000000000000000
1111111111011010
1111111111000101
0000000000000100
0001010101100111
1111000100100111
1111111000000010
0011000000111111
1110001010101010
1111111111110111
1111111010001010
0011100110001010
1111111011111101
0000000000000100
1111111011011010
0000000000000100
1111111111111011
0000000000000001
1110001101111000
1111110101001010
1111111010001010
0000000000000000
1110010100110001
1111111111111100
1111111010001111
1111110111100111
1111110100010100
1111111111111111
1111101000011000
0101000001000010
1111001001010110
1111111111110111
1111111110011000
1111000100100111
1111110101000010
1111111110111000
0100101001011010
0100011011100001
1110001101101001
0100100000110011
0000001111101000
1111000100100111
0100001100000001
1110010100110001
0000001011011011
1111111111011010
1110001011110111
0000000000010111
1111111101101110
1110001011110111
1111111111011010
0000000000000011
0100010110111111
1111111110000011
1111111011111101
0000110000110011
1111100100101111
1111111010110110
1111111011001100
0000010000001100
1111111011011001
1111110110100100
1111111111111111
0000010101100001
0100001000000010
0001001011100100
1111110110000100
0100110000110001
1110110101111011
1111111111111111
1111110111101111
1111111100011101
1111001001010110
1111001101111011
0011100110001010
1110100111010011
0100110110110101
1111111111111111
1111010110100100
1111111010001010
0000011111010001
1111111111110010
0010110100010011
1111111111111111
1110101110011010
0010100111101001
1111111101100000
1110010000110111
1111111101101110
0000000000010111
1111111111111100
1111111001100010
1111111101101110
0000000000000100
1110010000000010
0011100110001010
1111111000010111
0000000000000100
0001010000111011
0100111110111110
1111100001111101
1111110101101000
0000000000000010
1111110000001110
1111111111110000
1111111111100010
1110001011110110
1111111111111100
0000000000000001
0000001011011011
1111101000011000
1111111110011111
0000010101100001
0100111011100100
1111111011011001
1111110110000100
0000000000000001
1111110110000100
0010011011000100
1111111111101000
1111101101110101
0011110010111111
0101000001001001
0000000000010111
0000100001111101
1111111000000010
0001010000111011
0100111100000101
0100110110110101
1110001010010011
1111111111110111
1111001001010110
1111111001101000
0010100111101001
1111111111110111
1110010000000010
