1011010100010111
0000000000000000
0000011000100100
1111111101111111
0001000001111001
1101110111010001
1111111111111111
1111111111111100
0000000000000000
1111111111111111
1111111111111111
1110010111001110
1111111111111111
1111111111111011
1111110111111001
0000000000000000
0000000000000000
0000000000000010
1100010111001011
0000000000000000
0001100001011110
0000010001001011
0000100011001000
0000000000110101
1111111111111000
1111110110010001
1111111111100110
1111111111000010
0000100011010010
0000010001110101
0000000001001101
1111111111111111
1111111011111111
0000000000010010
1111111011101100
1111111111110110
1111111111111111
0000001000100100
1110111111110001
0000001001010000
1111111110100101
0000010101011111
0000111101001011
0000100001101011
0000000011011100
1111111111111111
0000000000000010
1111111111111111
0000000111111111
0000000000001001
1111111110111000
1111110100010011
0000000000000000
0000000000000000
0000001011011000
0000000000000000
1111111101000111
1111111110110110
1111111111111100
0000000001111010
1100111100011111
0000000000000000
0000000000000000
1111111111111101
0000000000000001
1111111111111101
0000000000000000
0000000000001010
0000000001101001
1111111110101000
1111111111101001
1111111111111111
1100001110100010
0000000000000111
0000001101010111
0000000000001000
0000010010101011
1111111111110001
1111111111100110
0000000001110101
0000011110010000
0000000000001000
0000000000000000
0000000000000000
0001000101011000
1111111111111110
1111111111111101
1111110010111011
0000001100100111
1111111111111111
0000000000000000
0000010110001000
1111111111111111
1111111111111110
0000000001000001
0000000110000000
0000001111101010
1111111111100100
1111111111111111
0000000010101000
0000000000001001
1111111000011111
1111110101111101
1100101010001000
1111111111111111
0000000101110100
0000000010010010
1111111111111111
1111111111111101
1111111111111111
1111111111111110
0000000000000011
1111111111111111
1100001010010101
1111111111110010
1111111111110011
1111111111111010
0000100011100011
0000000000010100
1101111111110000
0000000000000000
1111111111111111
1111111100101010
0000000011100011
0000000000001110
0000000010010101
1111110010101110
1111111111111011
0000000000000110
1111111111110110
1111010111010111
0000000000000000
1111110001111101
0000010101111110
1111111011010111
0000001111010010
0000000010000011
0001010110111100
0000001101111000
0000000000000001
0000000000000000
0000000100001001
0000000000100010
1111111100000111
0000000000000000
1111110001100110
0000000001011110
0000100001101011
1111111110111110
1111111110101100
0000000000000010
0000000000000001
1111111110000111
0000001010011000
0000000011001111
0000000111000101
0000001001001011
1111111110010101
1111111111111011
1111111111010010
0000000000011100
1111111111111111
1101100101111000
0000000000001101
1111111111111101
0000000101001011
1101011001100010
1111111111100000
0000000000000101
1111111111101100
0000000101011011
1111111111111111
1101001001001100
0001011010011110
1111111111010101
0000010011011111
0000011101101100
1111111111110110
1111111111111111
1111111111111111
0000011101111011
0000000000000000
1111111111111111
0000000110110101
1111111111111111
1101110010110000
0000000000001000
1111101111100011
0000000101111001
0001000010011010
1111111111111111
0000010011011100
1111111111010000
1111111111011110
1111111111101111
0000000000001100
1111011001101101
0000100010110010
0000000010101100
0000000000000000
1111111111111111
1111111111100110
0000000000000000
1111111110000100
0000000010010011
0000000000100111
0000010000010010
1100110000101010
0000000000000100
1111111110111101
0000000000000000
1111111111111111
1111111100110010
0000100000001101
1111110111101110
1111011001101110
1111111111111100
0000000001001101
1111111111110100
0000001111001000
0000000001000010
0000000101110010
0000000000001111
1111110101001111
0000000000000000
0000010100111011
1010111110111001
0000000000010101
1111111111111111
0000000000000000
1111111111111111
1111111111111111
0000000000000000
1111111111010111
1111111100110111
1111111111111101
0000000011110011
1111111111111111
1111110111101111
0000010000010101
0000000100001111
0000000000001101
0000000010101001
1111111101100010
0000000100001010
0000000000011010
1111110000010011
0000010011000011
1111111111101111
1111111111100101
1111111111101001
1110111000001011
0000000000011001
1111111111111101
1111111111111011
0000000010111011
0000000110101101
0000000110110101
1111111111111110
0001010101100110
1111111111111000
1111010101111011
1111110110110011
1111010110001110
0000000100001011
0000011101100110
1111111111111111
0000000000000000
1111111111111001
0000000000001100
1111111111111111
1111100111100001
1111111111111111
1111111110110011
0000000000000000
0000011100001100
1111111110101010
1111011100100011
1111111111111111
0000000000000000
1111111111111111
0001011101000101
0000000000000000
1111111000011111
0000000000000001
0000000100100101
0000000101101100
1111111111110111
0000000000000100
1111111111011101
1100010101011101
1111111111111011
1111111110110100
0000000001001011
1111111000011111
0000000011010001
0000000000000100
0000000000000000
0000001110100111
1111111101001110
0000000010100101
0000000110010011
0000000000000011
0000000110101010
0000010111110101
1111110110001001
1111111111111110
1111110101011000
1111111111111111
1111111111001010
1111111111111111
0000000000000000
1111111111110111
0000000000111010
0000000000000000
1111111111111111
0000000101110010
1101010101110101
0000000100000011
1111111101101100
1111111111111110
1111110100011010
1111111111011010
0000000000000001
0000001000111010
0000000000000000
1110111110101011
0000000010101100
1111111111111101
1111111111101001
1111111111111101
0000001110011100
0000000000000000
0000000000000000
0000110110101010
0000000000101001
0000000000001001
0000000000000010
0000000000000000
0000010101110100
1111111111110011
1111111111111111
1111111111111011
0000000000000000
0000000000000000
1111111111111111
1111111111111110
1111011110100011
0000010011010111
1111110100101010
0000000010010100
0000000000000000
1111111111100101
0000000000000000
0000000000000000
0000001101000000
1111111111111110
1111111111111111
0000000000000110
0000000101011101
0000000011001011
1111111111011101
1111111100011110
0000000000000000
1111111110110011
1111111111111010
0000000101111111
0000000010011110
1111111111011101
0000000000000010
1111100010001110
1111111110001011
1111111111111111
0000000000000000
0001100101101110
0000010010001110
0000000101011100
1101100011111110
0000000000000000
1111111111110011
1111111110001010
0000000001001110
1111111111010001
0000000000010111
0000000000010111
0000001001001110
1111111111111011
0000000000100011
0000000000000000
0000000000110011
0000000000000100
1111111111011111
1110000111011100
1111111111111111
0000000000010011
0000010010000111
1111111111111010
1111111111111111
0000000000000111
1100010111100011
1111111101101110
0000000001110011
1111111111110110
1101100101110100
1111111110110000
1111111100010111
1111111110101111
1111111111111111
0000000100110010
0000000000000000
0000000010101110
1111011001111000
1111111111111001
0000010100010010
0001011011101101
1111111111111111
1111000011001110
1111111111000001
0000000000000000
1111111111111111
0000000000000000
1111111111111111
1111111011010010
0000000000000010
1111111011011000
0001000000010100
0000001110011100
0000000000010101
1111111111001001
0000011010111110
0000000001111100
1111111111111111
0000000010011110
1111111111111011
0000000000000000
1111111111111111
1110111111101110
1111111111111100
1111111111010101
0000000000000000
0000000000000001
0000000000000000
0000000010101000
0000000110110001
0000001001001001
0000000000000000
1111111111010000
0000000000101001
1111111111110101
0000000001010001
1111111111111110
0000000000000000
1111111111101110
0000000000000000
1101101011000101
1111111111110001
1111111011100100
1110111001001000
0000000000001000
0000000000000000
1111010100111110
0000000000000000
0000000000000000
0000000000000000
1110110100011110
0000001110111001
0000000000010100
0000000011100010
1111111111111111
0000000000000000
0000000100100001
1111111111100111
0000000000011111
0000011001100011
0000000001111100
1111111111111111
1111111111111011
1111110110110101
1111111111111110
1111111111101111
0000000000011101
0000001110110111
1111111100110010
0001101111000110
1111111111110001
0000000000000010
0000000000000000
0000000000000000
1111111111111101
1111111111111111
1111111111110100
0000000010100000
1111111101000000
0000000000100010
1110000011011001
0000000000011000
1111111111001111
1111111111111101
0000100011111100
0000000000000000
0000010110110111
1111111111111111
0000001000111110
1111111000011111
0000000001010101
0000000000000000
1111111111111111
0000000000000000
1111111111111110
0000100011110110
1111111111111011
1111111111111110
0000000000100001
1111111111101100
1111111111111110
1111111111111111
1100110110001000
0000000111011110
1111111110111111
1111111110100000
1111111111111110
1111111110111011
1111111111111111
0000000000000000
1110110010011101
0000000000000000
1111111111111111
1111111110110011
0000001010111000
0000000011011100
1111110111111001
0000000111101001
1111111111111111
1111111111000000
1111111111111111
1111111110111110
1111110100001011
1111111111111100
1111111110101110
0000000000000001
1110101111001111
1111111000110100
0000000000000000
1111111111111100
0000100011110000
1111011110010101
0000001001011000
1110111111011111
1111111111110111
1111111111101111
0000000001111111
1111111111011111
0000000000000000
0000000000000011
