01110000
10111111
01100011
00101111
00110101
01111101
10010100
00001101
00000011
10111000
00000101
01011110
10110000
01000101
00110101
00000111
10111111
10001110
01110100
10111000
01000110
00101100
01100101
10010111
00010111
10001101
10011001
00111111
01101000
01110100
10011001
10111011
00110000
01110011
01000001
01001001
01000111
10011010
01100000
00100100
00100011
00110011
00110001
00111001
01001111
00100100
01010010
00000110
10000101
10110110
01001110
10001011
10010001
10011101
01110001
01101001
01001011
10011101
10101000
10100001
01011100
00000110
00000001
00000111
01101101
00010111
10101011
10000011
10000100
00111111
10010000
00010101
01110110
10010010
00101000
00010111
01111011
00011010
10010010
01011000
01110001
10110111
00101000
00001000
00111000
00101011
10101001
01000001
00111101
00010010
00000100
01111011
00010101
10110010
01100010
00111110
00100100
00011110
10010100
01000110
10001010
01001011
00110101
01101100
10111010
01010100
00100110
10111101
10110010
00000110
10010010
01011010
00010110
01110000
01001000
10010111
10010111
00101110
10110010
01111111
00001000
10110101
01001110
01111011
00010100
01110010
00111100
00110110
10110000
00011001
01010110
10000111
00111110
01110000
01111011
01111010
01110000
01000010
01111001
01010010
10111100
10100001
00010101
00101111
10001010
00111111
10101000
00111001
00100000
00101101
01010000
10001001
01000010
10011010
01010010
01001101
01001100
00100011
00100010
00011110
00010110
10011101
01110010
01011001
01000001
01101000
01101111
01110100
10111000
10100000
10100011
10101101
01101110
00110111
00100010
01011110
01100000
10101100
10110101
10011011
01001101
00001000
10111110
10000110
10111001
01011100
10000110
01010111
01111001
00111010
10111110
01111100
00100101
01100010
10101011
10110010
10001000
00110101
01110111
00000011
00011010
10100010
10111010
00100100
00011100
10101111
01100011
01110001
01010000
00101100
01001001
10111110
01001100
01100110
01101010
10000110
00001101
10011001
10010000
01011010
10001101
00111100
10101001
00110111
00001110
01111001
01101010
01111011
00001011
01001010
00001101
00010010
00001110
10100101
00101011
10110100
01010010
00011000
01101011
01110100
01101111
01010001
10010101
00101010
10001001
10110001
10001100
01100001
10101011
10011111
10011111
01111010
10001111
10011100
10100101
00011100
00110101
01010100
00100010
00111101
10101101
01111100
00111110
01011010
00100111
01110110
10010101
00111110
10101111
10110011
10100101
01101111
00000011
00100001
00001011
01100100
01000111
01101011
10110000
00001011
10110011
00111000
00011010
01001000
01110001
00100100
00101000
10101101
10001010
10010100
01110110
10110000
10010110
10100000
01110001
10010010
10111000
10111110
01111001
00101000
10100101
01100011
01101100
01100101
01111001
01000001
01001011
00111100
10111101
10010111
00011101
00000001
00010111
00011011
10111111
00001101
01101111
01111010
01111001
00111111
10110111
00111000
10011110
10001101
01100110
00000110
01111111
10100110
00001011
10010000
10100001
01111111
00110010
01001000
01001001
10001101
01110101
00010011
00001000
01011101
10010010
00011100
00010101
00001010
10111110
10111010
10101101
01010111
00100110
00111001
01111100
00010111
10010101
00001111
00000010
01111101
10011111
10110100
10100111
01010011
01101010
10010100
10001111
00001101
10011100
01000011
10000100
01000111
00101101
10111010
01010010
00100100
00000110
00000011
00111100
01001010
00011110
01101110
01000011
10011101
00101110
01011001
10100010
10101111
10001101
01101010
01001111
01100101
10110001
10101100
10001010
10100010
01111001
10100010
01111100
01101011
10100100
10111011
01011100
01110010
00101010
01101010
10010000
01110111
00100010
00110111
10011010
00010111
01110101
01110000
01111100
01010111
00011000
01100000
00110111
00011110
10000011
00100000
00000001
00001110
00010000
10110100
00111101
10010000
00101100
01000110
01111111
10101110
10100010
01001001
00011001
10110011
00011010
10110010
00000111
10111110
01111101
00101000
10100010
00000000
01111011
00000110
00011100
10100000
10011110
00000011
10011001
01010111
10010001
10101110
00010011
10010000
00100111
00010001
01011100
01001110
10000011
01011101
01101111
10010000
01011111
01111011
00110011
00001110
10000010
00110000
00010101
10000010
10101011
10111000
01011110
10100111
00011001
00111001
01110010
00011011
10100011
00110100
00101110
00100010
10110000
00110101
01001100
00111100
00101010
01011011
10001101
00000011
00100000
00011000
10010001
10010010
01001001
10001010
01011010
10110000
10010100
10100010
01101110
00001010
01000101
00000010
01110111
01000100
10100110
01111100
00010101
00110000
00000110
00101101
00010101
10110100
10000100
01001001
00011111
10110010
01101011
01011000
10010111
00100100
10110001
10011100
10101101
00001101
01111110
00000110
10111101
00110011
10011001
10101000
00110101
01011001
00101110
00100011
10111100
10011111
01000011
00001100
10011011
01100001
01010101
00110000
00110111
00101100
01101011
01010011
01011010
10000000
10101110
10010001
00011101
01000100
10101110
10000100
