1011111
1000000
0000100
0101011
0010010
0010110
1011110
0100110
1010110
1011111
1001111
0110000
1011011
0001110
1011111
0100001
0110110
0000000
1011001
0001010
1011111
0011100
0001101
0110001
1001110
1000110
0000111
0010001
0101100
1011111
0111111
1011101
0010011
0010101
0100111
0000110
1010101
1011111
1000100
0101111
1011100
0100010
0001001
1011000
0000000
0000001
0110100
1011010
0001011
0011110
1011111
0001100
0000001
1000111
0111001
1010111
0001000
0011000
1011100
0101101
0000011
1010001
1000011
1011110
0010100
1011110
0000101
1010100
1011111
0000011
1011100
0010000
0001000
1010111
0111001
0000000
0000001
0110011
1011010
0001100
0011110
0001011
1011010
0110100
0000001
1001100
1001000
0000000
0111000
1011000
0001001
0100010
1011111
0011001
0001111
1011100
1010000
1000100
1011111
0111101
0100111
1011110
0010101
0010011
1010011
0111111
1000010
0000011
0101100
0010001
0100100
0111010
1011011
0011100
1011111
0011111
1011001
1001011
1001001
0000000
0110111
1011000
0100001
0001110
0110000
0000010
1001111
1000101
1011111
0111100
0100110
1011110
0010110
0010010
1011101
1000000
1011111
0000100
0101011
1011101
0010110
1011110
0000111
1010110
0111011
0000010
0110000
1011111
0001010
1001010
1011001
0001010
1011111
0001101
1011011
0110001
1000110
0100101
1011101
0101100
1010010
1000001
1011111
1010011
0101010
1011110
0000110
1010101
0111100
1011111
1000100
0000010
0101111
0011010
1011111
0001001
1011000
0110111
1001011
0110100
1011111
0011101
0001100
0110010
0111001
0011000
0010000
0101101
0000011
1010001
1000010
1011111
1010100
0000101
0010100
1010100
1011111
0101110
1011100
1011111
0100011
0001000
1010111
0000000
1001000
1001100
0110011
1011010
1011111
0011110
1011010
0110011
0000001
1001100
1001000
0111000
1011111
0001111
0101110
1010000
0111101
1011110
0010011
0000101
0111111
1011111
1000010
1010001
0011000
0100100
1010111
0111010
1000111
1001101
0110010
0011100
0011111
0001011
1001011
1001001
0000000
0110111
0100001
1011111
0011010
0001110
0000010
0111100
1010101
0000110
0100110
1011110
1011101
0101010
0000100
1010011
1000000
1010010
0000100
1011101
1011110
0100101
0000111
1010110
0000010
1011011
0011011
1011111
0000000
0000000
0011011
1011011
0110001
0000010
1000110
1010110
0000111
0100101
1011110
0010111
0010001
1011101
0000100
1010010
1011111
1000000
1010011
0000100
0101010
1011101
1011110
0100110
0000110
1010101
0111100
0000010
0101111
0001110
0011010
1011111
0100001
0110111
0000000
1001001
1001011
0011111
1011111
0110010
0000001
1001101
1000111
0111010
1010111
0011000
0010000
0101101
1010001
1000010
1011111
0000101
0010011
1011110
0111101
1011111
1010000
0000011
0101110
0001111
1011111
1011111
1010010
0000100
0101011
1011101
0010010
0010110
1011110
0100110
0000111
0110000
1011011
0011011
1011111
0001010
1011000
0110110
0000000
1011001
1011111
0011100
0001101
1011011
0110001
0000010
1001110
1000110
1010110
0000111
1011110
0010001
0101100
1011111
0111111
0000101
1011101
0010011
0010101
0100111
1010101
1011111
1000100
0101111
1011100
0011010
0100010
0001001
1011000
0000000
0000001
0001011
1011111
0011101
0001100
0000001
1000111
0111001
1010111
0001000
0100011
0011000
1011100
0101101
0000011
0000101
0101000
1010100
1011111
1010000
0000011
1011100
0010000
0100011
0001000
1010111
0111001
0000000
0000001
0110011
1011010
0001100
0011110
0000001
1001100
0000000
0111000
0001001
0100010
1011100
0000011
1010000
1000100
1011111
0111101
0100111
1011110
0010101
0010011
1011101
1010011
0111111
1000010
0101100
0010001
1011110
0000000
1000110
0011100
1011111
0011111
0001011
1011001
0000001
1001011
1001001
0000000
0110111
1011000
0100001
0001110
1011011
0110000
0000010
1001111
0111100
0100110
0010110
0010010
1011101
1000000
1011111
0000100
0101011
1011101
0010010
1011110
0000111
1010110
0111011
1000101
1001110
0000010
0110000
1011111
0001010
0110110
1001010
1001010
1011001
0100000
1011111
0001101
1011011
0110001
1000110
0100101
0010111
0010001
1011101
0101100
0000100
1000001
1011111
1011110
0000110
1010101
0111100
1000100
1001111
0101111
0001111
0011010
1011111
0001001
1011000
0110111
0000000
1001001
0000001
0011111
1011111
0011101
1011010
0110010
1001101
0000000
0111001
0011000
0101101
0000011
1010001
1000010
1011111
0111110
1010100
0000101
0010100
0010100
0101000
1010100
1011111
0101110
1011100
0011001
0100011
0001000
1010111
0000000
1001000
1001100
0110011
1011010
1011111
0011110
1011010
0000001
1001100
1001000
0111000
0001111
0101110
0000011
1010000
1011111
0111101
