1111100100101111
1111111000000010
0100110111101111
0001101011001100
0011111101010010
1111001001010110
0001110110101011
1111011110011000
0100001000000010
1111111111110000
0000000000000001
1110011111100101
1111111111110111
1111110010010010
0100101001011010
0000000011100011
0011111101010010
1111111111111111
1111110110111001
1111111111110010
1111111001100010
1110010100110001
0000010000001100
1111111111111111
0100110111101111
1111111111011010
1111110110000100
0010000010100000
0100111110111110
0100111111001111
1111100001111101
0011011001111111
0011100110001010
0010011011000100
1111100101010010
1111111111110111
1110010110010110
0011011001111111
0100011011100001
1111111111110111
0100101001011010
1111010110100100
0010001110101010
1111111111111101
1111111000111101
1111111011011010
1111110110000100
1111000001010010
1111110101000010
1110001011110111
1111110111100111
1110010100110001
0000000011100011
1111110111101111
1111111111111101
0100110111101111
1111111111111100
1110110000111110
1111111111111011
1111111011011010
1111111111111101
0011001101100101
1111110101010011
0000110000110011
1111111111101110
1111111101010101
1110001011110110
1110011110010001
1111111000000010
0011100110001010
1111110101000110
1111111111011010
0011111101010010
1111101101110101
0000000000000100
1110100010101011
1111111111101000
0000000111001111
0000000000000001
1111111100011101
1111001001010110
0000001111101000
1111000001010010
0000000000000100
0101000001001001
1111110110100100
0000000000000011
1111110111001000
0000000000000100
0000000000000011
1111111111110000
0000000000000010
1111111110000100
1111111111000101
1111011010100101
1111111000000010
0010000100100000
0000000000000100
1111111111101000
1111011010100101
1111111111111011
1111110101000110
1111100001111101
1110110101111011
0100101001011010
0010110110111011
0011011001111111
1110011010001001
1111111011011010
1110001010010011
0000000000000011
1111000100100111
1111100100101111
0011001101100101
0000000000000100
1111110101010011
0100011011100001
0000000000000000
1111111111100110
1110010100110001
1111111001000000
1111111111110000
1111111111111100
1111011000000001
0100100000110011
1111111010001111
1111110010011000
0100000000000000
1111111000000010
1111111010001111
1111110111101111
0100001000000010
1111011010100101
1111110111001000
1110001010010011
1111100101010010
0010010101100110
0011100101000101
0011010110010111
0010110110111011
0011000110111100
0100010110111111
0100111111001111
0011100110001010
0100010110111111
1111011010100101
1111111111110111
1111110111100111
1111111011011001
0001101011001100
1111110101010011
0000000000000100
0010100111101001
1111111110011111
1111111001000000
0100000000000000
1111110010010010
1110001010101010
0001010101100111
1111111101101110
1111111110110111
0011011001111111
1110111010110111
0010000010100000
1111011000000001
1110101100000101
1110101110011010
1111111100011101
1111110101001010
1110001010101010
0000000011100011
1111111111101110
1111111111001011
0101000001001001
0001110110101011
0000000000000100
1110011111100101
0001100010000011
1110001010101010
1111111011001100
1111111101101110
1110001011110110
1111111111111111
1111111110110111
0101000001001001
1111110101010011
1110001011110111
0100110110110101
1111111111110000
1111111011011001
1111110110000100
0001000010000100
0100101001011010
1111110101011111
0000010101100001
1111111111000101
0001010000111011
1111111111111100
1111110111001000
0011110001111100
1111111011111101
1111110010010010
0000000000000011
0010000100100000
0100111100000101
1111011000000001
1111110110100100
0000000000000010
1111111001100010
0011001101100101
0100111111001111
1111001001010110
1110110101111011
0000011011011011
0100111100000101
1111111111010000
0000110000110011
1111111100110110
1110101110011010
1111001100001100
1110100111010011
1111111100111011
