11111111011011100000000000000000
00000000000001100000000000000000
11111101110100100000000000000000
00000000000000100000000000000000
00001001101110000000000000000000
11111111101010010000000000000000
00000000000101100000000000000000
00000000000000000000000000000000
11100100000000000000000000000000
11111111101011000000000000000000
00000000000000000000000000000000
11111110110110000000000000000000
00000000000000000000000000000000
00000000000111000000000000000000
00000000001110110000000000000000
00000000000101010000000000000000
00000000000000100000000000000000
00000000000000000000000000000000
00000000000101100000000000000000
00000000000000100000000000000000
00000000000000000000000000000000
11111110010101000000000000000000
11111111111110110000000000000000
00000000000010100000000000000000
00000000000000010000000000000000
00000000000000110000000000000000
00000000000000000000000000000000
00000010100101100000000000000000
00000000000000010000000000000000
11111111111011100000000000000000
11111111111010100000000000000000
00000000010010000000000000000000
00011001010111000000000000000000
11111111111100010000000000000000
11111110111000000000000000000000
11111111111011110000000000000000
00000000000000010000000000000000
11111111010000010000000000000000
00000010000000010000000000000000
00000000000101000000000000000000
11111111111111110000000000000000
00000010101110000000000000000000
00000000000000000000000000000000
00000000000000010000000000000000
00000000000000000000000000000000
00000000000000000000000000000000
00000000000001000000000000000000
11101011111100110000000000000000
00000001011000000000000000000000
00000000000000010000000000000000
00000000000010000000000000000000
00000000000000010000000000000000
11111001101101100000000000000000
00000000000000110000000000000000
00000000000000010000000000000000
00000000000000010000000000000000
00000000000100010000000000000000
00000000000000000000000000000000
00000000000000010000000000000000
00000000000000000000000000000000
00000000000000000000000000000000
00000000000000100000000000000000
00000000000000110000000000000000
11111111111111000000000000000000
00000000000000000000000000000000
00000000000000110000000000000000
11111111100110000000000000000000
00000000000000100000000000000000
00000001101100100000000000000000
00000000000001000000000000000000
00000000001100100000000000000000
00000000000000000000000000000000
00000000000000000000000000000000
00000000000000100000000000000000
11111111111100000000000000000000
11111111111111110000000000000000
00000000000000100000000000000000
00000000000000000000000000000000
00000000000000010000000000000000
00000000000000000000000000000000
00000001001001100000000000000000
11111111001011010000000000000000
00000000000000010000000000000000
00000000000000010000000000000000
00000101110101010000000000000000
00000000000000010000000000000000
00000000000000100000000000000000
00000000000000010000000000000000
00000000000000000000000000000000
00000000000000000000000000000000
00000000000000010000000000000000
00000000000000000000000000000000
00000000000000000000000000000000
00000000000000000000000000000000
11111111101110100000000000000000
11111111111111100000000000000000
00110001001001000000000000000000
00000000000000000000000000000000
00000000000000010000000000000000
11111111101010110000000000000000
00000000000000010000000000000000
00000000000111010000000000000000
11111111111111000000000000000000
00000000000111110000000000000000
11111111111111110000000000000000
11111110111000010000000000000000
00000000000000000000000000000000
00000000000000100000000000000000
00000000000000010000000000000000
11111111111100000000000000000000
00000000000000110000000000000000
11111111001111100000000000000000
11111111101001000000000000000000
00000000000000110000000000000000
00000000000000110000000000000000
00000000000100000000000000000000
00000000000010110000000000000000
00000000000000000000000000000000
00000000000000000000000000000000
00101110111010010000000000000000
11111111110101010000000000000000
00000000000101110000000000000000
00000000000000010000000000000000
11111110011001110000000000000000
00000001001011000000000000000000
00000000000000010000000000000000
00000000000000010000000000000000
00001010001100100000000000000000
00000000001000010000000000000000
00000000000000010000000000000000
00000000000100110000000000000000
11111111111101000000000000000000
11111101000000110000000000000000
00000000001100110000000000000000
11111111110100010000000000000000
00000000111011000000000000000000
00000000000100110000000000000000
00000000000001000000000000000000
00000000000001010000000000000000
11111111011001110000000000000000
11111111000010110000000000000000
00000000001101100000000000000000
00000000000000000000000000000000
11111101110010010000000000000000
01010001011001110000000000000000
00000000000000100000000000000000
00000000000000010000000000000000
00000000000000000000000000000000
00000000100001110000000000000000
11111101001111110000000000000000
00000000000000000000000000000000
00000000000000000000000000000000
00000000000000010000000000000000
11111111111111100000000000000000
00000000001100100000000000000000
00000000000000010000000000000000
11101100111111010000000000000000
00010111011000000000000000000000
00000000000000000000000000000000
00000000000000010000000000000000
00000000000000010000000000000000
11111111111100000000000000000000
00000000000000010000000000000000
00000000001001110000000000000000
11110100010011100000000000000000
00000000000000000000000000000000
11110100000011000000000000000000
00000000000000010000000000000000
00000000000000100000000000000000
11111111111110110000000000000000
11111111111111000000000000000000
00000000000000010000000000000000
00000000000000000000000000000000
00000000000001000000000000000000
00000000000101000000000000000000
11111111111111110000000000000000
00000000010100110000000000000000
11111111111001110000000000000000
00000000000001100000000000000000
00000000000000010000000000000000
11111111100100000000000000000000
00000000000100010000000000000000
00000000000000000000000000000000
00000000000000010000000000000000
00000100010000000000000000000000
00000000011011110000000000000000
00000000010000000000000000000000
11111111110111110000000000000000
00000000000110000000000000000000
00000000000000000000000000000000
00000000000000000000000000000000
00000000000000100000000000000000
00000000000000110000000000000000
00000000000000000000000000000000
00000100001101000000000000000000
00000000000000000000000000000000
00000000000010010000000000000000
00000000000000000000000000000000
00000000000001100000000000000000
00000000000000000000000000000000
11111111010001010000000000000000
00000000000000000000000000000000
00000000000000010000000000000000
00100010110111110000000000000000
11111101101100110000000000000000
00000000000001100000000000000000
00000000001010000000000000000000
00000000000000000000000000000000
11111111111101110000000000000000
00000000110101110000000000000000
00000000001100010000000000000000
11111110100011010000000000000000
00000000000010010000000000000000
00000000000001100000000000000000
00000000000001110000000000000000
00000000000000100000000000000000
00000000000000010000000000000000
11111111111110100000000000000000
11111111000110100000000000000000
00000000000101010000000000000000
00000000000000000000000000000000
00000000000000000000000000000000
