11111111111111111011111011000001
11111111111111111100101110000000
11111111111111111111111100010110
00000000000000000000000000111010
11111111111111111101000111100010
00000000000000000011000110000011
11111111111111111111111001100000
00000000000000000000000010000001
00000000000000000010111110000101
00000000000000000100101110110101
00000000000000000001001001000000
00000000000000000010101101100010
00000000000000000001010010101101
00000000000000000000111101111011
11111111111111111110111001100001
11111111111111111111000011101001
11111111111111111111010011010101
00000000000000000000101001010111
11111111111111111101101010111000
00000000000000000010001110000100
11111111111111111100011101101100
00000000000000000010011110001100
00000000000000000000011101010110
00000000000000000010101111101111
00000000000000000000010100100001
11111111111111111111101001000110
00000000000000000011101001100101
11111111111111111111011011010111
11111111111111111110000101100010
00000000000000000000110000110010
11111111111111111111110101111110
00000000000000000001000011000111
00000000000000000000011100010010
00000000000000000000000101010001
00000000000000000011001111110101
00000000000000000101001011000100
00000000000000000000011101010100
11111111111111111110010111011101
11111111111111111111010011011011
11111111111111111101111000111001
11111111111111111110111101100110
11111111111111111101101110100111
11111111111111111110110101001100
00000000000000000000101111010100
00000000000000000010100100011001
00000000000000001000000100011010
00000000000000000010000110101000
00000000000000000010111111000000
00000000000000000001001110101001
00000000000000000001111111011101
00000000000000000101000011111110
00000000000000000011100000010110
11111111111111111101011010010011
11111111111111111111000101011011
11111111111111111101111011000001
00000000000000000001101000010110
00000000000000000100100000100010
00000000000000000011100010010111
11111111111111111100111100011110
00000000000000000010010101000110
11111111111111111111000011111110
11111111111111111110011011111111
00000000000000000000110001110101
11111111111111111111011111110000
00000000000000000000011110111110
00000000000000000101011100111111
11111111111111111110001100011110
00000000000000000000100111010111
11111111111111111110010111010001
11111111111111111111011011000100
00000000000000000101011000011001
00000000000000000000011110101011
11111111111111111111011001100011
11111111111111111111000100000110
11111111111111111001101100101110
11111111111111111110001111110010
11111111111111111111001110010011
11111111111111111100111110010100
00000000000000000000000011101101
00000000000000000011001100100001
00000000000000000000110101011100
11111111111111111101110001100100
11111111111111111101110010011000
00000000000000000010011111100001
11111111111111111111000010100101
11111111111111111111001011110011
00000000000000000000111010010010
00000000000000000000001101111000
00000000000000000011100111100100
00000000000000000100000001001011
11111111111111111111011000010000
00000000000000000001111111100010
11111111111111111101000001110101
11111111111111111110100111101000
11111111111111111101000101101010
00000000000000000100100101100111
11111111111111111110111110000100
11111111111111111111101101100010
11111111111111111111100111111101
00000000000000000000001100011010
00000000000000000001011001010110
11111111111111111101010110011001
00000000000000000010000011110111
11111111111111111111111111110011
00000000000000000010101101001001
00000000000000000001101001010101
00000000000000000001000000011011
11111111111111111110100111010010
00000000000000000001011001001001
00000000000000000001001111110110
11111111111111111100000111000110
00000000000000000010010001110001
11111111111111111111100000001000
11111111111111111100000011101001
00000000000000000000011001100011
00000000000000000000000101101011
00000000000000000001001001101111
11111111111111111101010010000010
11111111111111111101000000111100
11111111111111111101111101001001
00000000000000000001011000010100
00000000000000000001101100011100
11111111111111111110010100101010
00000000000000000000100001110010
11111111111111111110101001100011
11111111111111111110111011100111
11111111111111111110111111011100
00000000000000000000001101000010
11111111111111111101011101010110
11111111111111111101011000000010
00000000000000000100100100100010
11111111111111111111011111111000
11111111111111111110101000010010
11111111111111111110011010010000
11111111111111111110110101000001
00000000000000000011100010000101
11111111111111111111010100001001
00000000000000000011001011111101
00000000000000000010001111110100
00000000000000000100000101001111
11111111111111111101000010110111
00000000000000000000011011101110
00000000000000000001111011011111
00000000000000000101000001010000
11111111111111111110000000001100
11111111111111111111100010110100
00000000000000000000110011001001
00000000000000000000001111100101
11111111111111111101111011011010
00000000000000000000000101011100
11111111111111111101011001011011
00000000000000000000101010011111
00000000000000000010011100001011
11111111111111111111110011000111
00000000000000000000100110101100
11111111111111111110010101101100
00000000000000000010101011100111
00000000000000000010011000100011
00000000000000000000111111000011
00000000000000000010001000000001
00000000000000000010111110111110
00000000000000000010001000110110
11111111111111111011101110010010
00000000000000000010011110111100
11111111111111111110110101101110
11111111111111111111001011010000
00000000000000000100101101100010
00000000000000000001010001011101
11111111111111111110111011100011
00000000000000000011001011000010
00000000000000000010010111101001
11111111111111111101101010000100
00000000000000000001011101111001
11111111111111111110010011110011
00000000000000000011000101101011
00000000000000000001001111100000
00000000000000000000100110111001
00000000000000000100110001111001
00000000000000000100001110001110
00000000000000000000101110101000
00000000000000000000110010111010
11111111111111111110001111001010
00000000000000000001010101101100
00000000000000000000000001110100
00000000000000000000111101010000
00000000000000000001010110000111
00000000000000000001100010010001
00000000000000000000111010111011
11111111111111111110111001111000
11111111111111111101111111101011
11111111111111111100101110000111
00000000000000000000001111101111
11111111111111111100010001011010
11111111111111111011111011000000
11111111111111111111001100010110
11111111111111111110001110011100
00000000000000000010110111100100
00000000000000000000001011001001
11111111111111111011100111000101
11111111111111111111101110111010
00000000000000000000011100010111
11111111111111111010111010100000
11111111111111111100111001101010
11111111111111111111111111100110
00000000000000000001100101110100
11111111111111111111111011010110
11111111111111111111101101010101
00000000000000000010011111000011
00000000000000000000111100111001
00000000000000000001010011101010
00000000000000000001010000110011
00000000000000000000001011001111
00000000000000000000000011000000
11111111111111111001111110101100
00000000000000000000100011001101
00000000000000000001100010011000
11111111111111111110101000100000
00000000000000000010010101001111
00000000000000000001110100100001
11111111111111111111101011100111
11111111111111111101110111001011
11111111111111111110110101110000
