0000000001100010
1111111111011011
1111110001100101
1111111111111011
1111111010001011
0000011011000011
1111111111100010
1111111101111111
0000100111111101
0000000000110101
1111111111111111
0000000000111110
1111111111111001
1110111001000100
0000000110110010
1111111100110001
0000000000011010
0000000000000000
0000010101111111
0000000000000011
1111111111111011
0000001010100100
1111111111110000
0000000000000000
1111111111111101
1111111111111111
1111111111111101
0000000001110001
0001010101000001
1111110111011100
1111111010111010
0000011101011011
1110101011010000
0000000000110010
0000000011011110
0000000000011101
1111111111011101
0000000010011111
1110111110101011
1111111111101110
1101011101011111
1111110110101100
1111111111111111
0000000000000001
0000000000000000
1111111111111111
1111111111111000
1110010110011110
1111111010101010
0000000000000000
1111111111110110
0000000000000000
0000100100110101
1111111111111111
0000000000000000
0001001110100111
1111111111110010
0000000000000000
1111111111111111
1111111111111111
1111111111111111
0000000111001010
1111111001111100
1111111111111110
1111111111111101
0000000001110101
0000000110000100
1111111110111001
1111110111011100
1110101001000011
0000010010111100
1111111111111111
0000000000000000
0000000001001101
0000000000001011
0000000101011111
0000000000000000
1111111111100100
0000000000000000
0000000000000000
0000011111100100
0000000100110011
0000000000001110
1111111111111111
0000000101000101
1111111111111111
1111111111111111
0000000000000000
0000000000000010
1111111111111111
0000000000000000
1111111111111111
1111111111111110
1111111111111111
1111111011110110
1111111111000111
1111000111100011
1111111111111111
1111111111111111
1111110110011001
0000000000000000
1111111111101001
1111111101100111
1111111110101110
1111111111111110
0001101100101101
1111111111111111
1111111111110000
1111111111111111
0000000000000000
1111111111111111
1111111001101100
0000000000001101
1111111111111111
1111111111111111
0000001111111111
1101110100010111
0000000000000000
1111111111100001
1111100101111001
0000000000110110
1111111111101100
0000000000001000
0000000011001110
0001110000001001
1111111101111000
1111111111110100
1011011111001101
1111111111110011
1111111111111010
0000000110010001
0000000000001001
0000000000000011
1111111100010000
1111111111100111
1111111011111111
0000011000010001
1110010101101000
0000000111100000
1111100010001110
1110000001011111
0000000001100000
1100011011110111
1111110001110101
1011000011011110
1111111111111100
0000000000000000
0000000000000000
1111111110010100
1111111110101000
1111111111111011
1111111111111111
0000000001001101
1111111111111001
0000000000000101
0000000000000100
1101110000011110
1111110111111111
0000000000000000
1111111111111111
1111111111111110
0000000000001001
1111111111111001
0000000000000000
0000100100001001
1111111111111110
0000100001000111
0000000001011110
0000001001100100
0000000000000001
1111111111001111
1111111111111111
0000000000000000
0000000111110011
1111111111011101
0000000000001110
1111101001001001
1111010001001010
0000000000000000
0000000000111001
0000000001101101
0000000000000101
0000000000000000
1111111111111110
0000000111110011
0000010001100001
1111111111110011
1111010011110010
0000000000101101
1111111111111010
0000000000000000
1111111111111111
1011111100001011
1111111111111010
1111110011100101
1111111111111111
0001011001110011
1111111111111111
1111111100101111
0000001001111011
0000000011011011
0000000000001001
0000000000000000
1110000010001101
1100110000101010
0000000010111010
0000001011101100
1111111111111111
1111111111001001
0000011001000000
0000000111000100
0000010110111000
1111111111101101
1111110010111100
0001000101011000
1111111111111111
0000000000000000
1111111111110100
0000000000111010
0000000010101011
1111111111111011
0000000000000000
