 
****************************************
Report : timing
        -path full
        -delay max
        -nets
        -max_paths 1
        -transition_time
Design : pipeline_wrapper
Version: L-2016.03-SP2
Date   : Mon Dec 30 10:46:33 2019
****************************************

 * Some/all delay information is back-annotated.

 # A fanout number of 1000 was used for high fanout net computations.

Operating Conditions: tt_typical_max_0p80v_25c   Library: sc7p5mcpp96p_cln16fcll001_base_svt_c16_tt_typical_max_0p80v_25c
Wire Load Model Mode: Inactive.

  Startpoint: gen_pipelines_x_4__gen_pipelines_y_6__gen_pipelines_z_4__pipeline_0/slct/z_distance_reg_24_
              (rising edge-triggered flip-flop clocked by core_clock)
  Endpoint: gen_pipelines_x_4__gen_pipelines_y_6__gen_pipelines_z_4__pipeline_0/slct/select_data_out_reg_13_
            (rising edge-triggered flip-flop clocked by core_clock)
  Path Group: core_clock
  Path Type: max

Attributes:
    d - dont_touch
    u - dont_use
   mo - map_only
   so - size_only
    i - ideal_net or ideal_network
  inf - infeasible path

  Point                                       Fanout     Trans      Incr       Path      Attributes
  ---------------------------------------------------------------------------------------------------------
  clock core_clock (rise edge)                                      0.00       0.00
  clock network delay (ideal)                                       0.00       0.00
  gen_pipelines_x_4__gen_pipelines_y_6__gen_pipelines_z_4__pipeline_0/slct/z_distance_reg_24_/CK (DFFQA_X2N_A7P5PP96PTS_C16)     0.00     0.00 #     0.00 r
  gen_pipelines_x_4__gen_pipelines_y_6__gen_pipelines_z_4__pipeline_0/slct/z_distance_reg_24_/Q (DFFQA_X2N_A7P5PP96PTS_C16)    44.65    51.05    51.05 f
  gen_pipelines_x_4__gen_pipelines_y_6__gen_pipelines_z_4__pipeline_0/slct/z_distance[24] (net)     2     0.00    51.05 f
  gen_pipelines_x_4__gen_pipelines_y_6__gen_pipelines_z_4__pipeline_0/slct/U525/Y (BUF_X6N_A7P5PP96PTS_C16)    19.26    59.43 *   110.48 f
  gen_pipelines_x_4__gen_pipelines_y_6__gen_pipelines_z_4__pipeline_0/slct/n1238 (net)     1     0.00   110.48 f
  gen_pipelines_x_4__gen_pipelines_y_6__gen_pipelines_z_4__pipeline_0/slct/U599/Y (BUFH_X6N_A7P5PP96PTS_C16)    18.50    55.93 *   166.42 f
  gen_pipelines_x_4__gen_pipelines_y_6__gen_pipelines_z_4__pipeline_0/slct/n1243 (net)     1     0.00   166.42 f
  gen_pipelines_x_4__gen_pipelines_y_6__gen_pipelines_z_4__pipeline_0/slct/U667/Y (BUFH_X6N_A7P5PP96PTS_C16)    19.47    58.24 *   224.66 f
  gen_pipelines_x_4__gen_pipelines_y_6__gen_pipelines_z_4__pipeline_0/slct/n1233 (net)     2     0.00   224.66 f
  gen_pipelines_x_4__gen_pipelines_y_6__gen_pipelines_z_4__pipeline_0/slct/U497/Y (INV_X4N_A7P5PP96PTS_C16)    13.92    41.02 *   265.68 r
  gen_pipelines_x_4__gen_pipelines_y_6__gen_pipelines_z_4__pipeline_0/slct/n1227 (net)     1     0.00   265.68 r
  gen_pipelines_x_4__gen_pipelines_y_6__gen_pipelines_z_4__pipeline_0/slct/U838/Y (AOI21_X6N_A7P5PP96PTS_C16)    25.66    21.86 *   287.54 f
  gen_pipelines_x_4__gen_pipelines_y_6__gen_pipelines_z_4__pipeline_0/slct/n1217 (net)     2     0.00   287.54 f
  gen_pipelines_x_4__gen_pipelines_y_6__gen_pipelines_z_4__pipeline_0/slct/U639/Y (NOR2_X6F_A7P5PP96PTS_C16)    33.51    41.77 *   329.31 r
  gen_pipelines_x_4__gen_pipelines_y_6__gen_pipelines_z_4__pipeline_0/slct/n622 (net)     1     0.00   329.31 r
  gen_pipelines_x_4__gen_pipelines_y_6__gen_pipelines_z_4__pipeline_0/slct/U820/Y (BUFH_X6N_A7P5PP96PTS_C16)    18.39    49.81 *   379.12 r
  gen_pipelines_x_4__gen_pipelines_y_6__gen_pipelines_z_4__pipeline_0/slct/n1062 (net)     1     0.00   379.12 r
  gen_pipelines_x_4__gen_pipelines_y_6__gen_pipelines_z_4__pipeline_0/slct/U637/Y (BUFH_X6N_A7P5PP96PTS_C16)    18.75    53.99 *   433.11 r
  gen_pipelines_x_4__gen_pipelines_y_6__gen_pipelines_z_4__pipeline_0/slct/n1242 (net)     1     0.00   433.11 r
  gen_pipelines_x_4__gen_pipelines_y_6__gen_pipelines_z_4__pipeline_0/slct/U821/Y (BUFH_X6N_A7P5PP96PTS_C16)    19.05    55.65 *   488.76 r
  gen_pipelines_x_4__gen_pipelines_y_6__gen_pipelines_z_4__pipeline_0/slct/n1063 (net)     1     0.00   488.76 r
  gen_pipelines_x_4__gen_pipelines_y_6__gen_pipelines_z_4__pipeline_0/slct/U822/Y (BUFH_X6N_A7P5PP96PTS_C16)    20.27    57.53 *   546.29 r
  gen_pipelines_x_4__gen_pipelines_y_6__gen_pipelines_z_4__pipeline_0/slct/n1064 (net)     1     0.00   546.29 r
  gen_pipelines_x_4__gen_pipelines_y_6__gen_pipelines_z_4__pipeline_0/slct/U823/Y (BUFH_X6N_A7P5PP96PTS_C16)    19.81    62.93 *   609.23 r
  gen_pipelines_x_4__gen_pipelines_y_6__gen_pipelines_z_4__pipeline_0/slct/n1065 (net)     1     0.00   609.23 r
  gen_pipelines_x_4__gen_pipelines_y_6__gen_pipelines_z_4__pipeline_0/slct/U635/Y (BUFH_X5N_A7P5PP96PTS_C16)    23.17    64.84 *   674.07 r
  gen_pipelines_x_4__gen_pipelines_y_6__gen_pipelines_z_4__pipeline_0/slct/n1245 (net)     1     0.00   674.07 r
  gen_pipelines_x_4__gen_pipelines_y_6__gen_pipelines_z_4__pipeline_0/slct/U824/Y (BUFH_X6N_A7P5PP96PTS_C16)    20.26    61.24 *   735.30 r
  gen_pipelines_x_4__gen_pipelines_y_6__gen_pipelines_z_4__pipeline_0/slct/n1066 (net)     2     0.00   735.30 r
  gen_pipelines_x_4__gen_pipelines_y_6__gen_pipelines_z_4__pipeline_0/slct/U825/Y (BUFH_X5N_A7P5PP96PTS_C16)    22.06    63.87 *   799.17 r
  gen_pipelines_x_4__gen_pipelines_y_6__gen_pipelines_z_4__pipeline_0/slct/n1067 (net)     1     0.00   799.17 r
  gen_pipelines_x_4__gen_pipelines_y_6__gen_pipelines_z_4__pipeline_0/slct/U826/Y (BUFH_X5N_A7P5PP96PTS_C16)    20.87    61.77 *   860.95 r
  gen_pipelines_x_4__gen_pipelines_y_6__gen_pipelines_z_4__pipeline_0/slct/n1068 (net)     1     0.00   860.95 r
  gen_pipelines_x_4__gen_pipelines_y_6__gen_pipelines_z_4__pipeline_0/slct/U827/Y (BUFH_X5N_A7P5PP96PTS_C16)    21.13    58.62 *   919.56 r
  gen_pipelines_x_4__gen_pipelines_y_6__gen_pipelines_z_4__pipeline_0/slct/n1069 (net)     1     0.00   919.56 r
  gen_pipelines_x_4__gen_pipelines_y_6__gen_pipelines_z_4__pipeline_0/slct/U634/Y (BUFH_X5N_A7P5PP96PTS_C16)    20.39    59.41 *   978.97 r
  gen_pipelines_x_4__gen_pipelines_y_6__gen_pipelines_z_4__pipeline_0/slct/n1241 (net)     1     0.00   978.97 r
  gen_pipelines_x_4__gen_pipelines_y_6__gen_pipelines_z_4__pipeline_0/slct/U828/Y (BUFH_X5N_A7P5PP96PTS_C16)    21.03    57.00 *  1035.97 r
  gen_pipelines_x_4__gen_pipelines_y_6__gen_pipelines_z_4__pipeline_0/slct/n1070 (net)     1     0.00  1035.97 r
  gen_pipelines_x_4__gen_pipelines_y_6__gen_pipelines_z_4__pipeline_0/slct/U829/Y (BUFH_X5N_A7P5PP96PTS_C16)    17.59    57.44 *  1093.41 r
  gen_pipelines_x_4__gen_pipelines_y_6__gen_pipelines_z_4__pipeline_0/slct/n1071 (net)     1     0.00  1093.41 r
  gen_pipelines_x_4__gen_pipelines_y_6__gen_pipelines_z_4__pipeline_0/slct/U830/Y (BUF_X8N_A7P5PP96PTS_C16)    15.77    46.98 *  1140.39 r
  gen_pipelines_x_4__gen_pipelines_y_6__gen_pipelines_z_4__pipeline_0/slct/n1072 (net)     2     0.00  1140.39 r
  gen_pipelines_x_4__gen_pipelines_y_6__gen_pipelines_z_4__pipeline_0/slct/U633/Y (BUFH_X6N_A7P5PP96PTS_C16)    17.92    57.82 *  1198.22 r
  gen_pipelines_x_4__gen_pipelines_y_6__gen_pipelines_z_4__pipeline_0/slct/n1230 (net)     3     0.00  1198.22 r
  gen_pipelines_x_4__gen_pipelines_y_6__gen_pipelines_z_4__pipeline_0/slct/U631/Y (INV_X5R_A7P5PP96PTS_C16)    15.72    34.45 *  1232.67 f
  gen_pipelines_x_4__gen_pipelines_y_6__gen_pipelines_z_4__pipeline_0/slct/n1209 (net)     2     0.00  1232.67 f
  gen_pipelines_x_4__gen_pipelines_y_6__gen_pipelines_z_4__pipeline_0/slct/U600/Y (INV_X6R_A7P5PP96PTS_C16)    11.87    12.68 *  1245.35 r
  gen_pipelines_x_4__gen_pipelines_y_6__gen_pipelines_z_4__pipeline_0/slct/n1078 (net)     7     0.00  1245.35 r
  gen_pipelines_x_4__gen_pipelines_y_6__gen_pipelines_z_4__pipeline_0/slct/U709/Y (AND2_X1N_A7P5PP96PTS_C16)     7.79    20.70 *  1266.06 r
  gen_pipelines_x_4__gen_pipelines_y_6__gen_pipelines_z_4__pipeline_0/slct/n1153 (net)     1     0.00  1266.06 r
  gen_pipelines_x_4__gen_pipelines_y_6__gen_pipelines_z_4__pipeline_0/slct/U50/Y (NOR2B_X2N_A7P5PP96PTS_C16)    21.27    17.21 *  1283.26 r
  gen_pipelines_x_4__gen_pipelines_y_6__gen_pipelines_z_4__pipeline_0/slct/n981 (net)     1     0.00  1283.26 r
  gen_pipelines_x_4__gen_pipelines_y_6__gen_pipelines_z_4__pipeline_0/slct/select_data_out_reg_13_/D (DFFQ_X3N_A7P5PP96PTS_C16)    21.27     0.01 *  1283.27 r
  data arrival time                                                         1283.27

  clock core_clock (rise edge)                                   1000.00    1000.00
  clock network delay (ideal)                                       0.00    1000.00
  gen_pipelines_x_4__gen_pipelines_y_6__gen_pipelines_z_4__pipeline_0/slct/select_data_out_reg_13_/CK (DFFQ_X3N_A7P5PP96PTS_C16)     0.00  1000.00 r
  library setup time                                              -18.89     981.11
  data required time                                                         981.11
  ---------------------------------------------------------------------------------------------------------
  data required time                                                         981.11
  data arrival time                                                        -1283.27
  ---------------------------------------------------------------------------------------------------------
  slack (VIOLATED)                                                          -302.16


1
