Information: Propagating switching activity (low effort zero delay simulation). (PWR-6)
Warning: Invalid switching activity annotation on constant net(s) is being ignored. (PWR-421)
Warning: The derived toggle rate value (0.002000) for the clock net 'clock' conflicts with the annotated value (0.000200). Using the annotated value. (PWR-12)
Warning: Design has unannotated sequential cell outputs. (PWR-415)
Warning: Design has unannotated black box outputs. (PWR-428)
 
****************************************
Report : power
        -analysis_effort low
Design : pipeline_wrapper
Version: L-2016.03-SP2
Date   : Tue Dec 31 18:52:56 2019
****************************************


Library(s) Used:

    sc7p5mcpp96p_cln16fcll001_base_svt_c16_tt_typical_max_0p80v_25c (File: /afs/eecs.umich.edu/kits/ARM/TSMC_16FFC/arm_2018.02/TS74LB019-FB-00000-r2p0-03eac0/arm/tsmc/cln16fcll001/sc7p5mcpp96p_base_svt_c16/r2p0/db/sc7p5mcpp96p_cln16fcll001_base_svt_c16_tt_typical_max_0p80v_25c.db)
    sram_2p_uhde_tt_0p80v_0p80v_25c (File: /n/trenton/v/westbl/memory/sram_2p_uhde_64b_tt_0p80v_0p80v_25c.db)
    sram_dp_uhde_tt_0p80v_0p80v_25c (File: /n/trenton/v/westbl/memory/sram_dp_uhde_32b_tt_0p80v_0p80v_25c.db)


Operating Conditions: tt_typical_max_0p80v_25c   Library: sc7p5mcpp96p_cln16fcll001_base_svt_c16_tt_typical_max_0p80v_25c
Wire Load Model Mode: Inactive.


Global Operating Voltage = 0.8  
Power-specific unit information :
    Voltage Units = 1V
    Capacitance Units = 1.000000ff
    Time Units = 1ps
    Dynamic Power Units = 1mW    (derived from V,C,T units)
    Leakage Power Units = 1pW

Warning: Cannot report correlated power unless power prediction mode is set. (PWR-727)
Power Breakdown
---------------

                             Cell        Driven Net  Tot Dynamic      Cell
                             Internal    Switching   Power (mW)       Leakage
Cell                         Power (mW)  Power (mW)  (% Cell/Tot)     Power (pW)
--------------------------------------------------------------------------------
Netlist Power                 190.1096     21.7392   2.118e+02 (90%)  5.012e+09
Estimated Clock Tree Power   N/A         N/A          (N/A)           N/A
--------------------------------------------------------------------------------

                 Internal         Switching           Leakage            Total
Power Group      Power            Power               Power              Power   (   %    )  Attrs
--------------------------------------------------------------------------------------------------
io_pad             0.0000            0.0000            0.0000            0.0000  (   0.00%)
memory           159.4886            0.9655        4.9828e+09          165.4368  (  76.29%)
black_box          0.0000            0.0000            0.0000            0.0000  (   0.00%)
clock_network      0.0000            0.0000            0.0000            0.0000  (   0.00%)
register          16.9078            4.1034        9.9574e+06           21.0210  (   9.69%)
sequential         0.0000            0.0000            0.0000            0.0000  (   0.00%)
combinational     13.7144           16.6701        1.9457e+07           30.4026  (  14.02%)
--------------------------------------------------------------------------------------------------
Total            190.1108 mW        21.7391 mW     5.0122e+09 pW       216.8604 mW
1
