****************************************
report_physical_constraints
Version: L-2016.03-SP2
Date: Tue Dec 31 14:31:49 2019
****************************************

 Design pipeline
 Unit is micron

1
