 
****************************************
Report : clock timing
        -type summary
Design : pipeline
Version: L-2016.03-SP2
Date   : Thu Jan  2 11:10:35 2020
****************************************

  Clock: core_clock
----------------------------------------------------------------------------
  Maximum setup launch latency:
      ntrp_tbl/interp_array_xy/CLK                           106.47    wr-+

  Minimum setup capture latency:
      slct/select_y_table_idx_out_reg_7_/CK                  0.00      wr-+

  Minimum hold launch latency:
      slct/select_y_table_idx_out_reg_7_/CK                  0.00      br-+

  Maximum hold capture latency:
      ntrp_tbl/interp_array_xy/CLK                           106.47    br-+

  Maximum active transition:
      slct/select_y_table_idx_out_reg_7_/CK                  0.00      wr-+

  Minimum active transition:
      slct/select_y_table_idx_out_reg_7_/CK                  0.00      wr-+

  Maximum setup skew:
      ntrp_tbl/interp_array_xy/CLK                                     wr-+
      ntrp_tbl/k1_reg_0_/CK                                  106.47    wr-+

  Maximum hold skew:
      slct/select_en_out_reg/CK                                        br-+
      ntrp_tbl/interp_array_xy/CLK                           106.47    br-+
----------------------------------------------------------------------------

1
