Information: Propagating switching activity (low effort zero delay simulation). (PWR-6)
Warning: Invalid switching activity annotation on constant net(s) is being ignored. (PWR-421)
Warning: The derived toggle rate value (0.002000) for the clock net 'clock' conflicts with the annotated value (0.000200). Using the annotated value. (PWR-12)
Warning: Design has unannotated sequential cell outputs. (PWR-415)
Warning: Design has unannotated black box outputs. (PWR-428)
 
****************************************
Report : power
        -analysis_effort low
Design : pipeline
Version: L-2016.03-SP2
Date   : Tue Dec 31 18:07:47 2019
****************************************


Library(s) Used:

    sc7p5mcpp96p_cln16fcll001_base_svt_c16_tt_typical_max_0p80v_25c (File: /afs/eecs.umich.edu/kits/ARM/TSMC_16FFC/arm_2018.02/TS74LB019-FB-00000-r2p0-03eac0/arm/tsmc/cln16fcll001/sc7p5mcpp96p_base_svt_c16/r2p0/db/sc7p5mcpp96p_cln16fcll001_base_svt_c16_tt_typical_max_0p80v_25c.db)
    sram_2p_uhde_tt_0p80v_0p80v_25c (File: /n/trenton/v/westbl/memory/sram_2p_uhde_64b_tt_0p80v_0p80v_25c.db)
    sram_dp_uhde_tt_0p80v_0p80v_25c (File: /n/trenton/v/westbl/memory/sram_dp_uhde_32b_tt_0p80v_0p80v_25c.db)


Operating Conditions: tt_typical_max_0p80v_25c   Library: sc7p5mcpp96p_cln16fcll001_base_svt_c16_tt_typical_max_0p80v_25c
Wire Load Model Mode: Inactive.


Global Operating Voltage = 0.8  
Power-specific unit information :
    Voltage Units = 1V
    Capacitance Units = 1.000000ff
    Time Units = 1ps
    Dynamic Power Units = 1mW    (derived from V,C,T units)
    Leakage Power Units = 1pW

Warning: Cannot report correlated power unless power prediction mode is set. (PWR-727)
Power Breakdown
---------------

                             Cell        Driven Net  Tot Dynamic      Cell
                             Internal    Switching   Power (mW)       Leakage
Cell                         Power (mW)  Power (mW)  (% Cell/Tot)     Power (pW)
--------------------------------------------------------------------------------
Netlist Power                   2.9785      0.3010   3.279e+00 (91%)  7.833e+07
Estimated Clock Tree Power   N/A         N/A          (N/A)           N/A
--------------------------------------------------------------------------------

                 Internal         Switching           Leakage            Total
Power Group      Power            Power               Power              Power   (   %    )  Attrs
--------------------------------------------------------------------------------------------------
io_pad             0.0000            0.0000            0.0000            0.0000  (   0.00%)
memory             2.5039        1.6409e-02        7.7875e+07            2.5982  (  77.38%)
black_box          0.0000            0.0000            0.0000            0.0000  (   0.00%)
clock_network      0.0000            0.0000            0.0000            0.0000  (   0.00%)
register           0.2641        5.9643e-02        1.5613e+05            0.3239  (   9.65%)
sequential         0.0000            0.0000            0.0000            0.0000  (   0.00%)
combinational      0.2105            0.2249        2.9809e+05            0.4357  (  12.98%)
--------------------------------------------------------------------------------------------------
Total              2.9785 mW         0.3010 mW     7.8329e+07 pW         3.3578 mW
1
