 
****************************************
Report : qor
Design : pipeline
Version: L-2016.03-SP2
Date   : Tue Dec 31 18:07:42 2019
****************************************


  Timing Path Group 'core_clock'
  -----------------------------------
  Levels of Logic:              27.00
  Critical Path Length:        980.26
  Critical Path Slack:           0.03
  Critical Path Clk Period:   1000.00
  Total Negative Slack:          0.00
  No. of Violating Paths:        0.00
  Worst Hold Violation:        -71.71
  Total Hold Violation:      -9727.75
  No. of Hold Violations:      312.00
  -----------------------------------


  Cell Count
  -----------------------------------
  Hierarchical Cell Count:         27
  Hierarchical Port Count:       2666
  Leaf Cell Count:              10270
  Buf/Inv Cell Count:             516
  Buf Cell Count:                  29
  Inv Cell Count:                 487
  CT Buf/Inv Cell Count:            0
  Combinational Cell Count:      8845
  Sequential Cell Count:         1425
  Macro Count:                      0
  -----------------------------------


  Area
  -----------------------------------
  Combinational Area:     2998.609909
  Noncombinational Area:  1114.767366
  Buf/Inv Area:             95.339521
  Total Buffer Area:             5.58
  Total Inverter Area:          89.76
  Macro/Black Box Area: 186543.963623
  Net Area:                  0.000000
  Net XLength        :       31013.96
  Net YLength        :       36211.90
  -----------------------------------
  Cell Area:            190657.340898
  Design Area:          190657.340898
  Net Length        :        67225.85


  Design Rules
  -----------------------------------
  Total Number of Nets:         11739
  Nets With Violations:             0
  Max Trans Violations:             0
  Max Cap Violations:               0
  -----------------------------------


  Hostname: vlsipool-j09.eecs.umich.edu

  Compile CPU Statistics
  -----------------------------------------
  Resource Sharing:                    0.00
  Logic Optimization:                  0.00
  Mapping Optimization:              276.78
  -----------------------------------------
  Overall Compile Time:              299.67
  Overall Compile Wall Clock Time:    36.93

  --------------------------------------------------------------------

  Design  WNS: 0.00  TNS: 0.00  Number of Violating Paths: 0


  Design (Hold)  WNS: 71.71  TNS: 9727.75  Number of Violating Paths: 312

  --------------------------------------------------------------------


1
