1011010100010111
0000000000000000
0000011000100100
1111111101111111
0001000001111001
1101110111010001
1111111111111111
1111111111111100
0000000000000000
1111111111111111
1111111111111111
1110010111001110
1111111111111111
1111111111111011
1111110111111001
0000000000000000
0000000000000000
0000000000000010
1100010111001011
0000000000000000
0001100001011110
0000010001001011
0000100011001000
0000000000110101
1111111111111000
1111110110010001
1111111111100110
1111111111000010
0000100011010010
0000010001110101
0000000001001101
1111111111111111
1111111011111111
0000000000010010
1111111011101100
1111111111110110
1111111111111111
0000001000100100
1110111111110001
0000001001010000
1111111110100101
0000010101011111
0000111101001011
0000100001101011
0000000011011100
1111111111111111
0000000000000010
1111111111111111
0000000111111111
0000000000001001
1111111110111000
1111110100010011
0000000000000000
0000000000000000
0000001011011000
0000000000000000
1111111101000111
1111111110110110
1111111111111100
0000000001111010
1100111100011111
0000000000000000
0000000000000000
1111111111111101
0000000000000001
1111111111111101
0000000000000000
0000000000001010
0000000001101001
1111111110101000
1111111111101001
1111111111111111
1100001110100010
0000000000000111
0000001101010111
0000000000001000
0000010010101011
1111111111110001
1111111111100110
0000000001110101
0000011110010000
0000000000001000
0000000000000000
0000000000000000
0001000101011000
1111111111111110
1111111111111101
1111110010111011
0000001100100111
1111111111111111
0000000000000000
0000010110001000
1111111111111111
1111111111111110
0000000001000001
0000000110000000
0000001111101010
1111111111100100
1111111111111111
0000000010101000
0000000000001001
1111111000011111
1111110101111101
1100101010001000
1111111111111111
0000000101110100
0000000010010010
1111111111111111
1111111111111101
1111111111111111
1111111111111110
0000000000000011
1111111111111111
1100001010010101
1111111111110010
1111111111110011
1111111111111010
0000100011100011
0000000000010100
1101111111110000
0000000000000000
1111111111111111
1111111100101010
0000000011100011
0000000000001110
0000000010010101
1111110010101110
1111111111111011
0000000000000110
1111111111110110
1111010111010111
0000000000000000
1111110001111101
0000010101111110
1111111011010111
0000001111010010
0000000010000011
0001010110111100
0000001101111000
0000000000000001
0000000000000000
0000000100001001
0000000000100010
1111111100000111
0000000000000000
1111110001100110
0000000001011110
0000100001101011
1111111110111110
1111111110101100
0000000000000010
0000000000000001
1111111110000111
0000001010011000
0000000011001111
0000000111000101
0000001001001011
1111111110010101
1111111111111011
1111111111010010
0000000000011100
1111111111111111
1101100101111000
0000000000001101
1111111111111101
0000000101001011
1101011001100010
1111111111100000
0000000000000101
1111111111101100
0000000101011011
1111111111111111
1101001001001100
0001011010011110
1111111111010101
0000010011011111
0000011101101100
1111111111110110
1111111111111111
1111111111111111
0000011101111011
0000000000000000
1111111111111111
0000000110110101
1111111111111111
1101110010110000
0000000000001000
1111101111100011
0000000101111001
0001000010011010
1111111111111111
0000010011011100
1111111111010000
1111111111011110
1111111111101111
0000000000001100
1111011001101101
0000100010110010
0000000010101100
0000000000000000
1111111111111111
1111111111100110
0000000000000000
1111111110000100
0000000010010011
0000000000100111
0000010000010010
1100110000101010
0000000000000100
1111111110111101
0000000000000000
1111111111111111
1111111100110010
0000100000001101
1111110111101110
1111011001101110
1111111111111100
0000000001001101
1111111111110100
0000001111001000
0000000001000010
0000000101110010
0000000000001111
1111110101001111
0000000000000000
0000010100111011
1010111110111001
0000000000010101
1111111111111111
0000000000000000
1111111111111111
1111111111111111
0000000000000000
1111111111010111
1111111100110111
1111111111111101
0000000011110011
1111111111111111
1111110111101111
0000010000010101
0000000100001111
0000000000001101
0000000010101001
1111111101100010
0000000100001010
0000000000011010
1111110000010011
0000010011000011
1111111111101111
1111111111100101
1111111111101001
1110111000001011
0000000000011001
1111111111111101
1111111111111011
0000000010111011
0000000110101101
0000000110110101
1111111111111110
0001010101100110
1111111111111000
1111010101111011
1111110110110011
1111010110001110
0000000100001011
0000011101100110
1111111111111111
0000000000000000
1111111111111001
0000000000001100
1111111111111111
1111100111100001
1111111111111111
1111111110110011
0000000000000000
0000011100001100
1111111110101010
1111011100100011
1111111111111111
0000000000000000
1111111111111111
0001011101000101
0000000000000000
1111111000011111
0000000000000001
0000000100100101
0000000101101100
1111111111110111
0000000000000100
1111111111011101
1100010101011101
1111111111111011
1111111110110100
0000000001001011
1111111000011111
0000000011010001
0000000000000100
0000000000000000
0000001110100111
1111111101001110
0000000010100101
0000000110010011
0000000000000011
0000000110101010
0000010111110101
1111110110001001
1111111111111110
1111110101011000
1111111111111111
1111111111001010
1111111111111111
0000000000000000
1111111111110111
0000000000111010
0000000000000000
1111111111111111
0000000101110010
1101010101110101
0000000100000011
1111111101101100
1111111111111110
1111110100011010
1111111111011010
0000000000000001
0000001000111010
0000000000000000
1110111110101011
0000000010101100
1111111111111101
1111111111101001
1111111111111101
0000001110011100
0000000000000000
0000000000000000
0000110110101010
0000000000101001
0000000000001001
0000000000000010
0000000000000000
0000010101110100
1111111111110011
1111111111111111
1111111111111011
0000000000000000
0000000000000000
1111111111111111
1111111111111110
1111011110100011
0000010011010111
1111110100101010
0000000010010100
0000000000000000
1111111111100101
0000000000000000
0000000000000000
0000001101000000
1111111111111110
1111111111111111
0000000000000110
0000000101011101
0000000011001011
1111111111011101
1111111100011110
0000000000000000
1111111110110011
1111111111111010
0000000101111111
0000000010011110
1111111111011101
0000000000000010
1111100010001110
1111111110001011
1111111111111111
0000000000000000
0001100101101110
0000010010001110
0000000101011100
1101100011111110
0000000000000000
1111111111110011
1111111110001010
0000000001001110
1111111111010001
0000000000010111
0000000000010111
0000001001001110
1111111111111011
0000000000100011
0000000000000000
0000000000110011
0000000000000100
1111111111011111
1110000111011100
1111111111111111
0000000000010011
0000010010000111
1111111111111010
1111111111111111
0000000000000111
1100010111100011
1111111101101110
0000000001110011
1111111111110110
1101100101110100
1111111110110000
1111111100010111
1111111110101111
1111111111111111
0000000100110010
0000000000000000
0000000010101110
1111011001111000
1111111111111001
0000010100010010
0001011011101101
1111111111111111
1111000011001110
1111111111000001
0000000000000000
1111111111111111
0000000000000000
1111111111111111
1111111011010010
0000000000000010
1111111011011000
0001000000010100
0000001110011100
0000000000010101
1111111111001001
0000011010111110
0000000001111100
1111111111111111
0000000010011110
1111111111111011
0000000000000000
1111111111111111
1110111111101110
1111111111111100
1111111111010101
0000000000000000
0000000000000001
0000000000000000
0000000010101000
0000000110110001
0000001001001001
0000000000000000
1111111111010000
0000000000101001
1111111111110101
0000000001010001
1111111111111110
0000000000000000
1111111111101110
0000000000000000
1101101011000101
1111111111110001
1111111011100100
1110111001001000
0000000000001000
0000000000000000
1111010100111110
0000000000000000
0000000000000000
0000000000000000
1110110100011110
0000001110111001
0000000000010100
0000000011100010
1111111111111111
0000000000000000
0000000100100001
1111111111100111
0000000000011111
0000011001100011
0000000001111100
1111111111111111
1111111111111011
1111110110110101
1111111111111110
1111111111101111
0000000000011101
0000001110110111
1111111100110010
0001101111000110
1111111111110001
0000000000000010
0000000000000000
0000000000000000
1111111111111101
1111111111111111
1111111111110100
0000000010100000
1111111101000000
0000000000100010
1110000011011001
0000000000011000
1111111111001111
1111111111111101
0000100011111100
0000000000000000
0000010110110111
1111111111111111
0000001000111110
1111111000011111
0000000001010101
0000000000000000
1111111111111111
0000000000000000
1111111111111110
0000100011110110
1111111111111011
1111111111111110
0000000000100001
1111111111101100
1111111111111110
1111111111111111
1100110110001000
0000000111011110
1111111110111111
1111111110100000
1111111111111110
1111111110111011
1111111111111111
0000000000000000
1110110010011101
0000000000000000
1111111111111111
1111111110110011
0000001010111000
0000000011011100
1111110111111001
0000000111101001
1111111111111111
1111111111000000
1111111111111111
1111111110111110
1111110100001011
1111111111111100
1111111110101110
0000000000000001
1110101111001111
1111111000110100
0000000000000000
1111111111111100
0000100011110000
1111011110010101
0000001001011000
1110111111011111
1111111111110111
1111111111101111
0000000001111111
1111111111011111
0000000000000000
0000000000000011
1111111111111101
0000000000111110
1111111111111111
0000000000000010
0000000001101111
0000000000000000
1111111110111100
1111111010011111
0000000000000000
1111111111110100
0000000000000000
0000000000000110
1111111111110110
1111111111100000
1111111111111111
1101110010110000
1111111101111010
0000000001111001
0000001000111100
1111111000110101
0000000000000001
1111111010101000
1111111111001100
0000000000000000
0000000110100111
0000000001101011
1110000001110010
1111111111111001
1111111111111111
0000000101101110
1111101000001111
1111111111111111
0000100000100000
0000000000000000
1111111110000110
1111111111111111
1111111110110111
0000000000000000
0000000010001011
0000000000000000
0000000000010011
0000000110110010
0000001100100011
1111110001101001
1111111111111000
0000000000101010
1111111000010111
0000001001010000
0000000000011100
1111111111111110
1111111111111111
0000000000000000
0000000011101111
0000000000000000
1111110101010101
0000000000000101
1111111111111111
1111111011000101
0000011010111010
0000001111111111
1111111111111111
1111111111101010
0000000001110111
1111111100011000
1111111111111101
1111111111111111
1111111111110100
1111111111111111
0000000110010110
1110100001011110
0000000000001101
0000000000000010
0000000101110010
1010111110111110
0000000000111010
1111111111111111
1111010011101010
0000000000000000
1111111111110111
0000000000000000
0000001111001111
0000000000000000
0000000111000101
0000000110110010
0000000001110010
1111111111111111
1111111111101011
0000101111000100
1111111111111110
0000000000000000
1111111110100010
1111111101110011
0000000000011001
1111111111111111
1111111100100100
1111111111111111
0000000000000000
0000000000000000
0000011101111101
1111111111100100
0000010101000101
1111111111110001
0000000000000000
1111111111111111
1111111111111111
1111111111111111
0000000000000000
1111111111000001
0000001101111100
1111111111111111
0000000000111011
0000000010010101
0000000001110101
1111111111111110
0000010110000000
1111111111100111
0000000000001111
1111111111110101
0000000000001100
0000000000000000
0000000000001010
0000011100001100
1111111100010000
1111111110110101
0000000010000001
0000000000000000
0000000000100110
1111110100101100
1111111111111110
1111111111101100
0000000000000000
0000000000000000
1111111011101111
0000001000111100
0000000000000000
1111111111111111
0000000011010111
1111111010001000
1110100100011011
0000000000110101
0000000000000100
1111111111111110
1111111111110110
0000000000011100
1111111100000111
0000010001001010
0000000001000000
0000110011110100
1111111111111101
1111111011101010
1111111111111110
0000000000000110
1111111111111111
1111110101110101
0000100100100000
1111111111111111
1111111010100101
1111111111111111
0000000000000000
0000100101001001
1111111111111111
0000001101000000
1111111011000110
1111111111111111
0000000000000110
0000000000000010
0000000000011010
0000000000000001
1111111111111111
0000000001001010
0000000011011110
0000000000000000
1111111111111111
0000000000111100
0000001101101011
0000000011001111
0000000000000000
1111111111010011
1111100101011101
0000000000001110
0000100010110011
1111111111101111
1100111100011111
1111111111111111
0000001010001010
0000000000000000
1111111111111111
0000000000001011
1111111111111101
1111110011011110
1111111111111111
0000000110000100
1111111100011001
1111110111111001
0000000000000000
1111111111101000
1111111111111111
0000000000000000
0000000000010011
0000000110110100
0000000000000000
1110011100110100
1111111111111000
1111111111111111
1111111111111111
1111110110111011
0001100110011010
1111111111111111
0000000000010100
1111111111111111
0000001110100001
1111111111001101
0000000001001000
1111111111111111
1111111111111110
0000000000011111
0000000011110001
0000000000000000
0000000001110000
0000000001011101
1111111111111100
1111111111111010
0000000000000000
0000000000100000
0000000000000000
0000010001111110
1111111111111111
1111111111110100
1111111111111111
0000000000000000
0000000000000000
1111111111111101
0000100010000000
0000001010000001
0001010010011101
0000000000000000
0000000000000011
1111111111111111
0000010010100011
1111111111111111
1011111011111011
1111111000011111
1111111111101000
1111111110110011
0000000110010000
1111001111010110
1111111111111111
1111111111001111
0000000000100101
1111110000110110
0000100101110101
1111111111101101
0000000000000000
0000000000010001
1111111000010000
0000000000000000
0000000000110011
1111111111111111
0000000010010111
0000000000000111
0000010010000111
1111111111111001
1111111110001010
1111110100010011
0000000000010011
1111111111111110
1111111101101110
1111111111111111
1111111111100000
0001101010100110
1111111111100101
0000000001011011
0000000001101001
0000000000100100
0000000000000000
0000000100000010
1111111111110001
1111111111110010
0000000110101111
1111111111111111
0000000000000000
1111111111111111
0000000010000100
1111111111111111
1111111111111100
0000000110001111
1111111110101111
1111110111111001
1111111111001101
1111111110110101
0000000000000000
1111111111101000
0000010111100001
0000000000000000
1111111111111101
0000000000000000
1111111111111111
1111111111001110
0000001010111000
1111111111111111
1111111111111111
0000000000000111
1111110111001001
0000000000000000
1111000100100110
0000000101111110
0000000000000000
0000000000000000
1111111111111100
1111110011110111
1111111111111110
1111111010101111
0000000111111110
0000000010001010
0000001011010000
0000000000111001
0000111101011011
0000000000000000
1111111111111111
0000000000100100
1111111111111111
0000000011000010
0001011000000110
1111111111111110
0000010110010000
0000000000000000
1111111111111111
0001011101001010
0000000000000000
1111111111111111
0000101010111101
1111111111110000
0000000000011100
0000000000101101
1111111111111111
1111111111111111
0000000000000001
0000000110010000
1111111111111111
0000000010111000
0000100010100110
1101100000010100
1111111111111111
1111111101101011
1101010100011101
1111110110000011
0000000000000000
0001011110101111
1111111111111000
1111110000110110
1111111111111111
0001010111100110
1111111111111111
0000000011011101
1111111111111111
0000000010011011
0000000000011001
0000000000001101
1111111101110110
0000000010000111
1111111111111111
1111111100101101
0000000000000000
0000000010110010
0000000110110011
0000000000000000
1110001110010111
1111111111000010
1111111000011101
0000000000000000
0000100000101100
0000100010001110
1111111110011111
1111111111111111
0000000000000000
0000000101011101
1111111110100100
0000000000000000
1111111111111110
0000000000001001
0000000000011010
1111111000110111
0000000000000000
0000000111111000
0000001001011100
0000000000000000
1111111111000100
1111111111101010
0000001000101101
0000000000000000
0000000000001011
0000001100010111
1111111111111111
1111110110000001
1111111111111111
0000000000000000
0000000000101010
0000111001010100
0000000000000000
0000000111111011
1111110010110000
1111111111111111
0000000011000000
1111111111111111
1111111111111111
1101111111100011
0001010010011101
0000000000000000
0001001111011111
0000000000010101
0000000100010100
1111011110100011
0000000000000000
1111111111001001
0000000000000010
1011100010100010
0001001110111000
1111111100110111
1111111111110000
0000000001100001
0000000000000000
0000000101100110
1111111111111111
0000001000011101
0000000000100010
0000000000000000
0000101001010110
1111111111111111
1111111111111011
0000011101011100
0000000000000111
0000000000000000
0000000000000000
1111111111111111
0000000101100101
0000000000000011
0000000000000000
0000001000100110
1111111111111111
1111111111010001
1111111111111111
1111111111111110
0000000000000010
1111111111111011
1111111011100101
1111111111111111
0000001010111011
0000100110101011
1111111111001111
0000000101000011
0000000000101111
0000000000000000
0000010010111001
1111111111011001
0000000000000000
1111111001101011
0000000000000000
1111111111111111
0000000000111010
0000100110011011
1110010110100010
1111111111111111
1101001100000011
0000110100100101
0000001001110001
0000000000000000
0000000111100011
1111111000000100
1111111101111110
0000000000000000
1111111111100100
0000000100000001
1111111111111100
1111111100101111
0000000000101000
0000010011111000
1111111111100011
0000000101101100
0000000001100000
1111111111111111
1111111111111110
1111111111110010
1111111111111111
1100110000101010
0000000000000000
1011101111111101
1111111111110001
0000000000010101
0000000001001100
1111111111111101
0000000100111010
0000000000000000
0000000010000011
0000100110100111
1111111111111111
1111111111111111
1111011100000101
0000101110100101
0000000000000000
1111111111111011
1111111101000000
0000000010001010
1111000111100011
1111111111111100
1101110110111111
0000101011101011
0000011101101100
0000000000001101
0000000000000000
1111111111111101
1111111111000011
1111111111110001
1111111111000011
1111111111000111
1111111111111111
1111111110111001
0000001000001111
0000000100100001
0000011110011011
0000000000000000
0000100001001010
1111111111111111
1011011100100010
1111111000100000
0000000000000000
0000010111100110
1111111111111111
1111111111110100
1111110010100110
0000011011111010
1111111111111111
1111111111111111
0000000100100011
1111111111011111
0000000000000000
1111111111111110
0000001110110111
0000000000000000
1111111111111110
0000000000000010
1111111110101110
1111111000010111
1111111111111010
0000000101101100
1111000100100001
1111110001110011
0000000000000000
0000000000000000
1111111111111111
0000000010001011
0000000000111111
0000000110101101
0000000001111010
1111111111111110
1111111111000100
0001110011111011
0000010001100001
1011100101000010
1111111011010001
1111111101010011
0000001000001010
0000000100110100
0000010011101001
1101000011010100
1011111010011110
1111000100010100
0000000000100000
0000011000110000
1111111111111111
1111111111101000
0000101110100100
0000000000000000
0000000000000000
1111111111101010
1111111111111101
0000000010110101
1100111000101101
1111111111111111
0000000000000001
1111111111100100
1111111111110110
0000000000000000
0000000000000000
0000000011010111
1111111111111111
0000000000000000
1111100101010011
0000000000000000
1111111111111111
0001000111100001
0000000000001101
0000000000000000
0000000010100010
0000000000000000
1111111110110100
1111111111111111
0000000000000000
0000000001110000
1111111111111110
1111111100110111
1111111111111111
1111111111111111
0000011100101100
1111111111111111
1111101010101101
0000000000000000
0000000001011010
1111111010011110
0000000101010011
0000000000101101
0000000000000000
0000000100001000
0000000000010100
0000000000000110
0000000110011011
0000000000000110
1111111111111011
1111111111010001
0000100001000010
0001101000011000
1111111111111101
0000011101111010
0000011010100010
0000000001110000
0000000000010101
1111111111100010
1111111111011101
1111111110111110
1111111111111111
0001000101000011
0000000000010000
1111110101011000
0000000000000000
0000000000010000
0000000111111011
0000110110100011
0000000000000000
0000000000000000
1111111100000100
0000000000011110
1111111111111010
0000000001000111
1111111111111011
1101111111100011
0000000000100101
1111111111011001
1111111111111001
0000100001010110
0000000000000000
1111111111011001
1111111111111111
1110101010011001
0000000000000000
0000000011101101
0001100111110110
1111111111111111
1111111011011101
1111101111011111
1111111111010010
1111110111101111
0000100001100110
1110100111011000
0000000010100000
1110101001101101
0000100010000001
0000011101001001
1111111111111111
1111111111111100
1111111111111111
1111111000111011
1111111111111101
1111111111101011
1111111111111111
1111111110001001
1111111111111111
0000000000111100
0000011011110000
1111111111110111
1111111000111000
0000000000000000
0000001111100000
1111111111110110
1111101111100011
0000000111001111
1111111111111111
0000000101110110
1111111111111111
1111111111000000
1111111110101110
0000000010100111
0000000000000000
1111111110111001
1111111010000100
1111111111111111
1111111111111110
1111111111100000
0000000100101111
0000000000000010
1111111111111110
0000000001001001
1111111000010001
1111111101111010
0000000000101000
0000000000000000
0000000101101101
0000000000000000
0001100111110110
0000010101000011
1111111111111111
1111111111111011
1111111111111110
0000000000100000
0000000000000001
0000000101010011
1111111111100100
1111111111010100
1111111001001110
0000101011000010
1101001110101010
0000010101010110
0000010110101100
0000011000010110
0000010110010000
1111111110110111
1110101100010101
1111000100010100
0000110001000010
0000000000000000
1110101011101101
1111111111111101
1111111111111111
0000011100110011
1111111111111111
0000111100100111
0000000000000000
0000000110001011
1101010100100001
0000000000010010
0000000001110000
1111111111110111
1111111111110100
1101110000010110
1111111101010110
0000000000000000
1111111111111110
0000000100010011
1111111111111010
0000000010011001
0000011000011000
0000000000000000
0000010010000010
1111111111111110
0001011011011000
1111111111111101
1111111111000000
0000000000000000
0000011001011100
0000000000000000
0000000000000000
1111111111100110
0000000000000000
1101011110100100
0000000000000000
1111111111111111
0000000000000000
0000000110010101
0000000000001010
1111110111101010
1111111100000101
0000110000101010
1111111111010111
0000000000000001
1111111111111010
1111100101110111
1111111111111101
0000000000000000
1111111101110111
1101110100010111
0000000000000000
0000100010000001
0000000000000000
0000000000000001
0000000100001111
0000000000101110
1111111111111111
1111111110101110
0000000001110000
0000000110000001
1111111111111111
1111111111011101
0000000001001110
1111110011010010
1111111111111111
1110100101000100
1111111111110101
1111111111111100
1110100101000001
0000001010101100
0000000000000000
1111111111110101
0001000101100010
1111110110111011
1110011001000111
1111111111111111
0000000000000000
1111101010101010
0000001000010111
1111111111111111
0000000000000000
1111111111111111
1100101001110001
1111111111110111
1101000011101111
0000000000001000
1111001111110111
1111111110000001
1111111110111100
1111111111001101
0000000000000000
1111111111111111
1111111111111111
1111111111111100
0000000001001000
0000000000000000
0000000010010011
1111111111111110
1111111111111111
1111111111111111
0000000000000110
0000000000000000
1111111111111111
1111111111101110
1111111111000110
0000000101001011
0000000001110110
0000000000000000
0000000000000100
1111000001111111
1111111111011011
0000000001110110
0000000000000000
0000000000000000
0000000000011010
0000000000111100
0000000000000000
0000000011110000
1111111111111010
1111111111101101
0000001101101110
1111110010000000
0000000011010111
0000000000011001
1111111001000011
0000011000100111
0000000000000001
0000000000000001
0001011010001110
0000000000000001
0000000000000000
0000001001101011
1111111001101010
0000000000101011
1111111010111011
1111111111111111
0000000000000000
0000000001111110
1111111111111011
1111111111001000
1111111111111111
0000000000110110
0000001100111110
0000000000011111
1111101111010110
1110000110011011
0000011000110110
0000000000000110
0000000000000000
1111011100100100
1111101111110111
0000000000000000
0000000111001011
1110010100100000
1011100110100000
0000100110111010
0000110000010011
1111111111111111
0000000000000000
1111011010110000
1111111111111111
1111111111111111
1111111111111111
1111101011001001
1111111111101100
1111111111111111
0000100001111000
1111111111111111
0000000110001110
1111110010000011
1111111100101111
0000000000000000
1111110100101011
0000000000000000
0000000000000000
1111111111001100
1011111100001011
1111111110111000
1111111111110011
0000100111011011
0000000001100110
1111111111111001
0000000110000100
0000000000001111
0000000001001011
1110100101010111
1111111111111111
1111110011011111
1111111111101111
1101111001010000
0000000000000010
1111111111101011
1111111111111100
0000000010011010
0000000101111000
1111111111111111
0000000001100100
0000000000000000
0000100001010001
1111111111100011
1111111011011100
0000000010011000
0000010101111101
0000100001001011
0000000000000000
0000010100110001
0000000000000000
1111111110010100
1111111111111111
1111111111111101
1111100110010111
1111110010110101
1111111111110000
1111111101110000
1101001110101010
0000000000010110
1111110110110110
1111111111111101
0000000010000001
0000000010011011
0000001001010001
0000000000000000
0000000001111100
0000011111111000
1111111111111110
1111111111111011
0000000000001111
1111111000000100
1111111011001001
1111111111101110
1101110010000111
0000000000101000
0000000000000000
0000000000011100
1101000100110010
0000000000000000
1101110000011110
0000000000001100
1111111111111111
1100001100001010
0000100001000011
1110111010011000
1111011111110001
0000000101000100
1111111111111111
0000000001100111
1110011011110010
0000000000100111
1100110100000000
1111111010111100
1110011011101110
1111111010101001
1111110111110010
1111111111111000
1111111111111011
0000000000000000
0000000000000000
1111111111110101
0000000000000000
1111111111111110
1111111111111100
0000000000000000
1111111011001101
1111111111111111
1111111111101010
0000000001111100
0000000000000000
1111110010010011
1111111111110011
0000000001111011
0000001010101100
1111111111110010
0000000000000000
0001110011010000
1111111111110101
0000000000000000
0000010110111011
0000000010000001
0000000000010011
1111111111111111
0000000010011110
1111111110111101
1111111110100100
1111111101101011
1111111001111010
1111111111111100
1111111111111111
1111111111111111
0000000010100000
1111111110011111
1111111111111111
0000111011100101
1111111101000000
0000000000001000
0000000000100110
0000000000000000
1111111110111110
0000000000000000
1111111111111111
0000011100000000
1111111110111000
1111111111111111
1111111111111110
1111111000110100
1111111111111111
0000000000000000
1111111100100110
0000000000000000
1111111111111110
1111111111111111
1111111111101010
1111111111111111
1111111101101111
1111111111001011
1101000100111010
0000000001111001
1111010000100000
0000000000010000
0000100111111010
0000010000001011
1111111111111111
1111110011011100
1100101000101110
1100000000100000
0000000110011110
1100100011001111
0000000000000000
1111111111111111
0000000000000000
1101001010011101
0000000000000000
0000000000000001
1111111000100101
0000000000111111
0000000000000000
0000000011011000
1101011000010111
1111111111000001
1111110000010011
1111110110010111
0000000000000001
1111110001111010
0001011101100100
1111111011100010
1110100000000001
1111111111111111
1111110011010001
0000110101101101
0000000000100111
0000000010110010
1111111111111110
0000000010111101
1111111110111100
1111111000001010
1111111111110101
1111111111110111
1111111011101010
1111111111111101
0000000000000101
1110010111000001
1111111111111111
0000000011011100
0000000000000001
1111111111001010
0000000000000100
1111110110001001
1111111111111111
0000000000011000
1101100111100111
0001010010101100
0000010110011111
1111111111010110
0000010011001001
0000100010111110
0000100011100000
1111111111111111
1111111111111101
0000000000000010
1101111111110000
1111111111111100
0000000101010001
0000000000000111
0000000000000000
0000011001100011
0000000001101111
0000000000000000
1111111111111101
1111111100011000
0000000111110011
1111111111111011
0000000000000000
1111111111111101
0000000101000101
0000000010010101
0001001001110000
1111111111111101
0000000100000110
1111111111110010
0000010101001000
1111111001101111
1111111111101001
0000000100011111
0000000000010000
1111111111111101
1111111111111101
0000000000000000
0000100110110001
0000000000000100
1111100110010100
1111101101000001
0000000000110111
1111111111111011
1111111111111111
1111111111111100
1111111111111111
1111010000100010
0000001111110010
1111111110001000
0000000011000011
0000000000000000
0000000000000000
1111111111111110
0000000000000001
0000000000111011
1111111111111111
0000000000000000
1111111111111011
1111111111111111
0000001000101001
1111101010100001
0000000000000000
1111111111111111
1111111111111111
1111111110110110
0000000000000011
1111111111111111
1111111111111111
0000000000000000
1111111010100001
1111111111110101
1111110011000000
0001010111111011
1111111111111111
0000000000000000
1111111111101110
1111111011111101
0000000000000011
0000000000000000
0000010100010010
0000111011011011
0000000001100001
0000100011010011
1111111111001101
1111111111111111
0000000001100100
0000100000100010
0000000000000101
0000100000111111
1111111111111100
0000001001100110
1111111111111111
1111111000000011
1111111111111111
1111111110010100
0000000101111000
1111111011110110
1111111111111110
1111111111111110
0000001000100101
1111110100000011
1111111111111111
1111111111111110
0000000110010100
0000000000000000
1111111111111111
0000000000000000
1111111111111001
0000001100110101
0000011001101100
0000000100000111
1111111111111110
1110000011101100
0000001000010001
0000000000000001
1111111111010011
0000010110000101
0000000110011111
1101100111010000
0000000000000000
0000000000000000
0000000110111110
1111111111101011
1111111110011101
0000000000000000
1111111110101010
0000000000000000
1100000110111100
0000000000000000
1111111000001000
1111111111111111
0000000010101011
1111111100010000
1111111101000110
1111111101001000
0000000000000000
0000001001110110
0000000000000011
0000001000110110
1111100111011100
0000000000000000
1111110100101010
1111111111111101
1111110010111001
0000011001111111
0000011101001001
0000000000100100
0000011100001100
0000011000010001
1111100000001000
0000001011111100
1111111111111001
1111100111110100
0000001000001110
0000000001011011
1111111111010011
1111111111100001
0001110101011110
0000001111010101
1111110110000001
1111111111111100
1111111111010111
1111111110111100
1111111111111111
1111111111010011
0000000001000100
1111111101001010
1111111111001111
0000000011101110
1111111111111100
0000000001100010
1111111111110110
0000001001001111
1111111111111111
0000000001001111
0000010011111011
1111111110100010
0000000000000000
0000000000000000
1111111001000101
1111111111101111
0000000000000110
0000011001111001
0000110001000010
0000001001101110
1111111111111110
1111111111100010
1111111111111111
1110101111011100
0000000010011100
1111111101110101
1111111111001111
0000000000000000
0000001000001110
0000000011000000
0000000000000011
1111111111111000
0000100011010101
0000011101110100
0000000000000001
0000000000000011
0000000000000000
1111111111111111
0000001010111011
0000001100100011
1101010110100011
0000000000000010
1111111111111110
0000000000101101
1111111111010101
1111111111111111
0000011000011101
1111111111111010
0000001000101110
1101110110111110
0000000000000000
1111111111110111
0000000000000000
1111111111111100
0000000000000000
0000101010011010
0000000000000100
1011110001111110
1111111111011011
0000000000000000
0000000000000000
1111111111110010
1111111111011100
0000000000011011
1100000000101001
0000000001000100
1111111010111100
0000000001000000
0000000000000000
1111111111111110
1111111111111110
0000000000000000
0000000000000010
0000000000011100
1111111111011001
0000000000000000
1111111111111011
0000000110110110
0000000010101010
1111111111111111
0000000000110011
1111111111111111
1111111111101011
1111111110100111
1111111111010110
0000000000000000
1111111111111100
1111111111100111
0000000000010000
1111111111111111
0000001111000110
1111111111111111
1111111000010100
0000000001101101
1111111111010101
1111111111111001
1111111111011110
0000000000000000
0000000101001001
1111111110111111
0000000000000000
1111111110111111
0000000111010111
1111111000110011
0000000000000000
0000000110100101
0000000000000000
0000001000000100
0000000000000000
0000000000001010
0000001010001010
1111111111111010
1111111110111100
0000000000000000
1111111111101110
0000000000000000
0000000101010110
0000000001000011
0000010010111111
1111111111011100
1111111111111000
0000000000000001
1111111100101110
1111111111111111
1111111111111111
0000000011010001
1111111111111101
1111111111111111
0000000000000000
1111111111111111
0000001000001101
0000001000101110
0000001001010000
1111111111111111
1110010001010011
0000000110111110
1111111011011010
1111111110111000
0000000100000100
1110010111000110
1100010100011100
0000000000000000
0001110011101010
1111111111111111
1111111111010101
1111111111110011
1101010100011101
0000000000000000
0000000111100110
0000001111011101
0000100110001001
1111111111010000
0000000101001101
0000001000001010
0000000000010010
0000000010001100
1011000000110001
0000000110110101
0000111011011001
1100111100001011
0000000000000100
1111111111111111
0001110100110011
1111111111110111
1111111111011000
0000000000000000
1101011111010100
1111001110111011
0000000000000001
0000000000000000
0000010100010111
0000000101100110
0000011010001111
0001101101011000
1111111111111111
0000000000000000
1111111101001010
0000000000101001
0000000000000000
0000011100111010
1111111111111111
1111010111011100
0000001010100000
1111111010101101
0000000000011001
0000000010110111
1111111111011010
1111111111110111
1111111111111100
0000001001111000
0000000010110010
1111111111111110
1111111111111111
1111111111111100
1111111111111111
0000000000000000
1111000111101101
0000000010011111
0000000100110111
1111111000110100
0000001000000000
1111111111111111
0000000000000000
1111111111000100
0000000000001010
1111101010101001
0000000000000000
0000000000010101
1111111101111001
1111101000000010
0000000001011000
1111111010001111
0000000000000000
0000000000000000
1111111111111110
1111111111111101
1111000111100110
1111100110101111
0001000100000110
1111111111111111
0000000000001101
1111111111111101
0000000000000000
0000010011000101
0000000001111001
1111111111001111
1111111010111110
1111110111001000
1111111111100110
0000000000000000
0000000000010101
1111110111111001
0000110001001101
1111111100010100
1111111111100111
1111111111111110
0000000000101011
1111111111101011
1111111001000001
1111111111110100
1111111111111110
1111111111111111
0000000000000000
0000100001011010
0000000000000000
1111111111111100
1111111111111110
0000000001001001
1111111111111111
0000100000001111
0000000000000000
1101001100011011
1111111111111101
0000000000000000
1111111111111110
0000000000000000
1111111011000001
0000000000000000
1111111111111111
1111111111111111
1111111110100111
0000001110010001
0000000000000000
0000001011001011
1111111111111111
0000000000000000
1111111111000111
0000011011001110
0000100101010100
0000000000000001
0000000000000000
0000000000000001
1111111111111111
0000000000000000
0000000000000000
1111111100101111
1111110111001000
1111111111111111
0000000100110001
1111111001101100
1111111111111011
1111111111111111
1111111111111111
0000100011010011
1111110010101111
1110010101110110
0000000000000010
1111111111001001
1111111101110111
0000000000000011
0000100001000000
1111111111100000
0000000000000000
1111011011110001
0000000100001001
1111111111111110
0000000000000000
0000000111010110
0000000000000000
1111111111001001
0000000100100011
1111111111100000
0000000011110011
1111111111111111
0000000000000100
1111111011011011
1110001100111011
1111111111111111
1111111111101111
1111111111100100
0000000110011011
0000000100111010
0000000010010001
1111111111010101
1111110101110101
1111111111111111
0000000100100001
1111111111111111
0000000000000000
0000001011000010
1111111111110001
1101011110111110
0000001111100000
0000000010001011
0000000000000000
0000011100101010
1111111111111110
0000000000110000
1111100001111000
1011000100011100
1111111111110101
0000000000000000
0000000000000101
0000011101011000
1111111111110110
1111110101001100
1101001010010000
0000100011111100
0000001001010010
0000001001111110
0000000000000000
1101101111011101
1111111111111011
1111111111111000
0000000000000000
0000111110000010
1111110001101010
1111110101110011
1111111111111111
1111110101111011
0000000000000000
0000001001101011
1110111100000001
0000011100000010
1111111111111111
1111111110011000
1111111111000111
0000000000000000
1111111111001000
0000000001101111
1111111111111111
0000000000000000
0000010100011001
0000010110011111
0000100011110111
0000000000001101
0000000001000101
1111111111111011
0000000000000000
1111111111001010
1111111001111000
0000000001001110
1111111111111001
0000000000111011
1111111111111111
0000000010011011
0001010011011100
1111110101001111
0000000001001000
1111110011011111
0000010101000010
1111111110001100
1111110110010001
1111111111111111
1111111111111110
0000000000000000
1111010011110010
0000000000011101
0000000001110010
0000000000000010
1100011010101011
0000000110111100
0000001000011101
0000000001100111
1111111111111111
0000000000000000
0000000000010001
1111110110001000
1101111110010101
0000001011010011
1111111111111111
1111111111111111
1111111111001101
1111111111111010
0000000000000000
1111111111111110
1111100101011101
0000000000000000
1111111111010000
1110011110101100
0000010100010001
1111111001101100
1111111111111110
1111111111100111
0000000000000000
0000000001001110
1111111111111111
0000010101101100
1110111101001101
0000000010111011
1111111111111011
0000000001000001
0000000001000000
0000000000000000
1111111110101111
1111111111101101
0000000000000000
1111111111111110
0000101000010000
0000000011110001
1111111110110101
1111111111011110
1111110011001001
1111111111111111
1011111001110000
1111111111011110
0000000000110101
0000000000000000
0000000001001111
0000010011111001
1111111111010010
1111111111111111
0000000000000000
1111111111110100
0000000101000100
1111111111111110
0000010100011011
1111111111111111
0000000000100101
1111111111111110
0000001011011101
0000000000000000
1111110111101010
1111111111011100
0000000000001001
0000000000000000
0000000000011110
0000000000000000
1111111111001111
0000000000000010
0000010010111000
0000001011011100
1111111111111111
1111111111111111
0000000000000000
0000000110010100
1111111010111100
1110011110001001
1111111111111111
1111110111010101
0000000000011011
1111110111111001
1111111111111110
0000011011010100
0000001011001000
0000000000000000
0000000000000010
0000000001000100
0000000000000010
0000000000000010
0000010101111110
1111111111101110
0000001011010111
0000000000000000
0000000000000000
0000000000001100
1111111111011011
1111010011101001
0000000110010000
1111111111100111
0000000111110101
1111111111111101
1111110111110010
1111111111100011
1111110100001100
0000100011110000
0000000000000000
1101100111101100
1111111111100110
1101000000011011
1111111111001000
0000000000011110
0000000000000010
0000001011101000
1111111111111110
0000000000000000
0000000000000010
0000110010111010
1011010000001011
1111111111011001
0000010001100000
1111111111111101
1111111010111011
0000000101111010
0000000000000010
1111111111111111
1111111111111111
1111110011110011
1111111111111011
1111111110110110
0000000011101100
1111111111111111
0000000000000001
1111111100110111
1110010101110010
0000000000000000
0000000110110010
0000010010001110
1111010010001100
0000100001001001
1111111111111111
0000000000001100
0000000000001011
1100101111110001
1111111110100010
0000000000000000
1101000110111100
1111110100110001
0000000001111001
1111111111001001
1111111111111111
0000001000111100
1111111111111111
0000000000111001
1111111111111110
1111111111101111
1100100100001100
1111111111111010
1111111111111100
0000000110001011
1111111111110001
0000000000000001
1111111111111111
0000000000001101
0000000000000000
1111111110111010
0000000000000000
1111101111100100
1111111111110100
0000001010101010
0000000011101000
1111101000100010
1111111111111111
0000001001100000
0000000000000000
0000010010101110
0000100011100110
0000011110111111
1111110011011011
1111111101111001
0000000000000000
0000000111110100
1111111111111111
0000000000000000
0000001100010011
0000000001001100
0001110010001001
0000000000000100
0000000000000000
1111111111111100
0000000010101101
0000000000000000
0000000010101100
1111111111111110
0000000011010011
0000110110011000
1111111010011001
1111111111111100
0000100000001011
0000000000100010
1111111111001010
1111111111111111
1111111111111111
1101111011111010
1111111111111110
0000000000000000
0000001101000101
1111111111111111
0000000000000000
0001000110100011
1111111111111111
1111111111111111
0000000001010000
1111111111111111
1111111111111111
0000000000000000
0000000001011010
0000000000000000
1111111111111111
1011111000110010
0000000000000010
1111111111111111
0000000000000000
0000000000000000
0001011100100010
1111111111111111
1111111101010001
1101011111000101
1111111111111110
1111111111111101
1111111111111011
0000000000000011
1111111111111010
1111111111111111
1111111111111110
0000010100011011
0000100001001001
1111111111101001
1111111111111110
0000000000000000
1111111111100001
0000000000010111
0000000101001101
1110111000000001
0000001000101101
0000000000001101
0000000000010011
0000010101011110
0000011100101001
0000000000000000
1111111111111110
1111111010100110
0000001001001111
0000000000000000
0000000000000000
0000000000000000
0000000000000000
0000000000000000
0000000101001111
1111111111101111
1111111111111101
0000001001010110
0000000000000000
1111111111111111
0000000000111000
1111111111111110
0000001001011100
0000000000000000
0000000001100011
0000000110101101
0000010001010001
0001110001001111
0000000110101110
0001100111100110
0000000000000000
0000000000100101
1111111111111111
0000100000111111
1111010011110010
1111111111111111
0000000000000000
0000101100001001
0000100010001011
1111110100010111
1111111111011101
0000000000000110
1111111111111111
0000001101100110
1111010100001010
1111111111010101
1111111101111110
1111111111111111
0000010010100111
0000001111111010
1111110001110100
1111111111110100
1101110001100111
1101001001001100
0000001101111100
0000000000000000
1111111111011000
0001000111101111
1111111011011010
0000000000000000
0000000000000000
1111110110101111
1111111111111111
0000110010100111
0000000110010001
1111111111110111
1111111010011101
1011100000110101
1111111111111111
1101000011010011
0000001001011010
1111100001010000
1111111110100010
1111111111111001
1111111111111111
0000000000110010
1100001100001010
0000010101110100
1111111111111111
1100110010111101
1111111010111000
0000010101111101
1111111111111001
1111111111111111
0000000000100011
0000001000110010
1111111111100010
1111111111010001
1011100110101111
1111111111111000
0000000000000000
0001001111000101
0000000101011111
0000000000000100
1111111111100010
0000000000111100
1111111111111111
0000000000000000
1111111111111111
1111111111001001
1111111111111010
1111111101001110
1111111111111111
1111111101010001
0000100100101010
1110110011010101
0000000000000000
1110001110111101
1111111111111001
0000001111010011
0000000000000000
0000010010100111
0000000100000000
1111101111110110
0000001100100100
1111111101101010
0000000000001001
0000000101010101
0000000000000000
0000000000010100
0000110001010000
1111111101100011
0000000000000000
1101101110010011
0000000011010100
0000000000010110
0000001000011011
1111111111111111
0000010101101100
1111111111111101
0000000000000000
0000000110101110
1111101110100100
0000001011010011
1111111111111001
0000000011101011
0000000101101010
1111111111001001
0000000000000000
1111111111111111
0001001100100110
1111111111100000
0000000000001011
1111111111101010
1111111111111011
0000001110011110
1111111111101001
1110001100001010
1111111111110110
1111111111111011
0000000000001000
0000000000000000
1111111111111011
0000000001001000
0000111110101110
0000000001111001
1111111111111111
0000000000000000
0000000000000000
0000000000000000
1111011011011110
0000000000000000
0000000000001000
1100001111101100
1111111111111111
1111111111111111
0000000000000000
1111111111111110
1111111111111111
0000000000000000
0000001001010010
0001011101110000
0000001100010101
1111111111110110
0000000000000000
0000000000000000
0000000000000111
1111111111000100
1111111110000110
1111011101001011
1111111110101011
0000000000110000
1111111111001101
1110110000011111
0000000110011111
0000000000000101
0000000000000000
1111111010011111
0000010111110111
0000000000000001
0000000000101111
0000000000000000
1111111111110111
0000000000000000
0000110100000011
0000000000000110
0000000000000000
1111111111111000
0000010011100011
0000000100000110
1111111101010111
1111111111111111
0000000001100000
0000100010011111
1111111110110011
0000010001111001
0000000000100011
0000001101101011
1100101001101001
1111111111111111
1111111111111010
1110010100101110
0000001001000100
1111000110101001
0000000000110010
1111111110111101
0000101001011110
1110111111100100
1011010100010111
0000001000000000
1111111010111100
1111111011100100
1111111000011111
1111111111111111
1111111110101011
0001011100000110
1111111001110101
0000000000000000
0000000000000111
0000000000000000
0000000100111111
0000001110011100
1111000011011001
1111111011010010
0000000101000100
1111111111111111
1111101110111110
1110000101011011
0000000101011101
0000111100000000
0000000110011010
0000000000010110
0001000111011001
1111111110010001
1100011111001111
0000000000000001
0000100001110000
1111111111111110
0000000000000000
1111111111111110
0000010110100101
0000000000100110
0000011010111000
1111110010000101
0000000000000000
0000000000000000
0000000111111011
1111111110000100
0000000011101010
0000000000001001
0000000000000001
1111111111111111
0000001010101010
1111111000010111
1011000110110111
1111111111111111
0000000011110011
0000001111011111
0000000011100011
0000000000011000
1111111111110101
1111110100001000
1111111111111110
1111111111101001
1111111100100000
1111111111111111
0000001000000110
0000000110000000
0000001100000010
1111111111001110
1111111111100010
1111111111111111
0000000000101010
1111111110101100
1111111111010111
1111011101101100
0000000000000000
0000000001111010
1111111111111111
0000000000000101
0000000000000000
1111111111111111
1111111111111111
1111111111111111
0000000000000000
0000101101101011
0000000000000000
1111111111111111
0000000000001100
0000000000000000
1111110010001100
1111111111111100
0000000000000001
0000000000000000
0000000000000000
1111110101000111
0000000000000000
1111111110110101
1111111111111101
0000000101100010
1111111111111111
1111111111011110
1111111111111111
0000000000000000
0000000000000000
0000000000000000
1111111111111111
1111111011011010
1111111111111110
1111111111100100
1111111000000000
1111111111010000
1111111111111111
