11111111111111111110011011110110
00000000000000000010011110101000
00000000000000000100100111010110
11111111111111111010111001010010
11111111111111111011111010000011
11111111111111111111000110001100
00000000000000000000110011011001
11111111111111111110101001111111
11111111111111111111110111001011
11111111111111111011001010110000
11111111111111111111010100010101
00000000000000000001100001100011
00000000000000000000111100010010
00000000000000000010000111001010
00000000000000000110010100100111
00000000000000000000111111000000
00000000000000000001000000010110
11111111111111111110111111010010
00000000000000000000011011010111
00000000000000000011011001110011
11111111111111111101011010101001
00000000000000000000100110100111
00000000000000000000101011000000
00000000000000000101110001010001
11111111111111111111000001010111
11111111111111111110101000111100
11111111111111111111111001101101
00000000000000000001000111011010
00000000000000000000110100010000
00000000000000000000001101011000
00000000000000000101011100011100
00000000000000000001110111100101
00000000000000000100100101000111
00000000000000000100111110001000
00000000000000000000001101110100
00000000000000000010111101010010
11111111111111111100111100111001
11111111111111111111111101011001
11111111111111111110011010011100
11111111111111111100010101000010
11111111111111111111011111001010
00000000000000000000000110100001
00000000000000000001101101111001
11111111111111111111011101000100
00000000000000000010001101001011
00000000000000000111111001001011
00000000000000000010111100101011
00000000000000000010001101110001
11111111111111111011011100011111
11111111111111111111100101010000
11111111111111111111100010000001
11111111111111111101010111110001
00000000000000000001001100111101
00000000000000000000111100111000
11111111111111111101101100100000
11111111111111111110110101011101
11111111111111111111011111010010
00000000000000000010100111111111
11111111111111111110011011010111
11111111111111111111000011111100
11111111111111111101001111100110
00000000000000000001111000101001
00000000000000000101100000011011
00000000000000000000101110010000
11111111111111111111110110100101
00000000000000000001000011101101
00000000000000000101001001110010
11111111111111111100101100000101
00000000000000000000111010111011
11111111111111111111101101001111
11111111111111111100111001100101
11111111111111111111111111000001
11111111111111111111111000001011
00000000000000000001011011110011
11111111111111111101011011000001
11111111111111111101000110111001
11111111111111111111100000110110
11111111111111111110011010101010
00000000000000000011000111011100
00000000000000000011011000111111
00000000000000000010010110111001
11111111111111111001101010101101
00000000000000000000001100101100
00000000000000000000111001110110
00000000000000000000100100000000
00000000000000000011010010110100
00000000000000000011010001011100
11111111111111111111110001010000
11111111111111111101111111111011
00000000000000000001100100010101
00000000000000000000100011100110
00000000000000000001110011010001
00000000000000000000101011111000
11111111111111111111100111110110
11111111111111111110010100001000
00000000000000000000101111101101
11111111111111111111000001011101
00000000000000000000111000011010
00000000000000000100001010011111
11111111111111111110100100001010
00000000000000000010000110111100
00000000000000000001101011000001
11111111111111111111101010101110
11111111111111111001101000100001
11111111111111111011000110110110
00000000000000000010000000111101
00000000000000000000100011101100
11111111111111111111001010010011
11111111111111111110010001111100
11111111111111111011100110011110
00000000000000000000000010010110
11111111111111111101010100011000
00000000000000000010000011000000
11111111111111111101011110011000
00000000000000000000011001000011
00000000000000000010001000000110
11111111111111111101111101011000
11111111111111111110101010001100
11111111111111111110000101001100
00000000000000000000100111110001
00000000000000000011000100110011
00000000000000000010011011010111
11111111111111111011101010110101
11111111111111111111001001000001
11111111111111111100100000101101
00000000000000000010111111001000
11111111111111111111100000100010
00000000000000000001100011110000
11111111111111111110100011110101
00000000000000000001101100110101
11111111111111111110101000000011
00000000000000000010010011111100
00000000000000000001100010100001
00000000000000000010110000101001
00000000000000000011000111100010
11111111111111111110111111011110
11111111111111111110111011010001
00000000000000000010100111110110
00000000000000000011011101110101
11111111111111111110010100010101
00000000000000000011001111000011
11111111111111111110011101001001
11111111111111111110111011111110
00000000000000000001100111011110
11111111111111111001111010011001
00000000000000000010010010000110
11111111111111111111000011001010
00000000000000000001100011010011
00000000000000000011010101001001
11111111111111111101101111000011
00000000000000000000001001100011
11111111111111111001111010001110
00000000000000000011011101111010
11111111111111111110011011011011
00000000000000000010100011001111
11111111111111111110100101001100
00000000000000000010110001001011
11111111111111111110100100100110
11111111111111111110100111111101
11111111111111111101000101101010
11111111111111111111001110011100
00000000000000000010100100000000
11111111111111111111110111111000
11111111111111111111100110111100
11111111111111111011110100101111
11111111111111111101010010100101
00000000000000000000101010101111
11111111111111111101010001000100
11111111111111111111011011000100
11111111111111111110100110001000
00000000000000000000001000110110
00000000000000000101011100000111
11111111111111111101110100100100
00000000000000000101111001100110
11111111111111111110100111111111
11111111111111111101110000101111
11111111111111111101011111111100
11111111111111111111100100111011
00000000000000000001010001001110
11111111111111111001110101011001
00000000000000000010011010100111
11111111111111111011100000001000
11111111111111111101111001000011
11111111111111111110010011010101
11111111111111111100001110110001
11111111111111111100100101000100
00000000000000000010100101010101
11111111111111111111010000000000
00000000000000000000010001000110
11111111111111111110110010100110
00000000000000000010111111000011
11111111111111111100011100001000
00000000000000000010010010110000
11111111111111111111101111110100
11111111111111111100101011011110
11111111111111111111001101010001
00000000000000000010100000100111
11111111111111111111011000001011
11111111111111111111111111000110
11111111111111111111100111110100
00000000000000000000011010010101
00000000000000000010010000110100
00000000000000000011101110000101
00000000000000000011000101000000
00000000000000000000101001010111
11111111111111111110111111000111
11111111111111111110011010001010
11111111111111111110000001000100
00000000000000000001111011111000
00000000000000000001001010110000
00000000000000000001100101010111
11111111111111111011001110001011
00000000000000000010101010000011
11111111111111111110101001000001
11111111111111111111011111100011
00000000000000000001011011111000
11111111111111111100001111001100
00000000000000000000111011100100
11111111111111111011010110010111
11111111111111111110000011101110
11111111111111111110010001010100
00000000000000000001010010000111
00000000000000000010001011110110
00000000000000000001001100000111
00000000000000000001010111111001
00000000000000000011100011101101
11111111111111111111110100000110
00000000000000000000110010000001
11111111111111111100010010011111
11111111111111111110100011111110
11111111111111111101101101011101
00000000000000000011100111011110
00000000000000000011100100101001
11111111111111111110110111111011
11111111111111111111011110111101
00000000000000000011000011101010
00000000000000000000111011101000
11111111111111111101011000010001
00000000000000000010001001010111
00000000000000000000100011110101
00000000000000000010000110011111
11111111111111111111110001011000
11111111111111111111100111100001
00000000000000000001000111100100
11111111111111111111110101001101
11111111111111111111111101111011
11111111111111111100001101001100
11111111111111111110111111010111
00000000000000000001000111010110
00000000000000000001000010111110
11111111111111111111001100111110
11111111111111111110000011001010
00000000000000000000110110010111
00000000000000000011101010101010
00000000000000000011010001011110
00000000000000000010110000011101
00000000000000000000010011101111
11111111111111111011011000101110
00000000000000000001111100011001
11111111111111111111101101100100
11111111111111111111111101110001
11111111111111111111010010001111
00000000000000000001000010000010
11111111111111111110000010111000
11111111111111111110010010111100
00000000000000000001011011111100
00000000000000000000011001001101
11111111111111111111101101111001
11111111111111111001010111010101
00000000000000000011010100100111
11111111111111111101111010010000
11111111111111111111001110111011
00000000000000000010110110110011
11111111111111111010001001010010
11111111111111111110100101110110
00000000000000000011001011101010
00000000000000000000100101000101
11111111111111111101111000000100
00000000000000000000110000100101
11111111111111111011101110111100
11111111111111111111000001100100
00000000000000000011010000101111
11111111111111111110001101001011
11111111111111111110100110001001
11111111111111111010100001110011
00000000000000000010101101011011
11111111111111111110101010010011
11111111111111111111100011101010
00000000000000000000110100011101
11111111111111111111000110011001
00000000000000000011010000011100
00000000000000000000111000110010
00000000000000000011101000001011
11111111111111111011101011010110
11111111111111111111000110111011
11111111111111111110110100000100
00000000000000000001000001110100
00000000000000000000010110101101
00000000000000000010011010110011
00000000000000000000000011101011
11111111111111111110101000110111
00000000000000000001100011100011
00000000000000000001101011101100
11111111111111111110110001101001
11111111111111111111000101111101
11111111111111111100101011010000
00000000000000000000010000100111
11111111111111111111011110100001
11111111111111111110011101100000
11111111111111111011000010010010
00000000000000000000011110111010
00000000000000000000100000110011
00000000000000000000011010010010
00000000000000000001000010100111
00000000000000000011100010011100
11111111111111111110111011001001
11111111111111111110001111000100
11111111111111111111111001110000
00000000000000000000001110001010
00000000000000000001010101110001
00000000000000000000011110111010
00000000000000001000001110101110
00000000000000000011010010111001
00000000000000000000100011100111
11111111111111111100100010001111
11111111111111111101100001111101
00000000000000000011001101101001
00000000000000000001010110110100
11111111111111111001100111011000
11111111111111111101001001100111
11111111111111111111000011011100
00000000000000000101000101011000
00000000000000000011101001111011
11111111111111111101001100001110
00000000000000000011101100111110
11111111111111111111010001001001
11111111111111111101111101010011
00000000000000000011000111010001
00000000000000000001011000110000
00000000000000000000110010000110
00000000000000000000111011110110
11111111111111111101001111111001
11111111111111111110000101001010
11111111111111111111110101101011
11111111111111111101010011111111
00000000000000000000011001100000
11111111111111111101001001111010
11111111111111111100100000111100
11111111111111111110000001101111
00000000000000000001101110010100
00000000000000000001110101000010
00000000000000000011111011001001
11111111111111111111111110100111
00000000000000000100101111101111
11111111111111111111010000000001
00000000000000000000111101010100
00000000000000000001110001010100
11111111111111111110111100110011
11111111111111111100111000101001
00000000000000000010100011001101
00000000000000000000011010111010
11111111111111111110100101101011
11111111111111111111110000001011
11111111111111111111101011111000
00000000000000000110000001111111
11111111111111111111011101100010
11111111111111111010011001001100
00000000000000000001010011000111
11111111111111111101110010001010
00000000000000000010001001010110
11111111111111111111011000110100
11111111111111111110111110110001
11111111111111111110100010110110
00000000000000000001000010110101
00000000000000000001111111001001
00000000000000000010010110100111
00000000000000000010000000111111
00000000000000000001010110000001
00000000000000000101100001010101
00000000000000000001001010000101
11111111111111111110001010010001
00000000000000000000010100011010
00000000000000000010001110111101
00000000000000000000101011100010
11111111111111111111010111101111
11111111111111111111000010100110
11111111111111111000111000000010
11111111111111111101011100101000
00000000000000000000010110110101
00000000000000000000110000110000
00000000000000000011111011111111
00000000000000000001001100000111
00000000000000000001000101001100
11111111111111111001010110111001
00000000000000000000001110100000
11111111111111111110010110010011
11111111111111111111010001111011
00000000000000000001000001110011
00000000000000000010001000011001
00000000000000000100111011011110
00000000000000000010010001001010
11111111111111111101110101010010
00000000000000000001000101100110
11111111111111111110001001011010
00000000000000000010110001101110
11111111111111111010111010111011
11111111111111111111100100011101
00000000000000000000010001100001
11111111111111111110010000101010
11111111111111111100011011010110
00000000000000000110001011010000
11111111111111111001010100000010
00000000000000000000111101001101
00000000000000000110111011101110
00000000000000000000010101101010
00000000000000000001011001000111
00000000000000000000110101010100
00000000000000000010001011000100
00000000000000000001010100000100
11111111111111111101100111110100
11111111111111111111000110100111
11111111111111111111011111100101
11111111111111111110101110001000
00000000000000000010000110110011
11111111111111111101010111110011
11111111111111111100010110100110
00000000000000000101111100010000
00000000000000000011011001110010
00000000000000000001000100111001
00000000000000000000101011001010
11111111111111111101101110101101
00000000000000000001011100101000
11111111111111111101010001111110
11111111111111111101100101000110
11111111111111111111000110111110
00000000000000000010100100100011
00000000000000000000011100101011
11111111111111111111010001001001
11111111111111111110101001100111
00000000000000000001100000010000
11111111111111111100100000011100
00000000000000000000101010000100
11111111111111111100101100011001
00000000000000000010010010010111
00000000000000000001100011110101
11111111111111111111011101110001
00000000000000000001000111000111
11111111111111111110101110100011
11111111111111111100101001111010
00000000000000000010101000110100
11111111111111111101010001111110
11111111111111111101011011101101
00000000000000000100101011001100
00000000000000000001011110100001
11111111111111111001001001100110
11111111111111111100001000000010
00000000000000000010000100100100
00000000000000000000001010010000
11111111111111111111000000100100
11111111111111111100100110010000
00000000000000000001100001011100
11111111111111111111010010110000
11111111111111111101111101001100
11111111111111111111010100110001
00000000000000000001101000010101
11111111111111111110100101111011
11111111111111111101000100100101
00000000000000000001101100111011
00000000000000000000111110010101
00000000000000000001001111010111
00000000000000000011000110010001
11111111111111111101110010010011
11111111111111111110111111100001
00000000000000000001010010101110
11111111111111111111010010000111
00000000000000000010110111010010
11111111111111111111110010101000
11111111111111111010111000001100
00000000000000000010000010000101
00000000000000000010100101010001
11111111111111111101100001001100
00000000000000000011101111011111
11111111111111111100111010001000
11111111111111111001111111110100
00000000000000000011011110111111
00000000000000000000111011000100
00000000000000000001111000000111
11111111111111111110110111010001
11111111111111111111101101011000
11111111111111111101111110011000
11111111111111111011101111111001
11111111111111111111110101011101
11111111111111111001100100101001
11111111111111111101100111111011
11111111111111111100110101010101
11111111111111111111000010101111
00000000000000000100000110001101
11111111111111111101111100001010
11111111111111111100101001111000
11111111111111111110011110011110
11111111111111111110010000111000
11111111111111111101001111001110
00000000000000000011101010111111
11111111111111111101100100101110
00000000000000000011001001100010
00000000000000000010011110011000
11111111111111111110110011000100
00000000000000000101010011000010
00000000000000000010011000100110
00000000000000000000011100110000
11111111111111111011001001000011
11111111111111111111001111011110
00000000000000000100001010101010
11111111111111111111001100110010
00000000000000000001001101000101
11111111111111111100011010111011
00000000000000000000011110101010
00000000000000000000111100011100
11111111111111111100011110110111
11111111111111111011101010111010
11111111111111111100111111010100
11111111111111111011010101110110
00000000000000000000010100000100
11111111111111111100111001110010
11111111111111111100101100100011
11111111111111111101011011111101
11111111111111111101001001001101
00000000000000000001100010011011
11111111111111111111111000010111
00000000000000000010000101100111
00000000000000000001110110110000
00000000000000000000011001110011
00000000000000000010001100011100
00000000000000000100010001000011
11111111111111111101110110010010
11111111111111111110001011100001
11111111111111111100010100001001
00000000000000000101100111101011
11111111111111111111111001110011
11111111111111111110000101011010
00000000000000000110001000110100
00000000000000000010101010110100
11111111111111111111101001010000
11111111111111111101110110101110
11111111111111111111010000001100
11111111111111111111110010000010
00000000000000000001100010001100
11111111111111111111011100111011
00000000000000000111101110101011
00000000000000000000000011100010
11111111111111111111001110111001
00000000000000000010101010101101
11111111111111111101010000001110
11111111111111111100110111111011
00000000000000000010111101001101
00000000000000000000100111011101
11111111111111111011111010101010
11111111111111111110011001011100
11111111111111111110111100000000
00000000000000000011101001100101
11111111111111111111101111011110
11111111111111111111010000001001
00000000000000000000111000111101
00000000000000000100101111111010
11111111111111111111011110000101
11111111111111111100110100100111
00000000000000000001010010010101
00000000000000000001001101011000
00000000000000000010110110001110
11111111111111111110011010000100
00000000000000000011001010010101
11111111111111111110000110010110
00000000000000000000111010101000
11111111111111111111111001000001
00000000000000000000100001111010
11111111111111111110001000011100
00000000000000000011110011101101
00000000000000000101101100101100
00000000000000000000001011101111
11111111111111111011110001000010
11111111111111111011000010111110
00000000000000000110101110101010
11111111111111111110000100111101
00000000000000000100111010001001
00000000000000000001101001110101
00000000000000000101111110110100
00000000000000000011001000101110
00000000000000000001011000011110
11111111111111111000011011001110
11111111111111111110100010100011
11111111111111111110100001011011
00000000000000000100011000010100
00000000000000000011110001110001
11111111111111111100011111001101
00000000000000000011100000011100
00000000000000000000111101011110
11111111111111111110100101101101
11111111111111111111000111111010
00000000000000000000100110100111
11111111111111111100111011101011
00000000000000000000111101001111
11111111111111111111001010011001
00000000000000000001001100101100
11111111111111111110110101100010
00000000000000000000100100011001
00000000000000000000011000101011
00000000000000000001011110101000
11111111111111111111100010100010
00000000000000000100011000000001
11111111111111111011010010001010
00000000000000000000001110110110
11111111111111111101010110100100
00000000000000000000110100011000
11111111111111111101001110110101
00000000000000000001111011001011
11111111111111111010101110010100
00000000000000000000010110110011
00000000000000000001101101111011
11111111111111111111101000110000
00000000000000000010111010110000
11111111111111111101111101111101
00000000000000000011111110110011
11111111111111111010100010100001
00000000000000000001010111000000
00000000000000000000001010011010
00000000000000000011111100011001
11111111111111111111101110010110
00000000000000000010110111010011
11111111111111111111110010010110
00000000000000000011110000001101
00000000000000000000010001001110
00000000000000000001110011100101
11111111111111111111000110000101
00000000000000000000101111000110
00000000000000000011011010101110
00000000000000000000011101001001
00000000000000000000000001000010
00000000000000000001111100110101
00000000000000000101001100010000
11111111111111111111010101011000
11111111111111111111100100100001
11111111111111111111101110010010
00000000000000000010000001011100
00000000000000000000100000001101
11111111111111111111100111100010
11111111111111111111001111001010
11111111111111111111001010100000
00000000000000000000100100110000
11111111111111111111010111011011
11111111111111111101101000001111
00000000000000000010011000000000
00000000000000000010100010100001
00000000000000000010010000001100
00000000000000000010000001001111
11111111111111111110101010100000
11111111111111111101101100000101
00000000000000000000100011110010
11111111111111111100000000101111
00000000000000000000101110111101
11111111111111111111100111101000
11111111111111111111110001001001
00000000000000000000011111001111
11111111111111111111100100000111
11111111111111111111111010010110
00000000000000000000111101000000
00000000000000000000010101111100
00000000000000000000100001111000
00000000000000000000100001110100
00000000000000000001101111000000
11111111111111111110010101000100
11111111111111111101100111101010
00000000000000000010000010011101
11111111111111111100001100010110
11111111111111111110110110000010
00000000000000000110000011111001
11111111111111111101100100110100
11111111111111111101100111000000
00000000000000000001010111000111
00000000000000000001011010011010
11111111111111111101001101111111
11111111111111111011111011111011
00000000000000000010110000100110
11111111111111111100101010101011
00000000000000000000100100000000
11111111111111111011011001100010
11111111111111111110111100010011
00000000000000000000010100111101
00000000000000000001000110110111
11111111111111111111110010011010
00000000000000000000111110110100
00000000000000000011111110011010
00000000000000000001110011010010
11111111111111111101000000100010
11111111111111111111010110000011
00000000000000000001010010000011
00000000000000000011110011000011
00000000000000000010100110001011
00000000000000000101110000100011
11111111111111111111111011101111
11111111111111111110110111011111
00000000000000000011001110110011
00000000000000001000000111111111
11111111111111111111110100001010
00000000000000000001010011011101
00000000000000000011011100001101
00000000000000000010100100001010
00000000000000000001000010011010
00000000000000000010100000001100
11111111111111111101000001011010
00000000000000000001001101000000
00000000000000000000000110100110
11111111111111111110110101111010
11111111111111111111101010011000
11111111111111111111001001111001
11111111111111111101110100001100
00000000000000000011000100010101
00000000000000000001001000100101
00000000000000000110011100110011
11111111111111111110100110011011
00000000000000000000111001100010
11111111111111111111110111000101
00000000000000000000010001011001
00000000000000000000000110000011
11111111111111111000100110001111
00000000000000000000111010011001
11111111111111111101011011011011
11111111111111111111011110100001
11111111111111111110010000011111
00000000000000000000001100001000
11111111111111111101011100100110
00000000000000000010100110010010
11111111111111111100000000010000
00000000000000000000010101111000
11111111111111111111011010110010
11111111111111111110101000001111
11111111111111111101001100011101
00000000000000000010001101001111
11111111111111110111101110001001
11111111111111111111101111110110
00000000000000000010110101111111
00000000000000000100101000110000
11111111111111111011010111101111
00000000000000000001100011011011
11111111111111111101100111010101
11111111111111111100011000100010
00000000000000000100100011000001
00000000000000000001010001100010
00000000000000000000010001101111
11111111111111110110100001101100
11111111111111111010101110101111
11111111111111111100110100000001
00000000000000000001111010001111
00000000000000000000011010110101
00000000000000000001000001110001
11111111111111111111010010010110
11111111111111111110100010111111
11111111111111111111110001110100
00000000000000000000111111000100
00000000000000000100011001100100
11111111111111111101011011111110
11111111111111111111010001111111
11111111111111111011101001111011
00000000000000000011000110000001
11111111111111111110011001001100
11111111111111111100010111000110
11111111111111111100000110100010
00000000000000000100010100101001
11111111111111111111101100110011
00000000000000000000011001100110
00000000000000000010011001010100
11111111111111111110111110100011
00000000000000000000111110111000
00000000000000000100000111100011
00000000000000000011010101001010
00000000000000000000000110001110
00000000000000000001011000100011
00000000000000000100001011110001
11111111111111111010001101000000
00000000000000000000010101011010
00000000000000000001010101111101
11111111111111111100001110111111
00000000000000000000001100001000
11111111111111111100100110100011
11111111111111111110001110110110
00000000000000000000000010001010
11111111111111111101011001010100
11111111111111111111001100001101
00000000000000000000011000100100
00000000000000000000100111110110
11111111111111111010111111110100
11111111111111111110001110100111
11111111111111111101110111111110
00000000000000000000000010110000
00000000000000000010100110001001
00000000000000000011111000011101
11111111111111111111010000011010
11111111111111111101101001100100
00000000000000000011000000101010
00000000000000000010011100001111
00000000000000000001011000010100
00000000000000000010000011001011
11111111111111111100110000101110
11111111111111111111100100111000
00000000000000000001110111010010
00000000000000000010100101111101
00000000000000000010101101101000
00000000000000000110111110000000
00000000000000000000101100100100
00000000000000000001100101011101
00000000000000000001011100010101
00000000000000000011010011111111
11111111111111111110010110011010
00000000000000000011010001011110
11111111111111111110111010101001
11111111111111111110001000101100
11111111111111111111110001001011
00000000000000000000001101101111
00000000000000000010110111110011
00000000000000000000001010100000
11111111111111111111101100110011
11111111111111111110111111111101
11111111111111111111010101000110
00000000000000000100010110001111
11111111111111111111001000010000
11111111111111111111110001011111
11111111111111111111011000011001
11111111111111111100001011000010
11111111111111111111000101010110
11111111111111111101101110011011
11111111111111111110000100101100
11111111111111111100101010101010
11111111111111111101101000011111
00000000000000000011101101000011
00000000000000000000001110100011
11111111111111111011110111011001
00000000000000000001110100000000
11111111111111111110010011011101
00000000000000000010100111101110
11111111111111111111010111010110
11111111111111111101101101100110
00000000000000000100010011111001
11111111111111111111111001000111
00000000000000000100111100000100
00000000000000000010101110111001
00000000000000000000010001111011
11111111111111111111000111100010
00000000000000000000010010101111
00000000000000000011000011000111
11111111111111111111111100100110
11111111111111111100001101111111
11111111111111111111001011011101
11111111111111111010000101000011
11111111111111111111001001110110
11111111111111111111100100100111
00000000000000000000010000111011
11111111111111111011100100010000
00000000000000000100001011101100
00000000000000000010100110100110
00000000000000000000011010010011
11111111111111111110100110011100
00000000000000000001000101111110
11111111111111111110100001011110
11111111111111111101001010011101
00000000000000000000011011100110
00000000000000000110000000000000
00000000000000000010110100011011
00000000000000000011101110111001
00000000000000000000001100000010
00000000000000000001010010001101
11111111111111111100010011000111
11111111111111111100111000111001
11111111111111111100110010101110
11111111111111111011111110010110
00000000000000000000001000100100
11111111111111111110111100101100
00000000000000000100011010001100
11111111111111111111011001010010
11111111111111111110011110000101
00000000000000000001011101111010
00000000000000000010001111100000
00000000000000000010000111101100
11111111111111111110011111100010
11111111111111111110011011101100
11111111111111111100011010101111
11111111111111111110110001011100
00000000000000000001001101010101
11111111111111111111101011001100
00000000000000000001001101100000
00000000000000000000000000010100
11111111111111111110011010101111
00000000000000000110110010001001
11111111111111111111011111110011
00000000000000000000001111101010
00000000000000000000000011110011
00000000000000000001111100011011
11111111111111111101100100010110
00000000000000000010000011001111
00000000000000000100100011101001
11111111111111111111101110010000
11111111111111111100010010100000
00000000000000000001001101011000
11111111111111111111111001110011
00000000000000000010000100101010
00000000000000000001100000001010
00000000000000000000110111010100
00000000000000000000011000110011
11111111111111111110100010100001
00000000000000000011101000100110
00000000000000000011111111111101
11111111111111111110110000000001
11111111111111111110111011001101
11111111111111111110011010110000
11111111111111111010011101110010
11111111111111111111011010100111
11111111111111111111100100111011
11111111111111111101000001111010
11111111111111111110100101100011
11111111111111111011110000110011
11111111111111111110110001011100
11111111111111111111011101010111
00000000000000000000110000110111
11111111111111111110010101100000
00000000000000000000101110110110
11111111111111111101101001111111
11111111111111111110110011101000
00000000000000000001110110101100
00000000000000000001100011100000
11111111111111111110110011110100
11111111111111111111010111110001
11111111111111111101000111000101
11111111111111111011101100010101
00000000000000000001111101000010
00000000000000000101001010100000
11111111111111111101101111111010
00000000000000000000110101011111
00000000000000000011010000010011
11111111111111111011011110110110
11111111111111111111111100101111
00000000000000000001011110000101
00000000000000000011101001011010
11111111111111111110100101000100
00000000000000000001101110110100
00000000000000000000000000110111
11111111111111111110011001101010
00000000000000000011001111010010
11111111111111111110100001101011
00000000000000000000000011100000
00000000000000000000001011000111
11111111111111111110100010110110
11111111111111111110111001000001
00000000000000000000001101011111
11111111111111111110000100101011
00000000000000000000001001001010
00000000000000000000000110011010
11111111111111111110111111011001
00000000000000000000001110011000
00000000000000000000111010111001
11111111111111111111100011010101
00000000000000000110010101001000
11111111111111111111111010111101
00000000000000000010000011101000
00000000000000000011101011101110
11111111111111111101111111100110
11111111111111111010101001011111
11111111111111111110011000111100
00000000000000000011101010101101
00000000000000000101000111001010
00000000000000000000100111000011
00000000000000000001011101010111
11111111111111111111011000111100
00000000000000000000110001000010
00000000000000000011100000011101
00000000000000000000001001010010
11111111111111111110001100000100
11111111111111111100110101011101
11111111111111111111000110110100
11111111111111111111011000010101
11111111111111111010100111011111
11111111111111111101111010011110
11111111111111111001111011010011
00000000000000000000011011100001
00000000000000000100111011111111
00000000000000000010100010011001
00000000000000000011011110111110
00000000000000000001010110011001
00000000000000000011010110110000
00000000000000000101011001100000
11111111111111111011110010100101
00000000000000000000100011101011
00000000000000000010001011100111
00000000000000000010111100011000
00000000000000000000110110100001
11111111111111111111100000110001
00000000000000000001010010111111
00000000000000000001011100110111
00000000000000000100110110001101
00000000000000000100011110100000
11111111111111111011101011110011
11111111111111111000110011000010
11111111111111111101011001110011
11111111111111111110011011011000
00000000000000000001100010001000
00000000000000000000111000011001
00000000000000000001100001000010
00000000000000000010000010110100
11111111111111111100101110101110
00000000000000000001111110110010
11111111111111111110101100000101
11111111111111111101101010000111
00000000000000000001000010000100
00000000000000000000110000011101
00000000000000000001011000100101
11111111111111111111000000111101
00000000000000000010101101110001
00000000000000000010010010000000
00000000000000000000000110000110
11111111111111111111101000011100
11111111111111111111111100000011
11111111111111111101001100111011
00000000000000000011100110001011
11111111111111111111100000100001
00000000000000000000100000100010
00000000000000000001011101110110
11111111111111111100101010100110
11111111111111111111110001100100
00000000000000000010001101111110
00000000000000000001011111011000
11111111111111111110001101001000
00000000000000000100011101010011
00000000000000000000100001011000
11111111111111111111101110010110
11111111111111111111100110100100
11111111111111111111100110000011
00000000000000000100011101001111
11111111111111111111011000010100
00000000000000000011001011000001
00000000000000000010000001101111
00000000000000000001011001001000
00000000000000000011100001000010
00000000000000000000001101111000
11111111111111111101010001110011
00000000000000000001110001111101
00000000000000000011101011010011
00000000000000001000000000010010
00000000000000000001000111101101
11111111111111111111101000000011
00000000000000000010110111001010
11111111111111111011111101011000
11111111111111111111010010000001
00000000000000000000101010110100
11111111111111111100100100101111
00000000000000000001010100011010
11111111111111111110101101110111
00000000000000000001010101100100
11111111111111111101010001100110
00000000000000000000011101110111
00000000000000000010000000110011
00000000000000000100011100101001
11111111111111111101111100010100
00000000000000000010010101100010
00000000000000000000101010001001
00000000000000000010000110010011
00000000000000000101001101110001
11111111111111111101011010011001
11111111111111111011010111011111
00000000000000000010111000011101
11111111111111111111010010011011
11111111111111111111011010111001
11111111111111111101101000100000
11111111111111111111000110111110
11111111111111111101001000100101
00000000000000000001000101010100
00000000000000000100001000110111
00000000000000000000101011010010
00000000000000000000011111011110
00000000000000000000010111110110
00000000000000000010011101100110
11111111111111111110001011000011
11111111111111111111111000110000
11111111111111111100100010001111
00000000000000000010010100011101
00000000000000000001101111110110
11111111111111111111000011111011
00000000000000000001110011100011
11111111111111111110000110110100
00000000000000000000000000110101
00000000000000000100001001001100
11111111111111111111010001011001
11111111111111111110010100010101
11111111111111111110110100110001
11111111111111111101111111001011
11111111111111111110110010010100
11111111111111111100000001000010
11111111111111111010001001011000
11111111111111111110100110110010
11111111111111111111010010001000
00000000000000000100000011011010
11111111111111111111010101111111
00000000000000000100000100101101
00000000000000000001110110111111
11111111111111111111101001010000
11111111111111111110011001000000
00000000000000000011001001111001
11111111111111111111110001110010
00000000000000000001011000010111
00000000000000000001011010101110
11111111111111111010001000000100
00000000000000000001001100001010
11111111111111111010101111101001
00000000000000000000010001000111
00000000000000000001000110110011
00000000000000000100110010001110
11111111111111111101011010011000
00000000000000000001100100000011
00000000000000000000111111111101
00000000000000000101111110001101
11111111111111111101111011011011
00000000000000000010001001011100
00000000000000000011011010001000
11111111111111111011010100101011
11111111111111111111001100001000
00000000000000000000010001101011
11111111111111111110100111011011
00000000000000000000100100010010
00000000000000000001111111010010
00000000000000000001111011011001
00000000000000000100111001000100
11111111111111111011010111011110
00000000000000000001000101010100
11111111111111111110101100101001
11111111111111111110010101111111
00000000000000000000111111100110
00000000000000000100111101011110
11111111111111111100101101010101
11111111111111111101101101011000
11111111111111111111010101001101
00000000000000000000011001000101
00000000000000000000101011001101
11111111111111111111011001010101
00000000000000000011000110101110
00000000000000000010011001110100
00000000000000000000011000011001
00000000000000000101100001110101
11111111111111111100001001000100
00000000000000000101000100001111
11111111111111111110110110100001
00000000000000000010001110100111
11111111111111111111110000000111
11111111111111111111011101111110
11111111111111111110011010011110
00000000000000000010100100100111
00000000000000000000000111101111
00000000000000000010001011101001
11111111111111111111010010010000
00000000000000000001011100010110
00000000000000000001001111001101
11111111111111111101011101011001
00000000000000000010010110110100
00000000000000000100010001111111
00000000000000000010001111111001
11111111111111111111101101111010
11111111111111111110001110100011
11111111111111111100011111011011
11111111111111111101111100010000
00000000000000000001011100001100
00000000000000000001100110001111
00000000000000000000011100011101
11111111111111111111110101110101
11111111111111111110101110000110
00000000000000000001100100000000
00000000000000000010000001000110
00000000000000000001000101001000
00000000000000000000011101011100
00000000000000000000111000111010
00000000000000000001110111001101
11111111111111111101100001100100
11111111111111111111111011001110
11111111111111111110110010001000
00000000000000000010000000111111
00000000000000000001001101000100
00000000000000000111011100101110
00000000000000000001011011111100
00000000000000000000110101011001
00000000000000000011011111011000
00000000000000000100110110111111
00000000000000000010100010000011
00000000000000000010010001011011
00000000000000000001011001010111
11111111111111111100111010011010
11111111111111111100100011010010
11111111111111111110110011001000
00000000000000000000011100011010
11111111111111111110110110111001
11111111111111111110100100101010
11111111111111111111001010000011
00000000000000000010010110110110
11111111111111111110101100010100
00000000000000000010011101111101
00000000000000000010010001001000
11111111111111111011000010001000
11111111111111111111111110001100
00000000000000000010110011111110
00000000000000000101000001110011
00000000000000000000010101011001
11111111111111111110100100010101
11111111111111111111100100011011
00000000000000000010011001101001
11111111111111111110101001001101
11111111111111111110100110010001
11111111111111111101110000011110
00000000000000000000010100001101
11111111111111111010100000111111
11111111111111111110011010000111
00000000000000000000110101001110
11111111111111111110111111010000
00000000000000000010000110001110
00000000000000000101000110100100
11111111111111111101010101010000
00000000000000000001011110011000
00000000000000000000101101011100
11111111111111111111110110101011
11111111111111111111100101000001
11111111111111111111100110011101
11111111111111111101110000110111
00000000000000000000010001011011
00000000000000000011000110101111
11111111111111111100111101101001
11111111111111111111111001001011
11111111111111111100100111100101
11111111111111111100011000010010
11111111111111111011100011101000
11111111111111111011101011000011
11111111111111111101000010111110
00000000000000000000111111010101
11111111111111111010110101101011
00000000000000000001000011101000
11111111111111111111011100011010
11111111111111111111111010101100
11111111111111111110100111011111
11111111111111111101101011101110
00000000000000000001011101100110
11111111111111111110011111111100
11111111111111111100100000110110
11111111111111111101110001101011
00000000000000000010010100111100
11111111111111111110011111010100
11111111111111111110001110011001
11111111111111111100100111100010
00000000000000000000101010111000
11111111111111111011100110100000
11111111111111111100010101001010
11111111111111111101011000001101
00000000000000000100011110111000
11111111111111111100111100011010
11111111111111111111110011011101
11111111111111111110101010100101
00000000000000000001110111100000
11111111111111111110010100111000
00000000000000000001100010001110
11111111111111111111000110110111
00000000000000000101110010101011
00000000000000000010011000010101
11111111111111111111010101100110
00000000000000000010000000111110
11111111111111111100000101001010
11111111111111111101010011010011
11111111111111111101011111011111
11111111111111111100011010101110
11111111111111111110110010010110
00000000000000000010011100011000
11111111111111111100111111111000
11111111111111111101011001000100
11111111111111111000111101101101
00000000000000000010110000100101
11111111111111111110101000011101
00000000000000000000100101110101
11111111111111111101000111110011
00000000000000000001110100010111
11111111111111111110011111000001
00000000000000000010101010001000
11111111111111111100101111011100
00000000000000000011100011111100
00000000000000000100010011010100
11111111111111111101001101011001
00000000000000000000000111110011
00000000000000000000000001111010
00000000000000000011001000100110
00000000000000000001001100101101
00000000000000000011111000000010
00000000000000000000000100100011
00000000000000000010001000110110
00000000000000000100001000111110
11111111111111111110011010001111
00000000000000000101101001111011
11111111111111111100001011110001
00000000000000000001010100101001
00000000000000000001010110110110
00000000000000000011101001110010
00000000000000000000100101001101
00000000000000000000100000000101
11111111111111111011000110110100
11111111111111110111111010110110
11111111111111111100001100000011
11111111111111111001100010110100
00000000000000000000101011011010
00000000000000000011000010001001
00000000000000000010000111000101
00000000000000000001010000111000
00000000000000000010010011110111
00000000000000000000010011101000
11111111111111111110110101000100
11111111111111111111101101001000
11111111111111111100111111101001
11111111111111111111100111011000
11111111111111111111010100111011
11111111111111111101101101111000
11111111111111111111101110101011
00000000000000000000101110000101
00000000000000000001001011001110
00000000000000000001010001101100
11111111111111111001101101001010
00000000000000000001010011001110
00000000000000000000000111100001
11111111111111111110010100010011
11111111111111111110011110110011
00000000000000000110110101011100
11111111111111111101010111001110
00000000000000000000110101111100
11111111111111111111010000100100
11111111111111111110110110011111
00000000000000000010100100000100
11111111111111111110100010110111
11111111111111111110000111001110
11111111111111111110000001100110
00000000000000000000110001001011
11111111111111111110101001111111
00000000000000000011001010001110
11111111111111111011010101101010
11111111111111111101001001010010
00000000000000000011101100100110
00000000000000000000000101010010
00000000000000000000111111111110
11111111111111111100101000010110
11111111111111111110111011110100
11111111111111111101101000111111
11111111111111111110110111111000
00000000000000000000001000111101
00000000000000000000100011000101
00000000000000000001101010100011
11111111111111111110001110111000
00000000000000000000111100101101
00000000000000000011100001100001
00000000000000000011100010100100
00000000000000000011001101001111
00000000000000000011010010011000
11111111111111111110101011110011
11111111111111111011111010010010
00000000000000000101010001110110
11111111111111111111111110111101
11111111111111111100010010010110
00000000000000000010100100011011
11111111111111111110010000000100
00000000000000000010110100101110
00000000000000000001101010111000
11111111111111111110110110001000
11111111111111111111110001010011
11111111111111111011110001110010
11111111111111111100111111100101
00000000000000000000110100001110
00000000000000000100101101100010
00000000000000000000100101000101
11111111111111111101110000101001
00000000000000000010000100100000
11111111111111111100111010110000
00000000000000000011001100010010
00000000000000000001101101110100
00000000000000000100111100000101
11111111111111111110100001001111
00000000000000000010001111110001
11111111111111111100010111010010
00000000000000000000110001011100
00000000000000000010000110111110
11111111111111111110011111011001
11111111111111111010111000110111
00000000000000000010000010111100
11111111111111111111101011000100
11111111111111111101010001001100
11111111111111111111010001110001
00000000000000000011010100111101
00000000000000000001010000111100
00000000000000000000000011101111
00000000000000000001111000111011
00000000000000000101100100111001
00000000000000000001100110111111
00000000000000000001101110101110
11111111111111111111011111111111
11111111111111111100111010110101
00000000000000000000110001000001
00000000000000000100001111001110
11111111111111111110010111011111
11111111111111111110101000100010
00000000000000000101100110101011
00000000000000000000101011101100
00000000000000000001011100101110
00000000000000000001100000101010
00000000000000000001010111111101
00000000000000000001100000001101
00000000000000000011010010101100
11111111111111111111100000010010
11111111111111111111111100011110
11111111111111111111011001010110
00000000000000000101000010110101
00000000000000000010010110010100
11111111111111111100010101101001
00000000000000000011000000000011
00000000000000000010111101011010
00000000000000000011101100010101
11111111111111111101010000101100
00000000000000000001011001101010
11111111111111111011111011001011
11111111111111111111011011010111
11111111111111111100000011011101
11111111111111111101011000111001
00000000000000000000110111110101
00000000000000000011101011010110
11111111111111111111011001011001
11111111111111111101100011010010
11111111111111111101000000000001
11111111111111111101010001011001
11111111111111111100100001111101
11111111111111111111111111010001
00000000000000000010001101111010
11111111111111111111011101110000
00000000000000000100010011100000
11111111111111111100011110100101
11111111111111111111110000000101
00000000000000000010010000010000
00000000000000000001111000010100
00000000000000000001100011000001
00000000000000000001001001001010
11111111111111111101100101000001
11111111111111111100010011100001
11111111111111111110110010000010
00000000000000000000110101001011
11111111111111111110101010100011
11111111111111111111001000111101
11111111111111111101001101100001
00000000000000000000101111100001
00000000000000000000001110011000
00000000000000000100011111111001
00000000000000000011011011011010
11111111111111111101110110101110
11111111111111111101110011001101
00000000000000000000100111110110
00000000000000000000001001111110
11111111111111111111100101111010
00000000000000000000010010111010
11111111111111111110110110001100
11111111111111111110101100011101
00000000000000000000010111011001
11111111111111111100100100100001
11111111111111111100110110111111
11111111111111111011011010111011
11111111111111110111111000000111
11111111111111111111010101100010
11111111111111111111110010000100
00000000000000000001101001010001
11111111111111111110101111011110
00000000000000000010101101100011
00000000000000000100001011110101
11111111111111111110011001100111
11111111111111111111001100010100
00000000000000000000000000001110
00000000000000000000010101100100
00000000000000000001100000011011
11111111111111111111111111000110
11111111111111111111001100001000
00000000000000000010010000101111
11111111111111111111100011000110
00000000000000000000010011110101
00000000000000000000110111111000
00000000000000000010000101010111
00000000000000000010100010111110
00000000000000000010000001001111
00000000000000000011011011111011
00000000000000000000101101000001
11111111111111111100100001000011
11111111111111111110010101010101
00000000000000000001100010110111
11111111111111111110111100100101
11111111111111111111110001001011
00000000000000000000111100110100
00000000000000000101000110010001
11111111111111111101010011111100
00000000000000000000010101111101
00000000000000000010000000000000
11111111111111111110100101110011
11111111111111111110111011110011
00000000000000000100001100001100
00000000000000000010110011011010
11111111111111111111100001010010
11111111111111111111010010111000
00000000000000000000010101110010
11111111111111110110110110100110
11111111111111111111111100110000
11111111111111111111001000110111
11111111111111111101000011000101
00000000000000000000100001010111
00000000000000000010101010100110
00000000000000000011011010010001
11111111111111111110111001110000
00000000000000000000110000001010
11111111111111111111100111011110
11111111111111111110011100000110
00000000000000000001011001001010
11111111111111111101010011000111
11111111111111111101101101101101
11111111111111111101000001000001
00000000000000000000001110010000
00000000000000000011010111100100
00000000000000000010110011100011
11111111111111111101010011011000
11111111111111111111010001010011
11111111111111111101001000010100
00000000000000000000100001011101
00000000000000000000100011000000
11111111111111111100001000111000
00000000000000000000101000111110
11111111111111111000111111001110
00000000000000000001010000001100
00000000000000000001100100110101
00000000000000000010011010011111
11111111111111111101011011001011
11111111111111111111001101110110
00000000000000000000011010101111
00000000000000000101111001101000
00000000000000000000100001011000
11111111111111111110000101100101
00000000000000000000101100101110
00000000000000000010111111010101
11111111111111111110011000110111
11111111111111111110000000111100
00000000000000000001101110011110
11111111111111111011111101101111
00000000000000000010001011001110
00000000000000000000010111011111
11111111111111111110100101111010
11111111111111111110111011100111
11111111111111111110011100001000
00000000000000000001001110110110
00000000000000000000101100010110
11111111111111111101000101110101
00000000000000000101001111100101
11111111111111111110010011110001
11111111111111111110011001100101
11111111111111111011100000010011
00000000000000000010001111001101
11111111111111111111011001100000
11111111111111111101101111101000
11111111111111111100100000010001
00000000000000000010010111110101
11111111111111111111110011101111
00000000000000000001010001110000
00000000000000000000100100101010
00000000000000000000001110111010
11111111111111111110011010100110
11111111111111111111000101011110
11111111111111111111100001111011
00000000000000000011010000000100
11111111111111111111100101000001
00000000000000000100100110011001
11111111111111111101011010101110
11111111111111111110100101011100
00000000000000000100001110010111
00000000000000000001100100110001
00000000000000000011000100011111
00000000000000000010110010000110
00000000000000000101010101111000
00000000000000000000111000010111
00000000000000000001101111100000
11111111111111111110111110111000
11111111111111111110111101000001
11111111111111111101110001011101
11111111111111111011111011111100
11111111111111111110110000110110
00000000000000000010010111110101
11111111111111111100011110011010
00000000000000000001001111100010
00000000000000000100101001101000
11111111111111111111001011100110
11111111111111111101110100111110
00000000000000000001001110101001
11111111111111111011000101101100
11111111111111111111100011011110
00000000000000000001011010011111
00000000000000000011000101101011
00000000000000000001010101100101
11111111111111111111000110110000
00000000000000000000101111001110
11111111111111111010111101101001
00000000000000000011110110101000
00000000000000000000101000101101
11111111111111111111110100001111
11111111111111111111111110110000
00000000000000000010101011010010
11111111111111111100110010100011
11111111111111111101110000011101
00000000000000000001010110010101
11111111111111111110100110001001
11111111111111111011110101101100
11111111111111111110000001100100
11111111111111111101100100100101
00000000000000000000010101110000
00000000000000000010011110000011
11111111111111111111010110111010
00000000000000000000010111110101
11111111111111111110111011100001
11111111111111111111000001011010
11111111111111111011100110001011
11111111111111111110101111110100
11111111111111111010100001111100
00000000000000000010000111011100
11111111111111111110100100101100
11111111111111111101111110001100
00000000000000000011100011011111
11111111111111111010010110010001
11111111111111111110100101100011
11111111111111111101111011011000
11111111111111111111011000000110
11111111111111111101010110101010
11111111111111111101000001011001
11111111111111111101000011101100
00000000000000000000000100001010
00000000000000000011001101001111
11111111111111111111011011001010
11111111111111111111011010001101
00000000000000000001111001010001
11111111111111111100110000111000
00000000000000000001111110001011
11111111111111111110010110110010
00000000000000000001010001000111
11111111111111111111100111010011
11111111111111111110100011010010
00000000000000000100000100101100
11111111111111111101010110000011
00000000000000000110100011101111
00000000000000000001011100101101
11111111111111111010001101001111
11111111111111111101101001001000
00000000000000000101010000101110
00000000000000000000010110100001
11111111111111111111011110111000
00000000000000000010110011100010
00000000000000000010100010101010
11111111111111111101000000111001
11111111111111111111101011011100
11111111111111111101101000010101
00000000000000000001101010100110
00000000000000000010000110001101
00000000000000000001100001110000
11111111111111111101011100100101
11111111111111111100110010011011
00000000000000000010100100000111
00000000000000000010110000101111
00000000000000000001101100000111
00000000000000000001011101010011
11111111111111111111110001111000
00000000000000000000000101101111
00000000000000000000100111001001
00000000000000000001010000100100
00000000000000000111100110011110
00000000000000000011101000011111
11111111111111111111010111110101
11111111111111111101000110110000
11111111111111111110011110010110
00000000000000000010100011011100
00000000000000000100110111000100
00000000000000000010110010011101
00000000000000000000101001001111
00000000000000000101101010000101
11111111111111111110001010001100
11111111111111111111001100010001
00000000000000000010000110000110
11111111111111111110111000011110
11111111111111111101101000010101
00000000000000000101001011101010
00000000000000000000111111111110
00000000000000000000010101000011
00000000000000000001000110010111
00000000000000000001110010000101
11111111111111111011000011111001
00000000000000000010010110011010
00000000000000000010100010101111
00000000000000000100010000001001
00000000000000000010100101011011
11111111111111111110110010111111
00000000000000000100001110101111
11111111111111111110010110010110
11111111111111111001111000010000
00000000000000000011110101100101
11111111111111111011011111100101
00000000000000000010110011000111
00000000000000000011010010111000
11111111111111111011100111101101
11111111111111111110001110111010
11111111111111111111011100111100
00000000000000000001000001010100
11111111111111111111011110011100
11111111111111111110101010010111
00000000000000000001100100101001
00000000000000000001100110111001
11111111111111111110111101010111
11111111111111111101101110111011
11111111111111111111100100000100
00000000000000000101100100010001
11111111111111111111110111111001
11111111111111111110110010100101
11111111111111111101010001101110
11111111111111111110011110110111
11111111111111111110111011101010
11111111111111111110011001010000
11111111111111111110111000000101
11111111111111111111111111010111
11111111111111111100101111001100
00000000000000000001111101111000
00000000000000000011110001000111
00000000000000000001011111111100
11111111111111111100111000101000
11111111111111111101110010110110
11111111111111111110100110101111
11111111111111111001101111110101
11111111111111111111000000000100
00000000000000000001110001001111
11111111111111111100001100110000
00000000000000000011000001101010
11111111111111111010001011000011
11111111111111111111001000010110
11111111111111111100101110011101
11111111111111111010000010001110
11111111111111111101001010000110
00000000000000000000101000000000
00000000000000000001000010000101
00000000000000000001101111010111
11111111111111111110010000111000
00000000000000000010100111100011
11111111111111111101101010110110
00000000000000000001011000001001
00000000000000000000111001110101
11111111111111111111011000000100
00000000000000000000100011001000
11111111111111111110101011111000
11111111111111111101101000001000
11111111111111111110101001110110
00000000000000000001001111101100
11111111111111111101110100011001
00000000000000000010110001110001
00000000000000000000001000101110
11111111111111111110111000010100
11111111111111111111101000100011
00000000000000000001000101100000
11111111111111111111011110101110
11111111111111111111011100111100
00000000000000000000010111111010
11111111111111111101110110111110
11111111111111111100111001111111
11111111111111111101100000100101
11111111111111111111010001100110
00000000000000000011000110101001
11111111111111111011111100010111
11111111111111111110011010001101
11111111111111111010010110011101
11111111111111111111100011111011
00000000000000000000010110000110
00000000000000000000010111100111
00000000000000000001011011101010
11111111111111111101100111111000
11111111111111111101101001100101
11111111111111111101001110010010
00000000000000000001010111010110
00000000000000000000100100011000
11111111111111111110001011011011
00000000000000000011001000100101
11111111111111111010000011101010
00000000000000000010001010000001
11111111111111111111100100100011
11111111111111111111010110000000
00000000000000000110011000111010
00000000000000000001010100011011
11111111111111111111110010101111
00000000000000000000111010001000
11111111111111111101111110100001
11111111111111111101111000100011
00000000000000000111111001111011
11111111111111111101101010100001
00000000000000000001000000010111
00000000000000000010100010100111
00000000000000000001111100010100
00000000000000000010100000000101
11111111111111111110101010100000
11111111111111111110000110010010
00000000000000000001010001101110
00000000000000000110100101100011
00000000000000000011010010110100
11111111111111111011010011100011
11111111111111111110011000000101
11111111111111111101111111100110
00000000000000000001100101011110
00000000000000000000010100111111
11111111111111111111110100101010
00000000000000000001100111001111
11111111111111111111010110111011
11111111111111111100011010000001
11111111111111111111100110100111
11111111111111111101100101111110
11111111111111111110111000100111
00000000000000000011001101010010
00000000000000000000101101000110
00000000000000000010110010101101
00000000000000000000101010101110
00000000000000000000011000100101
00000000000000000011101100000101
00000000000000000001101011001011
11111111111111111100011101100100
00000000000000000110010001001100
11111111111111111111110111010101
11111111111111111111101010000000
11111111111111111010100010011101
11111111111111111111100010110001
11111111111111111011010001000011
00000000000000000000001000001011
00000000000000000000000000011000
11111111111111111110110110010000
11111111111111111010101000001110
11111111111111111101101111101110
00000000000000000011000110011110
00000000000000000001111111010011
00000000000000000001001100110011
11111111111111111110111010001001
00000000000000000000110010110111
00000000000000000000000010001001
11111111111111111111111011110110
00000000000000000010100010100010
11111111111111111101111100111000
00000000000000000101010010101010
00000000000000000010011000000110
11111111111111111110110111000111
00000000000000000001011001110110
00000000000000000001000111101111
11111111111111111111101010111110
00000000000000000000001010100100
11111111111111111110011011010110
11111111111111111110000011101010
00000000000000000011011110110111
11111111111111111110101010000000
11111111111111111101011111010100
11111111111111111110000000000011
00000000000000000001001101101011
11111111111111111010011010101001
11111111111111111101001100011010
11111111111111111110100101110010
00000000000000000001111010000111
11111111111111111110110000111111
11111111111111111101000110001010
11111111111111111011111010111101
11111111111111111110001100000001
00000000000000000011100000110001
00000000000000000001100100110001
00000000000000000001101111101000
11111111111111111111101001001100
00000000000000000010110111100001
00000000000000000100100101000111
00000000000000000001100100111001
00000000000000000001100110011010
00000000000000000010001111111011
00000000000000000100001001101111
11111111111111111001010000010101
00000000000000000001100001100110
00000000000000000001100110011100
11111111111111111110001001001101
00000000000000000011100111111011
11111111111111111101000011110100
00000000000000000011000011001001
11111111111111111111011010110011
00000000000000000011011010111000
11111111111111111111110101011010
11111111111111111110001010110000
00000000000000000010001111110000
11111111111111111111001001010101
00000000000000000010100110101000
11111111111111111101000001001101
11111111111111111110001101111000
11111111111111111111011100110110
00000000000000000010000000110110
00000000000000000001100111001010
00000000000000000010001001000101
11111111111111111111101101001010
11111111111111111101010101010100
00000000000000000000000000001001
00000000000000000000111110110011
11111111111111111101110010000100
11111111111111111110011010101110
11111111111111111111011001010010
00000000000000000010011011010110
11111111111111111111110110010111
11111111111111111101010011100001
11111111111111111100101100101000
00000000000000000001001100011010
00000000000000000011011101000000
00000000000000000010011100011110
11111111111111111110100111001101
00000000000000000011011011011100
00000000000000000000000011001011
00000000000000000000011010001000
11111111111111111111110000111100
11111111111111111111111001011111
11111111111111111110110011100100
00000000000000000000100111110001
11111111111111111111010100100111
11111111111111111110000010001010
11111111111111111101010111101110
00000000000000000010010000111100
00000000000000000011001001111111
00000000000000000000111011010101
11111111111111111111010101110000
00000000000000000010111101000011
11111111111111111110000011001111
00000000000000000100001010011111
11111111111111111110110001101110
11111111111111111100111100101000
00000000000000000011001111011100
11111111111111111110001101101000
00000000000000000000100010101010
00000000000000000100101000011111
00000000000000000010001110000010
00000000000000000001110111001111
11111111111111111101001010001100
11111111111111111111010111111011
11111111111111111101010011011001
11111111111111111101010110110101
11111111111111111111000011001001
00000000000000000000100001111011
11111111111111111110011001111010
11111111111111111110101111000101
11111111111111111101101110111010
11111111111111111111000010101100
11111111111111111100010001111100
11111111111111111100100001110110
11111111111111111111011100111111
11111111111111111010110011010001
11111111111111111101011111001000
11111111111111111111110111111010
00000000000000000011111001101001
11111111111111111110101100010100
00000000000000000110110110001010
11111111111111111111111000111000
00000000000000000001000010001101
11111111111111111000110111011000
00000000000000000001011110000011
00000000000000000000011001111101
00000000000000000001101011101010
00000000000000000010000000001110
11111111111111111111100101001010
00000000000000000110011000000100
00000000000000000000010111110000
00000000000000000100100000111101
00000000000000000010011011101001
00000000000000000001100111011100
11111111111111111111010100100011
11111111111111111110000110011010
00000000000000000011010100110110
00000000000000000010100111100001
11111111111111111111110010010101
00000000000000000011110010101001
11111111111111111100100000110101
00000000000000000000001011101101
00000000000000000010000110100101
11111111111111111110101100100000
11111111111111111100011000011011
11111111111111111101011011110010
11111111111111111100010011110000
11111111111111111100011000010111
00000000000000000000011011010001
11111111111111111110011010011010
11111111111111111110000110001111
11111111111111111110010010101110
11111111111111111101101010110110
00000000000000000010101111111010
00000000000000000001101000101100
00000000000000000000000010110111
11111111111111111100010100100000
00000000000000000001000010001101
11111111111111111010110100001010
00000000000000000011000110111110
00000000000000000110111000111001
00000000000000000010111000100110
11111111111111111100000100110100
00000000000000000010001100100001
11111111111111111101010101001101
00000000000000000000001000101001
00000000000000000010100111111100
11111111111111111110111010110110
00000000000000000001100101010011
11111111111111111111000010001110
11111111111111111110011110110110
11111111111111111111111111011110
11111111111111111100111001111100
00000000000000000001100110101110
11111111111111111111110100101010
11111111111111111111010101111100
11111111111111110111111101000010
00000000000000000101001011101101
11111111111111111111110001100101
11111111111111111110101000011110
11111111111111111100110111101100
11111111111111111111101110011100
00000000000000000001010100101100
00000000000000000000001010100010
00000000000000000010001001101101
11111111111111111111101101000111
00000000000000000000110110011111
00000000000000000100100010000101
00000000000000000001011100101110
11111111111111111111111000110111
11111111111111111111110110110100
11111111111111111110010100011100
00000000000000000001000001010000
00000000000000000101110011100111
11111111111111111100010100100010
00000000000000000001001111000110
00000000000000000010101111001101
11111111111111111101111110110100
00000000000000000000100010110010
00000000000000000011111001111010
00000000000000000000010110000001
11111111111111111110101111110101
11111111111111111100110011011001
00000000000000000010110001010111
00000000000000000000110011110011
00000000000000000010010011010101
11111111111111111010010110100110
00000000000000000001000011100111
00000000000000000000010010111110
00000000000000000011001001111110
11111111111111111111000001011011
11111111111111111101110000100011
00000000000000000000000001111101
00000000000000000010110111101000
11111111111111111100001111011101
00000000000000000011101000110101
00000000000000000000000110000011
00000000000000000011100100011010
00000000000000000010010001101010
00000000000000000001011110011101
11111111111111111001101000001111
00000000000000000001000010101111
00000000000000000000010001110111
00000000000000000001100101011000
11111111111111111111010010001010
11111111111111111110101010001010
00000000000000000001001001111001
00000000000000000010011011001101
11111111111111111110111010101010
00000000000000000000111110101110
00000000000000000001010111010110
11111111111111111110101010000010
00000000000000000001111000001111
11111111111111111111010100011100
00000000000000000001010100100110
11111111111111111111010100101001
00000000000000000100000100001000
00000000000000000010111001000110
00000000000000000001111011000011
00000000000000000001000110110100
00000000000000000001111100010110
00000000000000000011101100010110
11111111111111111100110100010011
00000000000000000001011100101000
00000000000000000010101100000110
00000000000000000011000000110011
11111111111111111011001010101111
11111111111111111011111010100100
00000000000000000101101111011010
11111111111111111111001011010011
11111111111111111110110101111011
00000000000000000011100100110011
11111111111111111101110011101100
11111111111111111111100010001100
00000000000000000010000010000110
11111111111111111111100011101100
11111111111111111100101110000001
11111111111111111101111010101100
11111111111111111010010111011101
11111111111111111100011010010011
11111111111111111111100001110001
11111111111111111100000111100001
11111111111111111110010000100110
11111111111111111111001001101010
11111111111111111110010010001100
11111111111111111111110100100110
00000000000000000010010101000100
00000000000000000001101010100110
11111111111111111011111010011100
11111111111111111010001001101000
11111111111111111110101111100000
00000000000000000000010011000010
00000000000000000001000011001100
00000000000000000000000000110100
11111111111111111111110011010001
11111111111111111101011001001000
11111111111111111111110110110000
11111111111111111111011100101011
11111111111111111100011010011110
11111111111111111101111100110110
00000000000000000001011101110001
00000000000000000000010101010000
11111111111111111111110011001100
00000000000000000010001001100001
00000000000000000110000111111010
11111111111111111101101010111000
00000000000000000010000100110100
00000000000000000010000110011010
00000000000000000001100111011010
00000000000000000000111010101100
11111111111111111111100001110111
11111111111111111111000101000110
00000000000000000001001011011100
11111111111111111110001111011010
00000000000000000011101011001101
11111111111111111010111100001001
11111111111111111111000010101101
00000000000000000010011000010111
11111111111111111101101010100101
00000000000000000110100001110100
11111111111111111110001011110011
11111111111111111011010110010110
00000000000000000000110001101101
11111111111111111101111001010001
11111111111111111110111010011100
00000000000000000010101100111110
11111111111111111100010111011000
11111111111111111100110100110101
00000000000000000100001001010001
11111111111111111111001010000101
11111111111111111011111101011001
00000000000000000000011001101001
00000000000000000011011100111011
11111111111111111110100101011111
11111111111111111110001110010111
11111111111111111101001001111000
11111111111111111111111010010101
11111111111111111101010001111110
11111111111111111111100010001001
11111111111111111110110111101000
00000000000000000001000001010001
11111111111111111111001101010111
00000000000000000000011001111011
00000000000000000001110110101100
00000000000000000001100010011101
00000000000000000010011110101000
11111111111111111110101011010110
11111111111111111100011100010000
00000000000000000010001111011101
00000000000000000000101011001000
11111111111111111110111011011010
00000000000000000001100101110100
11111111111111111101010010001000
11111111111111111011010010101110
00000000000000000011000101011101
00000000000000000010000010111011
11111111111111111110000110111001
00000000000000000001100010010000
11111111111111111101101010110000
11111111111111111100111110111011
00000000000000000101100111001010
00000000000000000000001000110100
00000000000000000000101000101000
00000000000000000001111001011101
00000000000000000001011000111011
11111111111111111111001001111101
11111111111111111101111010001000
11111111111111111010110111111101
00000000000000000011110101111011
11111111111111111101010011111011
11111111111111111111000011111010
00000000000000000010011100100101
00000000000000000000001111110111
00000000000000000001010011011111
00000000000000000000111011111001
11111111111111111110111010110110
11111111111111111110111100001001
00000000000000000011000100101000
00000000000000000001111110101111
00000000000000000000100011010010
00000000000000000010101111011001
00000000000000000000100011010100
00000000000000000010000011000010
11111111111111111111001111011110
11111111111111111111110100000101
11111111111111111110100001110000
00000000000000000000000111000100
11111111111111111101011100010001
11111111111111111111010111110001
00000000000000000001011000111100
00000000000000000001011010000101
00000000000000000011001011101100
11111111111111111111111010001100
00000000000000000011011010010001
11111111111111111011001011000010
00000000000000000010111010110000
11111111111111111011100101110100
00000000000000000010001000010011
11111111111111111110010000011001
11111111111111111111111100101010
00000000000000000010111010000011
11111111111111111100000110100111
00000000000000000010101111001111
11111111111111111110010011010111
11111111111111111101010100010011
00000000000000000010111111101110
00000000000000000000001010000010
00000000000000000001110001111101
00000000000000000000000100100101
11111111111111111100001111111110
11111111111111111110010111001100
00000000000000000010100111010111
11111111111111111110100010001011
00000000000000000001111111010001
00000000000000000001001010101010
00000000000000000011001001100100
00000000000000000011101010100011
00000000000000000011110110001110
11111111111111111110110100011101
00000000000000000010001111110001
00000000000000000011111001110011
00000000000000000011011111001111
11111111111111111111000111011111
11111111111111111011101100101111
00000000000000000011000010110100
11111111111111111111100010101100
00000000000000000100011100100001
00000000000000000000100111110111
00000000000000000001101011101100
00000000000000000001001010111111
00000000000000000000010101011101
00000000000000000010111111100110
00000000000000000000000011111100
00000000000000000010010001111101
11111111111111111110101110000110
00000000000000000000100011010101
11111111111111111101000101100110
11111111111111111100100101100011
11111111111111111110001110100110
00000000000000000010010100010010
11111111111111111101010111000011
11111111111111111101110110010110
11111111111111111001000000011000
11111111111111111111110000011100
00000000000000000001001010010101
11111111111111111111010110110010
00000000000000000001110011111000
11111111111111111110110101000010
11111111111111111111100100101011
00000000000000000001000100111011
00000000000000000001111001010111
00000000000000000000000001000011
00000000000000000101000010111101
00000000000000000010011011101101
00000000000000000110010101101101
00000000000000000000011011111101
00000000000000000010011110010111
00000000000000000000010111101010
11111111111111111101111101011100
11111111111111111110110111001001
00000000000000000010000111001001
11111111111111111101111111110010
00000000000000000101000110101100
00000000000000000101010010110101
11111111111111111100101000100110
11111111111111111110101101110100
00000000000000000100011111111010
00000000000000000101100001011011
00000000000000000010001011110001
00000000000000000000110011001011
11111111111111111111111010110010
11111111111111111011110000110101
00000000000000000000000011101101
11111111111111111110000100110110
11111111111111111111110000100001
00000000000000000001001010011101
11111111111111111101100010100001
00000000000000000010010010000010
00000000000000000001100101101100
00000000000000000000100010100000
11111111111111111111100000000101
00000000000000000001110101000100
11111111111111111111101110001000
00000000000000000000110000110110
00000000000000000010110101010000
11111111111111111111010110110000
00000000000000000111111101111010
11111111111111111010000011101111
11111111111111111100000100001010
00000000000000000001101010001011
11111111111111111101011100100001
11111111111111111111011111011001
00000000000000000010100101010011
00000000000000000100010110111111
00000000000000000010101011011111
11111111111111111010000000010011
11111111111111111110011011111110
00000000000000000000011011011010
00000000000000000000111111111110
00000000000000000011010001011011
00000000000000000010000011000111
11111111111111111101000011001011
00000000000000000001011000001111
00000000000000000101000110011110
11111111111111111111011011000111
00000000000000000000001010011010
11111111111111111101010011011111
00000000000000000001101100010000
00000000000000000001101110111000
00000000000000000000001100100100
00000000000000000010001111011111
11111111111111111001001011100000
11111111111111111111101101111111
11111111111111111111111101111011
11111111111111111100111111111011
11111111111111111110000111000111
00000000000000000010100001110010
11111111111111111100010100010000
00000000000000000001000011011101
00000000000000000000110100000001
11111111111111111110110111000111
00000000000000000000111010110110
11111111111111111111010100100011
11111111111111111111010110010111
11111111111111111111011000010100
00000000000000000000011001001010
11111111111111111101101111100000
11111111111111111111001100010100
11111111111111111100101001100001
00000000000000000001001010100111
00000000000000000001011110110011
00000000000000000001111100100101
00000000000000000011100110100011
11111111111111111110001001101100
11111111111111111110000011101000
11111111111111111100001001110101
00000000000000000000010100100000
00000000000000000101100100010100
00000000000000000001100010000111
11111111111111111110001000011101
11111111111111111101111111010101
00000000000000000001001001011011
00000000000000000010101000110100
11111111111111111111110011110100
00000000000000000010111111101011
00000000000000000001101010001010
00000000000000000100101010001011
11111111111111111101010111010010
00000000000000000011001010110100
11111111111111111101011101000000
11111111111111111111001100000110
11111111111111111110101101100001
11111111111111111111100111100010
00000000000000000100001000111011
11111111111111111110100001110100
11111111111111111111111000111101
11111111111111111111010001100011
11111111111111111110101110000101
11111111111111111110000101110111
11111111111111111101010001111010
11111111111111111101100011100010
00000000000000000010010111110100
00000000000000000001000001011100
11111111111111111101110100010000
11111111111111111111110100000110
11111111111111111110100010000011
11111111111111111011001101000011
00000000000000000101101111001000
00000000000000000010100001000110
00000000000000000001011000001011
11111111111111111101101100000110
00000000000000000000011000100111
00000000000000000001111000101011
00000000000000000010010110000110
11111111111111111110110111011100
00000000000000000000001101110010
00000000000000000011001100001001
00000000000000000011100001011010
11111111111111111101111100111111
00000000000000000001000011001010
11111111111111111100100100000100
00000000000000000010110010011110
00000000000000000001111011100001
00000000000000000010100101001011
11111111111111111101111010010010
00000000000000000000110011001010
00000000000000000001000101010111
11111111111111111111111001111001
11111111111111111111001010110100
11111111111111111011111000000110
11111111111111111110101111000101
11111111111111111001101000101101
11111111111111111101000100000111
11111111111111111111010011000010
11111111111111111101001100100110
11111111111111111111110100101011
11111111111111111110010100001100
00000000000000000100001100011110
00000000000000000011100100101111
11111111111111111011110010010100
11111111111111111110110000001000
00000000000000000010111111001010
00000000000000000011000000010111
11111111111111111101101011001011
00000000000000000000010100111101
00000000000000000011100111110101
11111111111111111011110001000000
00000000000000000000110110101110
00000000000000000000011111011111
00000000000000000110000111000011
11111111111111111111110101100000
00000000000000000001010010001110
00000000000000000001100011111111
00000000000000000010011100111101
11111111111111111010101001111101
00000000000000000000010110000011
11111111111111111100001001001101
00000000000000000000010101000010
11111111111111111101111010011101
00000000000000000000000101111111
00000000000000000001011001001010
11111111111111111111011011000101
00000000000000000000010110110000
00000000000000000001001011011110
11111111111111111101011010100001
11111111111111111011100111011011
00000000000000000001000111010100
00000000000000000001001011010101
11111111111111111111100110110011
11111111111111111101000010100001
00000000000000000000000111110101
00000000000000000000110011100111
00000000000000000101110010101010
11111111111111111110000011001001
00000000000000000011011101100000
11111111111111111110010001011000
11111111111111111011001000010011
11111111111111111110100011000000
00000000000000000000011011000011
11111111111111111101111000100000
11111111111111111100010100011110
11111111111111111111101001000101
11111111111111111101101100110000
11111111111111111011110011111100
00000000000000000011001011010001
00000000000000000000111101011100
11111111111111111111010111110001
00000000000000000001010000111101
00000000000000000011011010100110
00000000000000000011000011111111
00000000000000000100010010101100
11111111111111111111001101001100
00000000000000000010001110000110
00000000000000000000111011011000
11111111111111111101011001110111
11111111111111111110100101010001
11111111111111111110100010110111
00000000000000000000111110101010
00000000000000000010100000010100
11111111111111111010101110011010
11111111111111111100101100100111
00000000000000000011010110110100
00000000000000000010001100010011
00000000000000000011010010101100
11111111111111111001100100101111
00000000000000000001111111111110
00000000000000000001010110001000
00000000000000000011101011100101
00000000000000000000011110000000
11111111111111111100100101001100
00000000000000000000100010000000
11111111111111111100101110001100
00000000000000000000110011011001
11111111111111111101110101000000
00000000000000000100100101100100
11111111111111111101111110000000
11111111111111111100001000000100
11111111111111111110010101011010
11111111111111111110101110101110
00000000000000000001011110111000
11111111111111111101101101110100
00000000000000000001000110110100
11111111111111111110010011001110
11111111111111111111011011100011
00000000000000000010101011100110
00000000000000000100100110000000
11111111111111111101100000111001
11111111111111111010100101101111
00000000000000000001010100010110
00000000000000000010000000100010
11111111111111111101101000101101
00000000000000000100110110011111
11111111111111111111011010001001
11111111111111111110110100010100
11111111111111111110111010111011
11111111111111111111000111110110
00000000000000000000101111101101
11111111111111111110010101101101
11111111111111111110111110111100
00000000000000000000101010011100
11111111111111111101011110110101
11111111111111111101111011101011
11111111111111111101111110000111
00000000000000000010011010010110
00000000000000000011000011011000
11111111111111111110101000101100
00000000000000000000100100101101
00000000000000000100000110100100
00000000000000000011101101000000
11111111111111111011101100000011
11111111111111111101000010010000
00000000000000000000100111111011
11111111111111111101101110110111
00000000000000000001100000111100
11111111111111111101010110001111
00000000000000000000100001110010
00000000000000000011101011000000
11111111111111111101101100100101
00000000000000000011010010010001
00000000000000000011010100010101
11111111111111111110101100000010
00000000000000000001011000000000
00000000000000000010000010000100
11111111111111111111110001111110
00000000000000000011111100101111
00000000000000000001100100111110
00000000000000000001110011111110
11111111111111111111000110000010
00000000000000000010111010011110
00000000000000000101010100011000
11111111111111111110100001011110
11111111111111111111011111000111
00000000000000000010000111011110
00000000000000000011110100101000
00000000000000000010001101000010
00000000000000000010001001011110
00000000000000000001111101001111
00000000000000000001010001011100
00000000000000000001001001101110
00000000000000000000101001000111
00000000000000000000011110101111
00000000000000000000111111001111
00000000000000000111001010100101
11111111111111111110011111110010
00000000000000000000000101010000
11111111111111111110111011000101
00000000000000000100010001000100
00000000000000000001001111111010
00000000000000000001001000111010
11111111111111111111101010011001
11111111111111111101010000010110
11111111111111111110011110001010
00000000000000000010011101010000
11111111111111111010001011010100
11111111111111111101011010111101
11111111111111111100101001101111
00000000000000000001010000100001
11111111111111111101000110110001
00000000000000000001101010111101
00000000000000000100001110100010
11111111111111111110000101100000
11111111111111111110101111000100
11111111111111111100111111001110
11111111111111111110111010011000
00000000000000000011001010101110
00000000000000000110011101011101
00000000000000000100110010010010
00000000000000000010110110000011
11111111111111111110101101001010
11111111111111111110110011000000
11111111111111111111100110000110
11111111111111111110111101100100
00000000000000000000010011001010
11111111111111111100000110000000
00000000000000000011111001110010
00000000000000000011110000111010
00000000000000000011000011110111
00000000000000000001001110110110
11111111111111111101011100010001
11111111111111111101100010001001
11111111111111111110111001110110
00000000000000000001011000110000
00000000000000000001011011011011
00000000000000000001101101000001
11111111111111111110100100010010
00000000000000000001001101000011
11111111111111111001111010011000
00000000000000000100111110110100
11111111111111111110101011011000
11111111111111111111001000000100
00000000000000000001111101100101
11111111111111111100111111100011
11111111111111111110111011110000
11111111111111111100110010010110
00000000000000000000010100000000
11111111111111111110100000111110
00000000000000000001000000110000
00000000000000000100110110011001
11111111111111111101010010011011
00000000000000000010101101011111
00000000000000000010011001100011
11111111111111111110001001001100
11111111111111111111110010100011
00000000000000000001100001000010
11111111111111111101011001110000
00000000000000000010010100001111
00000000000000000000100110110001
00000000000000000010000010111110
11111111111111111101000010101000
00000000000000000110011001001111
00000000000000000001001001101111
00000000000000000100100001011010
11111111111111111101000111001100
11111111111111111111110110010101
11111111111111111111011110001000
11111111111111111111000001011000
00000000000000000010001000011100
00000000000000000010000000010000
11111111111111111101011101010100
11111111111111111110011010001111
00000000000000000001110000100110
00000000000000000100111011011000
11111111111111111110101001110101
00000000000000000000010001111100
11111111111111111011010010010111
00000000000000000000111000010101
00000000000000000010011000010001
00000000000000000000110111001100
11111111111111111110000110001000
11111111111111111010110000001101
11111111111111111111111001001001
00000000000000000000010001111000
11111111111111111101011010000110
11111111111111111011101001000111
00000000000000000010100100111100
11111111111111111100010100111000
00000000000000000011011110111001
00000000000000000000000100101110
00000000000000000010010110101011
00000000000000000010010011101100
00000000000000000000001010110010
11111111111111111101110100100011
11111111111111111110001111110011
11111111111111111110101110000001
00000000000000000001100111101110
11111111111111111111000001011010
00000000000000000001110110110001
11111111111111111111000101001101
11111111111111111111001111111011
11111111111111111011110111010100
00000000000000000010101101001111
00000000000000000010001001001100
11111111111111111101011100101000
00000000000000000101000011101110
00000000000000000010010100111000
00000000000000000001010001111101
11111111111111111110100010110100
00000000000000000001011000110110
00000000000000000000111001101110
00000000000000000000011010100011
11111111111111111111110101001111
00000000000000000010010010111011
11111111111111111100011010111010
00000000000000000000011001110111
11111111111111111110110101011001
11111111111111111111011111101001
11111111111111111110100100100011
11111111111111111111000010011001
00000000000000000000100101100111
00000000000000000000010101111100
00000000000000000000011000110110
11111111111111111111111001110100
11111111111111111101100001000101
11111111111111111111010100101101
11111111111111111111001000100011
11111111111111111110000001100101
00000000000000000001101010000001
00000000000000000100100101001000
00000000000000000001100100001000
00000000000000000001011101101111
11111111111111111111011000110011
00000000000000000000111010001011
00000000000000000001110000100000
11111111111111111111101010011000
11111111111111111100011010110100
00000000000000000011010100011101
00000000000000000001000101100001
00000000000000000011001010000101
00000000000000000001000111001110
11111111111111111111000011010111
11111111111111111111110010111111
11111111111111111111010000100111
00000000000000000001000100011011
00000000000000000001010111111000
11111111111111111111110110011000
00000000000000000100000011000000
11111111111111111111011110110100
11111111111111111110001110110100
11111111111111111110001101000101
11111111111111111101111010010111
11111111111111111111001100100011
11111111111111111111100000111110
00000000000000000000110011010001
00000000000000000001100011101001
00000000000000000011000000111001
11111111111111111111000000100100
00000000000000000001100100010110
11111111111111111101010110100101
00000000000000000010111110011011
11111111111111111011011101100011
00000000000000000010010000000110
11111111111111111111111101000101
11111111111111111010101000101110
00000000000000000011111111110011
00000000000000000001011001000111
00000000000000000010110001011100
00000000000000000000010100111100
00000000000000000011001101100000
00000000000000000001101111100011
11111111111111111101101101111101
00000000000000000011010111101100
00000000000000000010111110111110
11111111111111111101011100001100
11111111111111111101101011110101
11111111111111111110000111001011
11111111111111111111010110010111
11111111111111111100101011110000
00000000000000000000110010001011
11111111111111111100000110111101
00000000000000000011010101001010
00000000000000000010100000110001
11111111111111111110100110100011
00000000000000000010001101101000
00000000000000001000001110110010
11111111111111111111000011010111
00000000000000000000101000011110
00000000000000000001111111100111
11111111111111111100001111110110
00000000000000000100010010101011
11111111111111111110100110111100
00000000000000000010001000000011
00000000000000000011001110000011
00000000000000000001100010100100
11111111111111111111101110100000
11111111111111111111011101100111
00000000000000000000100000110000
00000000000000000010001010100001
11111111111111111100001010100101
11111111111111111101011100111010
00000000000000000001010110010110
11111111111111111100100100010100
11111111111111111100110100000000
00000000000000000010100000011011
11111111111111111101110101110101
00000000000000000001101001101010
00000000000000000000000101000010
00000000000000000000111010111001
00000000000000000000110001011111
00000000000000000100010001101101
11111111111111111001101000000111
