0000000001000100
0000000000010010
0000000100100001
1111111111111111
0000101100010100
0000000010100001
1111111111010011
0000000000000000
0001101011001011
0000000000001111
0000000000000000
0000001001100101
0000000000000000
0000000000000110
1111111111101100
