1111111110110111
1111111001000000
1110101100000101
1111111110011111
0100110010001110
0100001100000001
0100001100000001
1111110101000010
0011001101100101
0100010110111111
1111111110111000
1111001101111011
1111110110000100
1110001010101010
1111111010001010
