0000000001010010
0000000000010001
1111010011100100
1111111110011110
0001111011100110
1111001001010100
0001110000101011
0000000010000001
0000011001101101
1111111111100110
1111111111111110
1111111000000010
1111111111111011
1101110010010010
1111111000111110
