00000000000000000001001001010110
11111111111111111111111101000001
00000000000000000000001000011001
11111111111111111111111111111111
11111111111110101111010101000100
11111111111111111110111100110000
11111111111111111111111110001111
00000000000000000000000000000000
00000000000000011110100101010111
11111111111111111111010001011001
00000000000000000000000000000000
00000000000000000100101001110010
00000000000000000000000000000000
00000000000000000000000110101101
11111111111111111111110111111011
11111111111111111111111111101010
11111111111111111111111111110100
11111111111111111111111111100100
11111111111111111111111111011101
00000000000000000000000000100011
00000000000000000000000000000000
11111111111111111100101011000010
11111111111111111111111111101011
00000000000000000000000001001010
00000000000000000000000000000110
11111111111111111111111111101110
00000000000000000000000000000000
11111111111111111111001010000110
00000000000000000000000000001011
11111111111111111111111110100101
11111111111111111111111010000000
00000000000000000000111001000011
00000000000000000011100011010001
11111111111111111111110011011010
11111111111111110101000100000001
11111111111111111111101110111011
00000000000000000000000010001010
00000000000000000000101011111100
00000000000000010001110101100001
11111111111111111111111010100010
00000000000000000000000000111111
00000000000000000000010011111110
00000000000000000000000000000000
00000000000000000000000000011000
00000000000000000000000000000010
00000000000000000000000000000000
11111111111111111111111111001000
11111111111111011101101101100110
00000000000000000000111010100111
00000000000000000000000000101010
00000000000000000000001001011110
00000000000000000000000000010010
00000000000000001110001011010001
11111111111111111111111111100001
00000000000000000000000000110110
11111111111111111111111111111000
00000000000000000000001001011001
00000000000000000000000000000000
11111111111111111111111111010001
00000000000000000000000000000000
00000000000000000000000000000000
11111111111111111111111111100110
00000000000000000000000000100010
00000000000000000000000001000101
00000000000000000000000000001111
00000000000000000000000001111101
00000000000000000001100100001100
00000000000000000000000000001001
11111111111111111111010100100000
00000000000000000000000001101100
00000000000000000000100001110001
00000000000000000000000000000000
00000000000000000000000000000000
11111111111111111111111111101001
00000000000000000000000011001000
00000000000000000000000000111010
00000000000000000000000000111010
00000000000000000000000000001101
00000000000000000000000000010000
00000000000000000000000000000000
00000000000000010001000100001011
00000000000000000001001110001101
11111111111111111111111111011110
11111111111111111111111111101101
00000000000000000010001000100010
11111111111111111111111110011000
00000000000000000000000000001111
11111111111111111111111111010110
00000000000000000000000000000000
00000000000000000000000000000000
11111111111111111111111110111010
00000000000000000000000000000000
00000000000000000000000000000000
00000000000000000000000000000000
00000000000000000000011101001110
11111111111111111111111101101001
11111111111110001101000001110111
00000000000000000000000000000000
00000000000000000000000000010000
11111111111111111111011100111110
00000000000000000000000000000110
11111111111111111111110111010000
00000000000000000000000000011100
00000000000000000000000001100010
11111111111111111111111101110101
11111111111111111101100000011001
00000000000000000000000000000000
11111111111111111111111110110011
00000000000000000000000000011101
11111111111111111111111110111010
11111111111111111111111100011110
11111111111111111101101101111010
00000000000000000000001101111100
11111111111111111111111110101100
11111111111111111111111111111100
00000000000000000000000101000010
00000000000000000000000000001111
00000000000000000000000000000000
00000000000000000000000000000000
11111111111111000101100001100001
00000000000000000000000111111001
00000000000000000000000011010101
11111111111111111111111111110100
11111111111111111111101101110101
11111111111111111110001000000110
00000000000000000000000000000001
11111111111111111111111111010111
00000000000000100011110011001101
11111111111111111111110100011001
00000000000000000000000000110001
00000000000000000000001101100001
00000000000000000000000001001010
00000000000000000000010001010110
11111111111111111111010010001111
00000000000000000000000101100100
00000000000000000001101010101111
11111111111111111111111100101010
11111111111111111111111111111001
00000000000000000000101110001111
11111111111111111110101101111010
00000000000000000100111011011110
11111111111111111111100110100010
00000000000000000000000000000000
11111111111111110110000110010101
11111111111111001111110100001001
11111111111111111111111111011111
11111111111111111111111111110110
00000000000000000000000000000000
11111111111111111111000000101111
11111111111111111111010001111011
11111111111111111111111111101100
00000000000000000000000000000000
00000000000000000000000000010101
00000000000000000000000000000010
00000000000000000000000100000011
11111111111111111111111111001100
11111111111111100001110001001001
00000000000000011100110111111000
11111111111111111111111111100100
00000000000000000000000000001110
00000000000000000000000000001111
11111111111111111111111011101101
11111111111111111111111111111000
00000000000000000000010010010011
00000000000000000100011000110110
00000000000000000000000000010011
11111111111111101011110110101100
00000000000000000000000000101010
11111111111111111111111111101110
00000000000000000000000001001000
11111111111111111111111110110011
11111111111111111111111111101110
00000000000000000000000000010010
00000000000000000000000001001000
00000000000000000000010010001011
11111111111111111111111101101111
11111111111111111111001101000100
11111111111111111111011000000110
00000000000000000000000011001001
00000000000000000000000000010110
11111111111111111111110101001101
11111111111111111111111000111100
00000000000000000000000000000000
11111111111111111111111111101000
00000000000000000010010111011101
00000000000000000000101100010011
00000000000000000000011000110000
11111111111111111111010110101010
11111111111111111111110110001001
00000000000000000000000000000101
11111111111111111111111111101110
11111111111111111111111110011000
11111111111111111111111111100000
00000000000000000000000000000000
11111111111111111100111110110000
11111111111111111111111111110111
00000000000000000000000011110111
00000000000000000000000000000000
00000000000000000000001010110011
00000000000000000000000000000000
11111111111111111111111001110100
00000000000000000000000000001001
00000000000000000000000000000101
00000000000000001101011000111101
11111111111111111010010111001100
11111111111111111111111111101001
00000000000000000000000000000110
00000000000000000000000000000000
00000000000000000000001011110111
11111111111111111111110101100000
11111111111111111111111111111100
11111111111111111110111111101110
00000000000000000000000000100000
11111111111111111111111100001010
11111111111111111111111111101010
00000000000000000000000000011010
11111111111111111111111111101101
11111111111111111111111110001111
11111111111111111111110010110111
00000000000000000000001100010101
11111111111111111111111111101111
00000000000000000000000000000000
00000000000000000000000000001111
11111111111111111111111111011101
00000000000000000000001000111001
11111111111111111111111001011001
00000000000000010000101010100110
00000000000000000000011001101011
00000000000000000000000000000111
00000000000000000000000000011100
00000000000000000000000000000000
00000000000000000000000001011001
00000000000000000000000000000000
00000000000000000000000000000001
11111111111111111111111000011110
00000000000000000000000000011000
00000000000000000011000101001011
11111111111111110000000010110000
00000000000000000000000000100001
11111111111111111111111111000101
00000000000000000000111001000000
11111111111111111111111011110000
11111111111111111111111111101100
00000000000000000010010001010000
11111111111110101100010011001110
00000000000000001000110101000101
00000000000000000000000000000110
00000000000000000000000000000100
00000000000000000000000000000000
00000000000000000000000000001001
00000000000000000000000000011001
00000000000000000000000000111001
11111111111111111111111111111101
11111111111111111111111111111000
11111111111111111111110010101110
00000000000000000000000101011011
11111111111111111111111010101110
11111111111111111111111110110111
11111111111111111111111110011001
00000000000000000000010000101110
11111111111111111111111111100111
11111111111111111110111010010011
11111111111111111100111111011001
00000000000000000011111001001001
11111111111111111111111110110001
00000000000000000000000000000000
00000000000000000000000000001011
00000000000000000000000000010100
00000000000000000000000001000111
00000000000000000001110010101001
11111111111111111111111010010001
11111111111111111111111100011111
11111111111111111111110111001101
11111111111111111110110000100110
00000000000000000000000000000000
00000000000000000000000000100000
11111111111111111111111111100010
00000000000000000000000001011101
00000000000000000000000000001100
11111111111111111111111010000001
11111111111111111111111111111100
11111111111111111111111011111001
00000000000000000000000000000000
00000000000000000010000001000001
11111111111110101010000111100110
00000000000000000001111001110100
11111111111111111111111111100010
00000000000000000001101011000000
00000000000000000000000000000000
00000000000000000000000000000000
00000000000000000110011110001100
11111111111111111111111111111111
00000000000000000000001110111111
00000000000000000000000000000000
11111111111110111101111101110101
11111111111111111011110011011011
00000000000000000001000110110011
11111111111111111111111111110010
11111111111111111011111111010100
00000000000000000000000110000101
00000000000000000000000000001010
00000000000000000000000000011110
11111111111111111100100010010100
11111111111111111101001111111000
11111111111111111111111000110100
00000000000000000000000000101010
11111111111111111011010111010010
11111111111111111111111111101010
11111111111111111011101010111101
11111111111111111111111101001010
11111111111111111110101010001011
00000000000000000000001010010101
00000000000000000000000000100001
11111111111111010101011001011111
00000000000000000000000001101100
11111111111111111011010001110100
11111111111111111111111111011110
00000000000000000000001000101110
11111111111111111111111111100000
11111111111111111111110110100010
00000000000000000000000100010000
00000000000000100011000011110100
00000000000000000000100110000000
11111111111111111001010000000111
00000000000000000000000011110111
00000000000000000000000000000000
00000000000000000000101000110010
11111111111111010010110101111001
00000000000000000100000111101011
11111111111111111110110111001110
00000000000000000101001000110011
00000000000000000000000000000011
00000000000000000000001011111011
00000000000000000000000000001100
00000000000000000000000000001000
11111111111111111111110111101001
11111111111111110001110000110101
11111111111111111111111100101001
11111111111111111111110111010001
00000000000000000000000000000000
11111111111111111111110010010001
11111111111111111111111110001100
11111111111111111111111101101000
00000000000000000000000000000000
00000000000000000000001000111100
11111111111111111110010101101011
11111111111111111101101100100011
11111111111111111111101101111110
00000000000000000000000101101100
00000000000000000000000001001111
00000000000000000000000000000000
00000000000000000010011011000100
00000000000000000000000000000000
00000000000000000000000000001011
00000000000000000011010100111011
11111111111111111111110000001101
11111111111111111111111111110101
11111111111111111110011001010011
11111111111111110010110001001000
00000000000000000000000000000000
00000000000000000011001101111000
11111111111111101100110001101011
00000000000000000000000000000000
00000000000000000000000000000000
00000000000000000000000010111100
00000000000000000001000011011111
00000000000000000001111010100010
00000000000000000000001011111010
00000000000000000000000000011110
11111111111111101010111001000110
00000000000000000001111011010001
00000000000000000000001111111011
11111111111111110000100101000000
11111111111111111111110100111111
00000000000000010011110001100000
11111111111111111110101001101100
00000000000000000000000000100010
00000000000000000000000000000000
11111111111111111111111111111000
11111111111111111111111111011011
11111111111111111111111110111010
00000000000000000100001010010001
11111111111111111010101111111110
11111111111111111111110101100010
00000000000000000010010010010011
11111111111111111111111100101110
00000000000000000000000001000100
00000000000000000000000000000000
00000000000000000000001111101100
11111111111111110000001110011111
11111111111111111111101110001101
00000000000000000000000001010101
11111111111111111111111111001000
11111111111111111111111111101101
00000000000000000000000000011101
00000000000000000000000000000011
00000000000000000000000000111101
00000000000000000000000000000000
11111111111111111111111111111100
00000000000000000000000000011111
11111111111111111111110011001001
11111111111111111111111111111110
00000000000000000000000000000000
00000000000000000000000000000000
00000000000000010010101010010111
11111111111111111111111111011011
11111111111111111111111111110101
00000000000000000000000000000000
00000000000000000000001000010011
11111111111111111111111101010100
00000000000000000000000000000000
00000000000000000000000000000000
11111111111111111111111111111101
11111111111111111111111000010100
11111111111111111111111000101011
11111111111111111111111111110110
00000000000000000000000000000000
00000000000000000000000001000010
00000000000000000000000110011111
00000000000000000000000110110000
00000000000000000000000001011100
00000000000000000100110001010101
00000000000000000000000000000010
00000000000000000000000001000011
11111111111111111111100100010011
00000000000000000000000000100001
11111111111111111111111100001100
11111111111111111111111111110101
00000000000000000000110101100111
11111111111111111111111111110011
00000000000000000000000000010000
00000000000000000000000000000000
11111111111111111111111110111101
11111111111111111111111111111011
00000000000000000000011111010110
00000000000000000000000001010001
00000000000000000000000010101110
11111111111111001011101101110101
11111111111111111111111000110011
00000000000000000000000000000000
00000000000000000000000000010001
00000000000000000000000001100001
11111111111111111111111111001100
11111111111111111111111111100101
11111111111111111111111111110000
00000000000000000001100011001100
00000000000000010001111100010000
00000000000000000000000000000000
11111111111111010001010100101110
11111111111111101110100000010101
00000000000000000000000000000000
00000000000000000000000000000100
11111111111111111111111111011110
11111111111111111111111111101100
00000000000000000000000000000000
00000000000000000000000000011010
00000000000000000000100010010110
11111111111111111111111110000111
11111111111111111111111110101000
00000000000000000000001011001001
00000000000000000000000011010001
00000000000000000000000011010000
00000000000000000000000000010001
00000000000000000000000000000000
11111111111111111111111000100111
11111111111111111111111111110011
00000000000000000000000000000000
00000000000000000000000000000000
00000000000000000000000000000000
00000000000000000000000000011011
00000000000000000000000010101001
00000000000000000000000000000000
00000000000000000000000000000000
00000000000000000000000000001011
00000000000000000000000000000000
11111111111111111111111111110110
11111111111111101010111101111101
00000000000000000000000000100100
11111111111111111100001011110001
11111111111111111110110101101011
00000000000000001101110100111010
11111111111111110110101101110001
00000000000000000000000000000000
00000000000000000010010110110000
11111111111111111111111101000000
00000000000000000000000000101000
11111111111111111111111111111000
00000000000000000000001101000011
00000000000000000010010100001111
11111111111111111110011100010001
00000000000000000010011011000010
00000000000000000000000000010110
00000000000000000000000000100001
00000000000000000000000000000000
11111111111111111111111111110011
11111111111111111111110111000100
00000000000000000000000000100011
00000000000000000000010001011101
00000000000000000000000000101100
00000000000000000000000000000101
00000000000000000000001001000011
11111111111111111010011000000001
11111111111111111110111110010010
11111111111111111111011001100111
11111111111111111011010101010101
11111111111111111111111111110101
11111111111111111111111111101100
00000000000000000000000011010010
00000000000000000000000000110000
11111111111111001011111001101000
11111111111111111111101011011101
11111111111111001010111111001100
11111111111111111111110010011110
11111111111111110111000011101111
00000000000000000101001000001000
11111111111111111000110111111110
11111111111111111110001110111010
00000000000000000000000000011100
00000000000000000000000000010110
11111111111111111111111101011010
00000000000000000000000000000100
00000000000000000101101100111111
00000000000000000000000001111000
00000000000000000000000000101010
11111111111111111111001000011000
00000000000000000000000000000000
11111111111111111111110010001010
00000000000000000000000000100001
11111111111111111111111111110011
00000000000000000000000000011010
11111111111111111111111111101111
00000000000000000000000000100010
11111111111111111111111110000010
00000000000000010000101110100000
11111111111111111110011001001001
11111111111111111111111111110101
11111111111111111111111111011011
00000000000000000000000000001101
00000000000000000000000000000000
00000000000000000000000000000000
11111111111111111101110011100011
11111111111111111111010011100010
00000000000000000000000000000110
11111111111111111111111111101010
00000000000000000001111111011101
00000000000000000001110000011001
11111111111111111111111111111100
11111111111111111111111111101110
00000000000000000000000000001100
00000000000000000000000000001000
00000000000000000000000000011100
00000000000000000000000000000000
00000000000000000000000000001010
11111111111111010100101101010101
00000000000000000000000000000010
00000000000000000000010000001011
11111111111111111111001010110101
00000000000000000010010000111101
00000000000000000011010001111110
11111111111111111111111101001101
00000000000000000000000000101101
11111111111111101100010001010111
11111111111111111111111111010100
00000000000000000000000000010110
11111111111111111011010010100110
11111111111111111111111111100011
11111111111111101101110001100011
11111111111111111111010011110111
00000000000000000000010100000001
00000000000000000000001100011011
00000000000000000000000000101011
11111111111111111111000101100000
11111111111111111111111111101111
00000000000000000000000000110100
00000000000000000000000000000000
00000000000000000000000010010000
00000000000000000000000001010111
00000000000000000000000000100111
00000000000000000000000100100000
00000000000000000000011101011111
11111111111111111111111111010100
00000000000000000110100100110010
00000000000000000000000000010110
11111111111111111111111111111111
11111111111111111111111111111000
11111111111111111000000000000000
00000000000000000000000000000111
00000000000000000000000000010000
00000000000000000000000000001000
11111111111111111111001011001111
00000000000000000010001111001010
11111111111111111111111111001000
11111111111111111111111111101100
11111111111111111111000010001000
00000000000000000000000000000011
00000000000000000000000001101101
11111111111111111111111111101100
11111111111111111111110111111011
00000000000000101010101011111111
11111111111111111111111100110010
00000000000000000000000000000000
11111111111111111111111111101011
00000000000000000000000000010010
11111111111111111111111101110000
00000000000000000000000000000000
00000000000000000010000100011100
11111111111111111111111111111010
00000000000000000000000000001111
00000000000000010011000011010100
11111111111111111111111111111011
00000000000000000000000000011111
00000000000000000000000000011110
11111111111111111111110101110110
11111111111111111111111111110010
11111111111111111111000100101110
11111111111111111111111111111011
11111111111111111011011010001001
00000000000000000000000000001001
11111111111111111111111111101111
00000000000000000000000000001110
00000000000000000000000000000000
00000000000000000011000011111000
11111111111111111111111111110000
00000000000000000000000000000110
00000000000000000000000000000000
00000000000000000000010001111000
11111111111111111111111111111100
00000000000000000000000010000010
00000000000000000000000000000000
00000000000000000000000000001111
11111111111111111111111111111010
11111111111111111111111111110000
00000000000000000000000000000001
00000000000000000000000111001011
00000000000000000000000000000000
00000000000000000000000000011000
11111111111111111111111111100010
11111111111111111111111111101101
00000000000000000000000000000000
00000000000000000000000000010000
11111111111111111111111111110110
00000000000000000000000000000111
00000000000000000000000000000001
00000000000000000110000111111110
00000000000000000000000000000110
11111111111111111111111101111000
00000000000000000000000001000101
00000000000000000000000001001010
11111111111111111111111111111011
11111111111111111101110111110001
00000000000000000000000000000000
11111111111111111111110110000111
11111111111111111111111110110101
11111111111111111111111111100110
00000000000000000001010011111000
11111111111111111111111111111101
11111111111111111111110000110010
00000000000000000000000000101110
00000000000000000011001110110010
00000000000000000001010110100010
00000000000000000000000000000000
11111111111111111111111101101001
11111111111111111111011010111101
00000000000000000000000010011101
11111111111111111111111000111000
00000000000000000000000000001100
00000000000000000000000000000001
00000000000000000000000001011110
11111111111111111111110010110010
00000000000000000000000000000000
11111111111111111111111111111000
00000000000000000000000000001110
00000000000000000001100000010111
00000000000000000000000001000001
11111111111111111111111111001011
00000000000000000000000000101011
00000000000000000010001110011000
00000000000000000000001011010010
00000000000000000000000000001011
00000000000000000000000000000000
11111111111111111111111111111111
11111111111111111111111111111010
00000000000000000000000000001110
11111111111111111011001011110010
00000000000000000000000000000000
00000000000000001001110010011101
00000000000000000000000111110100
11111111111111111111011010011110
00000000000000000011101101111010
11111111111111111111111111100010
00000000000000000000001111011010
00000000000000000000000010010011
00000000000000000011010110110100
11111111111111111111111010101000
00000000000000000000000000000100
11111111111111111111111111011111
11111111111111111110001111011000
11111111111111111011101110000110
00000000000000000000000000000000
00000000000000010000101001101001
00000000000000000000000001011010
00000000000000000000000110001001
11111111111111111111111001110000
00000000000000000000000000000000
11111111111111111111111111111011
11111111111111111111111111111011
11111111111111111111101011111101
11111111111111111111111111111010
00000000000000000000001010101100
11111111111111111111111111101011
11111111111111111111111110011100
00000000000000000000000000001110
11111111111111111111111000000111
00000000000000000000000000000000
11111111111111111111111011001011
00000000000000000000000000000100
00000000000000000000001001101000
00000000000000001000000111000111
11111111111111111111111111110111
00000000000000000000000000010000
11111111111111111111111100101011
00000000000000000000000000000001
11111111111111111111111111111101
11111111111111111110010100111000
11111111111111111100000111000110
00000000000000000000000000001101
11111111111111111111111111111011
00000000000000000000000000000000
00000000000000000000000000001111
11111111111111111111111111101100
00000000000000000000000110010100
00000000000000010001100011110101
00000000000000000000011010001011
11111111111111111111111111111101
00000000000000000000000000000001
11111111111111111111111111110111
00000000000000000000011110000101
00000000000000000010000001011010
11111111111111111111111111111001
11111111111111111111111111110110
11111111111111111111111111111000
00000000000000000000000000000000
00000000000000000000000000010011
00000000000000000000000000000111
00000000000000000000000000000000
11111111111111111111111110110110
00000000000000000000000000000000
00000000000000000000000101000001
00000000000000000000000000000100
00000000000000000111110010101111
00000000000000000000000101110111
11111111111111111111111111101011
00000000000000000000101101101011
11111111111111111111111111110101
11111111111111111111111111110101
11111111111111111111110100000100
11111111111111101110100001100011
11111111111111111111111111101111
00000000000000000000000000001100
11111111111111111111111111110010
00000000000000000000000011100010
11111111111111111111110110110100
11111111111111111111111111101001
11111111111111111111111010101010
11111111111111111111100011100111
00000000000000000000000000000000
11111111111111110111011011101001
00000000000000000000000000011101
00000000000000000000000000000000
00000000000000000000000000000101
00000000000000000000000000001001
11111111111111111111111111110100
00000000000000000000000000000000
00000000000000000000000000000000
00000000000000000000000000000000
00000000000000000000000000000000
00000000000000000000000000000000
00000000000000000000000010100110
11111111111111111111010111000110
00000000000000000010010001111101
00000000000000000000000000000000
00000000000000000000000000000000
00000000000000000000000011101111
11111111111111111111111111101100
00000000000000001111111001000011
00000000000000000000000000000000
00000000000000000000000000000000
11111111111111111111111111110111
11111111111111111111111111101011
11111111111111111111011100111101
00000000000000000000000000010100
00000000000000000000000000000000
00000000000000000000000000010111
11111111111111111111111111110110
11111111111111111111111110000001
11111111111111111111111101001110
00000000000000000000110000001110
00000000000000000000001110101011
11111111111111111111111111100011
11111111111111111111111111101011
00000000000000000000000000110001
11111111111111111111111011010111
00000000000000000000000000000000
00000000000000000000011110101001
11111111111111111111010001111111
00000000000000000010101010100111
11111111111111111111111111101111
00000000000000000000000111000001
11111111111111111011001000010000
11111111111111111011110111111110
00000000000000000000000000000000
11111111111111111111111111100111
00000000000000000000000000000011
00000000000000000000000000000100
00000000000000000000000000000000
00000000000000000000000000000011
00000000000000000000000111001001
00000000000000000000001001101000
11111111111111111111000001100100
11111111111111111111111111111101
00000000000000000000000000110000
00000000000000000000000000000000
11111111111111111111111111101111
00000000000000000000000000000000
11111111111111111111111111110000
11111111111111111111111111100000
00000000000000000000000000001001
00000000000000000000000000000000
00000000000000000000000000000000
00000000000000000000010011101000
11111111111111111111111111111000
11111111111111111111111111100100
00000000000000000000101101101110
00000000000000000000000001001110
00000000000000000000010110111111
00000000000000000000000100011010
11111111111111111000011011100111
00000000000000000000000011111010
11111111111111111111111111111110
11111111111111111111111111111110
00000000000000000000001010000100
00000000000000000000000000000000
11111111111111111111111110101001
00000000000000000000000000001100
11111111111111111111110100001011
11111111111111111111001001111001
00000000000000000000000000010011
11111111111111111111101011010011
11111111111111111111100001110110
11111111111111111111111111111011
11111111111111111110111110001101
00000000000000000000000000010001
00000000000000000000000000000111
11111111111111111111111111110110
11111111111111111111111111110000
00000000000000000000010100001010
00000000000000000000000000001111
11111111111111111111111101100110
11111111111111111111111011110011
11111111111111111111111111111111
00000000000000000000000000000000
11111111111111111111100011001111
00000000000000000000000000000000
00000000000000000000001001000111
11111111111111111111111001000110
00000000000000000000110000000110
00000000000000000000000000000000
11111111111111111111111111110100
00000000000000000000000110010100
00000000000000000000100001100101
00000000000000000000000000100111
11111111111111111111111111110011
00000000000000000000000000010111
11111111111111111111111111001010
11111111111111111111111111011000
00000000000000000000000000000000
00000000000000000000000001010101
00000000000000000000000000000000
11111111111111111111111111110111
00000000000000000000000000000000
00000000000000000000000000001000
00000000000000000000110111011100
00000000000000000000000001010101
00000000000000000000000000000001
00000000000000000000000000000000
00000000000000000000000001000101
00000000000000000000000000000000
00000000000000000000000000000000
11111111111111111111101101110111
00000000000000011000100010101001
11111111111111111111011100100001
11111111111111111111111111011010
00000000000000000000000000001010
11111111111111111110101000001100
11111111111111111111111111101111
00000000000000000001011110101110
00000000000000000000000000001011
11111111111111111111111111111100
00000000000000000000000000000100
00000000000000000000000000000001
11111111111111111111111111100110
00000000000000000000000000000000
00000000000000000000000000000000
00000000000000000000000000000000
11111111111111111111111111100100
00000000000000000000000000110100
