0000000000000111
0000000000001111
0000000000001111
1111111111111111
0000010110011100
1111111110110101
1111111111111100
0000000000000000
0001010111111100
0000000000101000
0000000000000000
0000001001110011
0000000000000000
1111111111011101
1111111111000100
1111111111101011
1111111111111111
0000000000000000
0000000000000000
1111111111111111
0000000000000000
0000000101101001
0000000000000100
1111111111110110
1111111111111111
1111111111111111
0000000000000000
1111111000010101
1111111111111111
1111111111111111
0000000000001000
1111111111010101
1101110100010010
0000000000000000
0000001011100000
0000000000000111
0000000000000001
0000000000001111
0000100000111000
1111111111111111
1111111111111111
0000000001111011
0000000000000000
1111111111111111
0000000000000000
0000000000000000
1111111111111100
0000010010000110
1111111111011100
1111111111111111
0000000000000001
1111111111111111
1111111000111100
1111111111111101
1111111111111111
0000000000000000
0000000000000001
0000000000000000
0000000000000000
0000000000000000
0000000000000000
1111111111111111
1111111111111101
0000000000000101
0000000000000000
1111111111111101
0000000001111101
1111111111111111
1111111111101101
1111111111111110
1111111111101011
0000000000000000
0000000000000000
0000000000000001
0000000000001001
1111111111111111
1111111111111111
0000000000000010
1111111111111111
0000000000000000
1111110111011100
0000000100011000
0000000000000000
1111111111111111
0000001000110001
1111111111111111
1111111111111110
1111111111111111
0000000000000000
0000000000000000
1111111111111111
0000000000000000
0000000000000000
0000000000000000
0000000001001000
0000000000000010
1100010101001110
0000000000000000
0000000000000000
0000000001001100
1111111111111111
1111111111101100
0000000000000100
0000000000000001
0000000000000000
0000001000010101
0000000000000000
1111111111111111
1111111111111111
0000000000001000
0000000000000000
0000000010111000
0000000001001100
1111111111111111
1111111111111111
1111111111111001
1111111111111101
0000000000000000
0000000000000000
1111100101100100
0000000000010000
0000000000000001
0000000000000000
0000000100011100
0000000000000001
1111111111111111
0000000000000000
1111000111110111
1111111111100110
0000000000000000
1111111111111100
0000000000001110
0000000010000001
1111111111000100
0000000000000001
1111111100011101
1111111111110011
1111111111111110
0000000000010100
0000000011000111
1111111110111011
0000000000110000
0000000000000000
0000001101111010
1011110001001101
1111111111111110
0000000000000000
0000000000000000
1111111110100011
0000000100110000
0000000000000000
0000000000000000
1111111111111111
0000000000000011
1111111111101001
1111111111111111
0000001010110011
1111101000000101
0000000000000000
0000000000000000
0000000000000000
0000000000001111
0000000000000000
0000000000000110
1111111011010011
0000000000000000
0000010101100010
1111111111111100
1111111111111111
1111111111111000
0000000000000001
0000000000000000
0000000000000000
1111111111110111
0000000000000100
1111111111111011
1111111110010100
1111111111001001
1111111111111101
0000000000000000
0000000001101100
0000000000010011
0000000000000000
0000000000000000
1111111010110110
1111111111111000
1111111111011011
0000000000100100
1111111111101111
0000000000000000
0000000000000000
0000000000000001
1111111111111110
0000000000000000
0000000000101111
0000000000000000
1111111111111111
0000000000000000
0000000000011010
0000000000000000
0000000001011101
0000000000000000
1111111111111111
0000001000110111
0000000001101000
1111111111111101
1111111111101011
0000000000000000
0000000000011000
1111111101011000
0000000110001001
0000001010111101
1111111111111111
1111111111111010
1111111111111001
1111111111111111
1111111111111111
0000000000000110
0000000000110100
0000000010011100
0000000000000000
0000000000000000
0000000000000000
1111111111111111
1111111111110111
0000000000010000
1111000000010010
1111111111111111
1111111111111111
1111111111111111
0000000000000000
0000000000001001
0000000000000000
0000000000000000
0000000000001000
1111111111111101
0000000000010001
1111110110000110
0000000000000000
1111111111111011
0000000001100111
0000000000000110
0000000000000000
1111111011110000
1110010011111011
0000010100011110
0000000000000000
0000000000000000
0000000000000000
1111111111111010
1111111111111001
0000000000000001
1111111111111111
1111111111111111
1111111111100110
0000000000000101
0000000000000111
1111111111100111
1111111111111111
0000000000010000
0000000000000001
0000000100011100
0000000011111000
0000000110001010
0000000000000001
0000000000000000
1111111111111111
0000000000000000
0000000000000001
1111111000000111
1111111111101101
1111111111111011
1111111111111110
0000010011010100
0000000000000000
1111111111111111
1111111111111110
0000000000001011
1111111111101001
1111111111100100
0000000000000000
0000000000001010
0000000000000000
0000010110011010
1110011111010000
1110011010010100
0000000000000000
0000000010101010
0000000000000000
0000000000000000
0000000001110001
0000000000000000
1111111111110011
0000000000000000
1110111010111110
0000000000101000
1111110100010010
0000000000000000
1111110101111110
1111111111100001
1111111111111111
1111111111111111
0000101001101011
0000000000100001
1111111111101111
1111111111111111
0000001110101010
0000000000000000
0000000101101000
1111111111110011
0000000001111101
1111111111101100
1111111111111011
0000000110001001
1111111111101110
1111110011110110
1111111111111111
0000000001001010
1111111111111111
0000000000110110
0000000000000111
1111111000010001
1111111111110011
0000000000000010
1111111111111111
0000000000000000
0000000011100010
1111010010110011
0000000100001100
0000010001100110
1111101100011100
0000000000000000
0000000000011000
1111111111111111
1111111111111111
1111111111110010
0001001010110100
0000000000000000
0000000000100010
0000000000000000
1111111111101011
0000000000000001
1111111111111110
0000000000000000
0000000000001010
1111111001110101
1111101110110010
0000000000000011
1111111111101110
1111111111111101
0000000000000000
1111111111100100
0000000000000000
0000000000000010
0000001001110111
1111111111111000
1111111111111111
0000000000001110
1111000100010001
0000000000000000
1111001111100010
0000101100001101
0000000000000000
0000000000000000
0000000000000001
1111111111001101
1111111011001000
1111111111011010
1111111111111111
1101101111100011
1111001110100111
0000000010100010
1111111101001000
0000000000001010
1111111101000011
0000000000100110
1111111111111110
0000000000000000
1111111111111111
0000000000000010
1111111111111101
1111110101111001
0000011001010110
0000000000001110
0000000001001011
1111111111111011
1111111111111111
0000000000000000
1111111100111101
1110101111011100
1111111110111010
0000000000000101
1111111111111100
0000000000000010
1111111111111111
0000000000000000
1111111111111110
0000000000000000
1111111111111111
1111111111111111
0000000011010010
1111111111111110
1111111111111111
0000000000000000
0000000101011001
0000000000001000
1111111111111111
0000000000000000
0000000001000001
0000000000010001
0000000000000000
0000000000000000
0000000000000000
0000000000000100
1111111111111100
1111111111111111
0000000000000000
1111111111110000
1111111111110111
0000000000010101
0000000000001001
0000011101000000
0000000000000000
1111111110111010
0000000000100000
1111111111111110
0000000000111111
0000000000000001
0000000101110000
0000000000000000
0000000000000001
0000000000000000
0000000000000111
0000000000000000
0000000000000111
0000000000000000
1111111111111011
1110000000001100
0000000010010111
0000000000000000
0000000000000000
1111111111111100
1111111111111110
1111111111111101
0000000000000000
0000001000010110
1111100100001111
0000000000000000
1110110000010111
1111111000000010
0000000000000000
0000000000000001
1111111111111111
1111111111111111
0000000000000000
1111111111111111
0000000000010000
0000000000000001
1111111111111101
0000010111001111
1111111111111001
1111111111111000
0000000000000000
0000000000000000
1111111100101100
0000000000000000
0000000000000000
0000000000000000
0000000000000000
0000000000000011
0000000000000001
0000000000000000
0000000000000000
1111111111111110
0000000000000000
1111111111111111
0000011101101110
0000000000000010
1111110110111111
0000000000110000
0000001111001011
1111111111110000
0000000000000000
0000011011010000
0000000000010111
0000000000010011
0000000000000000
1111111111110011
0000000000010000
1111111111010001
0000000000101111
1111111111111111
1111111111111101
0000000000000000
1111111111111100
1111111111101000
0000000000001001
0000000000011000
1111111111111111
1111111111111111
0000000000000010
0000010010000111
1111111000110000
1111111111110001
0000000101001011
1111111111111110
1111111111111110
0000000000001101
0000000000000001
1110001010011000
1111111111110000
1110010100000111
1111111111001101
0000000010101001
0000000101000111
0000010011010000
1111101011110101
0000000000000010
0000000000000000
0000000000000000
0000000000000000
0000001110001110
1111111111111111
1111111111111110
0000000000000001
0000000000000000
0000000001010001
0000000000000011
0000000000000000
0000000000000000
0000000000000000
0000000000000000
1111111111110111
0001001000011011
0000000001110111
1111111111111111
0000000000000000
1111111111111111
1111111111111111
0000000000000000
1111110011100100
0000000000000101
0000000000000000
1111111111111111
0000000011001000
1111111100011110
0000000000000000
1111111111111111
1111111111111111
1111111111010011
1111111111111111
0000000000000000
1111111111111111
1111111001110101
1111111111111111
0000000000111010
0000000101011000
0000000010010010
0000100001101010
0000000000001110
1111111110110111
0001010001100101
1111111111100110
0000000000000000
0000010010011100
0000000000000000
1110001000111011
1111111111000010
0000000000011000
0000000000111101
1111111111111111
0000000000101101
1111111111111110
1111111111111110
0000000000000000
0000000000000000
0000000000000001
0000000000000000
1111111111110100
0000000000000000
1111111111111110
0000111000010111
1111111111111111
1111111111111111
1111111111111111
1111100101111011
0000000000000001
1111111111111111
0000000000000000
0000001010110000
1111101110000111
1111111111111111
0000000000000001
1111111001100010
0000000000000000
0000000000000010
1111111111111111
1111111111000101
0000110010100001
1111111111111110
0000000000000000
0000000000000000
0000000000000000
1111111111110111
0000000000000000
1111111100111101
1111111111111111
1111111111111100
0000000110110011
1111111111111111
1111111111111111
1111111111111101
0000000000000100
1111111111111110
0000000010111101
1111111111111111
0000000111011100
1111111111111111
1111111111111110
0000000000000000
0000000000000000
1111111111101110
0000000000000000
1111111111111111
0000000000000000
1111111100111111
0000000000000000
0000000000000000
0000000000000000
0000000000000000
0000000000000000
0000000000000000
1111111111111111
1111111111011001
0000000000000000
0000000000000011
0000000000000000
0000000000000000
0000000000000000
0000000000001011
1111111111111111
0000000000000000
1111111111111111
1111101111001110
1111111111111111
1111111111111001
0000000000000010
1111111111111111
0000000000000000
0000000000000001
0000000000000000
0000101101011101
1111111111111110
0000000000000000
1111110101110010
0000000000000000
1111111011101101
1111111111010000
1111101110010010
0000000001001100
0000000000000000
1111111111110010
0000000000000000
1111111111111100
0000000101001110
0000000000000110
1111111111111101
0000000000000000
1111111111011100
0000000000000000
0000000000000111
1111111111111111
1111111111110101
1111111111111011
0000000000010010
1111111111111110
0000000111110111
1111111110011111
1111111111111010
0000000000000000
1111111111111111
0000000000000000
1111111111111000
0000100110100000
0000000000000000
0000001000110110
0000000000011110
1111111111111110
0000010100000100
1111111111110010
1111111111010011
1111111111110101
0000010001011011
0000000000000010
0000000000000011
1111111111111110
1111111111111111
0000100100000100
0000000000000000
1111001000100100
1111111111101111
0000000010010111
1111111111101011
1111111111111111
0000000000000100
0000000000000000
1111111110111101
1111111111111111
0000000000100010
1111111111111111
0000000000000000
1111111111111111
0000000000110001
0000000000000000
0000000000011111
1111111111111111
0000001000010011
0001010011111111
0000000000000000
1111111111111111
1111111111101110
1111111111111111
1111111111111111
1111111011100101
0000001100111011
1111111111111110
1111111111111111
0000000000000000
0000000000000000
1111111111111111
1111111111000011
0000110001111111
1111111111100100
0000000000000000
1111111111111111
1111111111111111
1111111110110000
0000000110000100
0000000000000000
0000000000000000
0000000000000000
0000000000000000
0000000000000000
0000000000000010
0000000000000000
1111111111111110
0000000000000000
0000000000001111
1111111111111111
1111111001000101
1111111101010110
0000010110111000
0000000101001001
1111111111111111
0000000000000000
1111111111111010
1111011111110000
0000000000000000
0000000000000001
1111111111111111
0000000000010000
1111111111111101
1111111111111110
0000000011101001
0000000001000110
0000000000000000
0000011111110001
0000000000000000
0000000000000000
1111111111111111
1111111111111111
1111111111111111
0000000000000000
0000000000000000
0000000000000000
0000000000000000
0000000000000000
0000000000000001
0000000111001000
1111110110110100
0000000000000000
0000000000000000
1111111111100110
0000000000000000
1111010000101011
0000000000000000
0000000000000000
0000000000000000
1111111111111111
1111111101110010
1111111111111111
1111111111111111
1111111111111110
0000000000000000
1111111111101010
0000000000010011
0000000000101100
1111111111111001
1111111111111111
0000000000000010
1111111111111110
0000000010001001
0000000000000000
0000000011110111
0000000100000100
0000000000101011
1111111111111110
0000000000000010
0000010011010000
0000000011111011
0000000000000000
1111111111111110
0000000000000000
1111111111111111
0000000000000000
1111111111111111
1111111111110111
1111111111110101
0000000101111001
0000000000000000
1111111111111111
0000000000000000
0000000000000000
0000000000000000
0000000000000000
1111111111111111
0000000000000000
0000000000000000
0000000000000000
1111111111111101
0000000000000000
1111111111111111
0000000010100100
0000000000000001
0000000001100000
0000000000111101
1111011001000010
0000000000000000
1111111111111111
1111111111111111
0000000001000011
0000000000000000
1111111111110100
0000000000000100
1111111101111011
0000001010110111
1111111111111111
0000000001000101
1111111101100011
0000000000000000
1111111100011101
0000000000000000
1111111111111111
0000000000000000
0000000000000000
0000000010101101
0000000000000001
1111111111100011
1111111011011001
0000000000000000
0000000000000000
1101101111110000
0000000000000000
0000000001101000
0000000000000010
1111111110110010
0000000000000000
1111111111111111
1111111111011010
0000000000000110
1111111111111111
1111111111111111
1111111111111111
0000000000000000
0000000000000000
0000000000000000
0000000000011111
0000000000000000
0000000000000000
0000000000000000
0000000000000000
0000000101110101
1111111111111100
0000000000000000
0000000000000000
1111111111111100
0000000000000000
0000000000000000
1111111111100100
1011110110010011
0000000010111011
1111111111111101
1111111111111111
0000000000000111
1111111111111111
0000001000100011
0000000000001110
1111111111111110
0000000000000000
0000000000000000
0000000000000000
0000000000000000
0000000000000000
0000000000000000
1111111111111110
1111111111101101
