11111111111111111011111011000001
11111111111111111100101110000000
11111111111111111111111100010110
00000000000000000000000000111010
11111111111111111101000111100010
00000000000000000011000110000011
11111111111111111111111001100000
00000000000000000000000010000001
00000000000000000010111110000101
00000000000000000100101110110101
00000000000000000001001001000000
00000000000000000010101101100010
00000000000000000001010010101101
00000000000000000000111101111011
11111111111111111110111001100001
11111111111111111111000011101001
11111111111111111111010011010101
00000000000000000000101001010111
11111111111111111101101010111000
00000000000000000010001110000100
11111111111111111100011101101100
00000000000000000010011110001100
00000000000000000000011101010110
00000000000000000010101111101111
00000000000000000000010100100001
11111111111111111111101001000110
00000000000000000011101001100101
11111111111111111111011011010111
11111111111111111110000101100010
00000000000000000000110000110010
11111111111111111111110101111110
00000000000000000001000011000111
00000000000000000000011100010010
00000000000000000000000101010001
00000000000000000011001111110101
00000000000000000101001011000100
00000000000000000000011101010100
11111111111111111110010111011101
11111111111111111111010011011011
11111111111111111101111000111001
11111111111111111110111101100110
11111111111111111101101110100111
11111111111111111110110101001100
00000000000000000000101111010100
00000000000000000010100100011001
00000000000000001000000100011010
00000000000000000010000110101000
00000000000000000010111111000000
00000000000000000001001110101001
00000000000000000001111111011101
00000000000000000101000011111110
00000000000000000011100000010110
11111111111111111101011010010011
11111111111111111111000101011011
11111111111111111101111011000001
00000000000000000001101000010110
00000000000000000100100000100010
00000000000000000011100010010111
11111111111111111100111100011110
00000000000000000010010101000110
11111111111111111111000011111110
11111111111111111110011011111111
00000000000000000000110001110101
11111111111111111111011111110000
00000000000000000000011110111110
00000000000000000101011100111111
11111111111111111110001100011110
00000000000000000000100111010111
11111111111111111110010111010001
11111111111111111111011011000100
00000000000000000101011000011001
00000000000000000000011110101011
11111111111111111111011001100011
11111111111111111111000100000110
11111111111111111001101100101110
11111111111111111110001111110010
11111111111111111111001110010011
11111111111111111100111110010100
00000000000000000000000011101101
00000000000000000011001100100001
00000000000000000000110101011100
11111111111111111101110001100100
11111111111111111101110010011000
00000000000000000010011111100001
11111111111111111111000010100101
11111111111111111111001011110011
00000000000000000000111010010010
00000000000000000000001101111000
00000000000000000011100111100100
00000000000000000100000001001011
11111111111111111111011000010000
00000000000000000001111111100010
11111111111111111101000001110101
11111111111111111110100111101000
11111111111111111101000101101010
00000000000000000100100101100111
11111111111111111110111110000100
11111111111111111111101101100010
11111111111111111111100111111101
00000000000000000000001100011010
00000000000000000001011001010110
11111111111111111101010110011001
00000000000000000010000011110111
11111111111111111111111111110011
00000000000000000010101101001001
00000000000000000001101001010101
00000000000000000001000000011011
11111111111111111110100111010010
00000000000000000001011001001001
00000000000000000001001111110110
11111111111111111100000111000110
00000000000000000010010001110001
11111111111111111111100000001000
11111111111111111100000011101001
00000000000000000000011001100011
00000000000000000000000101101011
00000000000000000001001001101111
11111111111111111101010010000010
11111111111111111101000000111100
11111111111111111101111101001001
00000000000000000001011000010100
00000000000000000001101100011100
11111111111111111110010100101010
00000000000000000000100001110010
11111111111111111110101001100011
11111111111111111110111011100111
11111111111111111110111111011100
00000000000000000000001101000010
11111111111111111101011101010110
11111111111111111101011000000010
00000000000000000100100100100010
11111111111111111111011111111000
11111111111111111110101000010010
11111111111111111110011010010000
11111111111111111110110101000001
00000000000000000011100010000101
11111111111111111111010100001001
00000000000000000011001011111101
00000000000000000010001111110100
00000000000000000100000101001111
11111111111111111101000010110111
00000000000000000000011011101110
00000000000000000001111011011111
00000000000000000101000001010000
11111111111111111110000000001100
11111111111111111111100010110100
00000000000000000000110011001001
00000000000000000000001111100101
11111111111111111101111011011010
00000000000000000000000101011100
11111111111111111101011001011011
00000000000000000000101010011111
00000000000000000010011100001011
11111111111111111111110011000111
00000000000000000000100110101100
11111111111111111110010101101100
00000000000000000010101011100111
00000000000000000010011000100011
00000000000000000000111111000011
00000000000000000010001000000001
00000000000000000010111110111110
00000000000000000010001000110110
11111111111111111011101110010010
00000000000000000010011110111100
11111111111111111110110101101110
11111111111111111111001011010000
00000000000000000100101101100010
00000000000000000001010001011101
11111111111111111110111011100011
00000000000000000011001011000010
00000000000000000010010111101001
11111111111111111101101010000100
00000000000000000001011101111001
11111111111111111110010011110011
00000000000000000011000101101011
00000000000000000001001111100000
00000000000000000000100110111001
00000000000000000100110001111001
00000000000000000100001110001110
00000000000000000000101110101000
00000000000000000000110010111010
11111111111111111110001111001010
00000000000000000001010101101100
00000000000000000000000001110100
00000000000000000000111101010000
00000000000000000001010110000111
00000000000000000001100010010001
00000000000000000000111010111011
11111111111111111110111001111000
11111111111111111101111111101011
11111111111111111100101110000111
00000000000000000000001111101111
11111111111111111100010001011010
11111111111111111011111011000000
11111111111111111111001100010110
11111111111111111110001110011100
00000000000000000010110111100100
00000000000000000000001011001001
11111111111111111011100111000101
11111111111111111111101110111010
00000000000000000000011100010111
11111111111111111010111010100000
11111111111111111100111001101010
11111111111111111111111111100110
00000000000000000001100101110100
11111111111111111111111011010110
11111111111111111111101101010101
00000000000000000010011111000011
00000000000000000000111100111001
00000000000000000001010011101010
00000000000000000001010000110011
00000000000000000000001011001111
00000000000000000000000011000000
11111111111111111001111110101100
00000000000000000000100011001101
00000000000000000001100010011000
11111111111111111110101000100000
00000000000000000010010101001111
00000000000000000001110100100001
11111111111111111111101011100111
11111111111111111101110111001011
11111111111111111110110101110000
00000000000000000011011101001011
11111111111111111101111010011100
00000000000000000001100001000000
00000000000000000001110101010011
00000000000000000011101011011001
00000000000000000011000010101010
11111111111111111110101011110000
00000000000000000010011001111101
00000000000000000001000000011111
00000000000000000001001001101110
11111111111111111111101000011101
11111111111111111110000110001110
11111111111111111101010011110010
00000000000000000000110010010011
00000000000000000010011010000111
00000000000000000100000010001010
00000000000000000011010110100100
11111111111111111110110001011100
11111111111111111100110010110100
00000000000000000000010100010101
11111111111111111111110001011010
11111111111111111111101010110001
11111111111111111011110001000010
11111111111111111111001101101001
00000000000000000001011101010001
11111111111111111111111111010101
11111111111111111111011001111111
00000000000000001000010000001110
11111111111111111111100110100111
00000000000000000010100010010110
11111111111111111111011011010100
00000000000000000000100010100000
11111111111111111110001111101101
11111111111111111111111011000011
00000000000000000010000101000000
11111111111111111111000100001011
11111111111111111111010001101111
11111111111111111101100101000100
00000000000000000000010001100110
11111111111111111111001000100010
00000000000000000100001100101011
11111111111111111101111001010010
00000000000000000010000110101100
00000000000000000001010101101111
00000000000000000011101001101000
00000000000000000000110111011011
00000000000000000010100011100010
00000000000000000001001011111001
11111111111111111101111111111100
11111111111111111110111001100100
11111111111111111100110000011000
00000000000000000000010100010101
11111111111111111110101000010010
00000000000000000010000001001001
00000000000000000010011011001100
00000000000000000000010110010110
11111111111111111110111111110010
11111111111111111111011011101111
11111111111111111111100010000011
11111111111111111101000101011011
00000000000000000000001001111010
11111111111111111111000001101011
11111111111111111101011111000111
11111111111111111110000001100000
00000000000000000001111110000110
11111111111111111111111011101101
00000000000000000000001001001000
11111111111111111100010001000101
11111111111111111100100011100001
11111111111111111111001100001010
00000000000000000001000101000000
00000000000000000011110001000000
11111111111111111010100010000010
00000000000000000001110110001101
00000000000000000000000110111111
11111111111111111110110111001101
11111111111111111101101111110001
00000000000000000001110010010101
11111111111111111110101000010000
11111111111111111111101010100100
00000000000000000001011111011110
11111111111111111101101010001111
00000000000000000000100110100000
00000000000000000011001111111111
00000000000000000010100001000110
11111111111111111101001111101000
11111111111111111110001010100001
00000000000000000001000011111000
11111111111111111110100101110011
00000000000000000000111011101001
00000000000000000001011011000001
00000000000000000000111100101010
11111111111111111111010100101100
00000000000000000000001100110100
11111111111111111101111100011010
11111111111111111110110100101110
11111111111111111101111010011110
11111111111111111111010011100111
11111111111111111111011101000111
11111111111111111111011101110100
11111111111111111101100110000010
11111111111111111110000010101110
00000000000000000010000111010011
00000000000000000001101001100101
11111111111111111111110001000000
00000000000000000001001011000111
11111111111111111110100111101010
00000000000000000011100011111000
00000000000000000001111101111011
00000000000000000000011101010000
11111111111111111111100110001010
11111111111111111110110111010101
00000000000000000000100011111100
11111111111111111110101001010000
11111111111111111111011110000010
11111111111111111110001001000001
00000000000000000010111010110100
11111111111111111110111011001010
00000000000000000000100011010111
00000000000000000000110010111011
11111111111111111101100001010000
00000000000000000010000100010111
11111111111111111110111010011110
11111111111111111110100100111110
11111111111111111110010100010000
11111111111111111111101011110011
00000000000000000001101101110101
00000000000000000000110001001111
00000000000000000000001000111011
11111111111111111101010110100010
00000000000000000000010010001011
11111111111111111111011111001001
11111111111111111101100110110010
11111111111111111111000000000100
11111111111111111110111010100101
11111111111111111101010000110110
00000000000000000001111111011110
11111111111111111111100011010001
00000000000000000000110000000111
00000000000000000000111111100001
00000000000000000010100001101101
00000000000000000001011110010000
00000000000000000001100011001100
00000000000000000001100010000001
00000000000000000010001010010011
00000000000000000010000001100000
00000000000000000001111011101100
11111111111111111111000111110011
11111111111111111001101001000010
11111111111111111111010100111010
11111111111111111110111010101001
00000000000000000010010000011010
00000000000000000000011110110110
00000000000000000011100111100000
00000000000000000010001001011111
00000000000000000000111011001100
11111111111111111111011001010000
00000000000000000000101110110000
11111111111111111110011011110000
00000000000000000011011001111101
11111111111111111111010011000011
00000000000000000001101000100001
11111111111111111110100111010100
11111111111111111011101001000110
00000000000000000010011111100101
00000000000000000000111001010110
11111111111111111110010100110000
11111111111111111101101100001000
11111111111111111110000010010100
00000000000000000001010010111100
00000000000000000010001101101000
11111111111111111111110000011001
00000000000000000001000010000101
11111111111111111111001001100101
11111111111111111111100011010110
11111111111111111111111101011101
00000000000000000001001110111101
00000000000000000001111111101011
00000000000000000001011100010011
11111111111111111110110011101111
00000000000000000010000010000001
11111111111111111111100011111011
11111111111111111110101000010001
11111111111111111111111000100001
00000000000000000001001011111110
00000000000000000011111001000100
00000000000000000000001000110001
00000000000000000000001100011010
11111111111111111101011000110100
00000000000000000000101101110011
00000000000000000001100000100000
00000000000000000001010101100111
00000000000000000010100010000001
11111111111111111111011001101010
11111111111111111110001111101010
11111111111111111110111101101100
00000000000000000001001011101110
11111111111111111110010011111011
11111111111111111101110010010000
11111111111111111101111110101111
00000000000000000000101101111101
00000000000000000001001111001011
00000000000000000000110001110110
11111111111111111110000100110001
11111111111111111111000010111101
00000000000000000000000100011100
11111111111111111110010001101111
11111111111111111101101110001110
11111111111111111111101111101100
11111111111111111110001000001111
00000000000000000001000111101100
11111111111111111110010001000001
11111111111111111110101100111001
11111111111111111101100010111110
11111111111111111110101000111100
11111111111111111110000110001011
11111111111111111111100101011100
11111111111111111111001100100010
00000000000000000001000101010001
00000000000000000011100101110101
11111111111111111110111101111110
00000000000000000001111110010011
11111111111111111111001000010101
11111111111111111101101101100000
00000000000000000010011110010111
11111111111111111110010100000010
00000000000000000001011100011110
11111111111111111101000010110011
00000000000000000000100111011001
11111111111111111111101000011100
11111111111111111101111110100000
00000000000000000000111011011111
00000000000000000000101111110011
00000000000000000000010101010001
11111111111111111111101000100011
11111111111111111101110000000000
11111111111111111100011011110000
00000000000000000000011010110100
00000000000000000001010110010011
00000000000000000010110101001010
00000000000000000000010111011100
11111111111111111111101001100100
00000000000000000000010000110101
11111111111111111100011011001001
00000000000000000000100001011011
00000000000000000000000010110111
00000000000000000001001001011100
11111111111111111111111000100100
00000000000000000010101100001010
00000000000000000000011101001011
11111111111111111011001101011000
00000000000000000000010111111011
00000000000000000011111011100011
11111111111111111111100110100101
00000000000000000000101011100110
11111111111111111111011100000111
11111111111111111101110010111001
00000000000000000001011011100111
11111111111111111110101011101010
00000000000000000000011001100110
11111111111111111111100001010111
11111111111111111110011010001001
00000000000000000000011101111101
11111111111111111111100011101110
00000000000000000001000100011110
00000000000000000011101000101011
11111111111111111110011100110010
00000000000000000001010100101111
00000000000000000000000001110101
00000000000000000001011010110111
11111111111111111111101101010001
11111111111111111110110010000000
00000000000000000000000001000110
11111111111111111101101100100000
11111111111111111111011011100000
00000000000000000000011010111111
11111111111111111110101100000011
00000000000000000001001101111010
11111111111111111101000100101100
11111111111111111110001111011101
00000000000000000000111011111101
11111111111111111110011010010000
11111111111111111101100001100101
11111111111111111111101011101101
11111111111111111111101011010110
11111111111111111110000101000100
00000000000000000000000101011101
11111111111111111101101001100000
11111111111111111110101011100001
11111111111111111101101001111110
11111111111111111101010100010010
00000000000000000011010000111001
11111111111111111110000110101000
00000000000000000010110111101101
11111111111111111111001010011100
11111111111111111110001100110110
00000000000000000000101000000101
11111111111111111111101000110101
00000000000000000000110000101111
11111111111111111101101110010011
00000000000000000000110000110010
00000000000000000000110110100100
00000000000000000000111111111011
00000000000000000001000011100011
00000000000000000000111000010001
00000000000000000000110111110110
00000000000000000001111000010010
11111111111111111110101101100010
11111111111111111111001111001111
00000000000000000001101101110111
00000000000000000000111101110110
11111111111111111110001110010101
00000000000000000001000010010101
00000000000000000000001000110011
00000000000000000000001101000101
11111111111111111111101100000011
11111111111111111110100110101101
11111111111111111111011101100100
11111111111111111111010101111000
11111111111111111110110001011011
00000000000000000000110010100011
11111111111111111110100101001101
11111111111111111110101111011100
00000000000000000001010100110000
00000000000000000001110010010111
11111111111111111110001011010001
00000000000000000000110000111011
00000000000000000000001001101011
00000000000000000001001010100101
11111111111111111110000100001101
00000000000000000000101100100010
00000000000000000001000110101010
00000000000000000000011110011100
00000000000000000010010111110111
00000000000000000000111001101000
11111111111111111110011000110001
11111111111111111111001011101100
00000000000000000000110011101010
11111111111111111111111000111011
00000000000000000000110111111110
11111111111111111111011101110100
00000000000000000010111101110101
00000000000000000001101010110010
11111111111111111100111110000110
00000000000000000000101110011001
00000000000000000100101101110000
11111111111111111111101000101100
00000000000000000000100100111000
11111111111111111111001111010001
00000000000000000010000000100010
00000000000000000001010001110101
00000000000000000000100000001101
11111111111111111110010001010111
00000000000000000010001000110111
11111111111111111111110111100101
00000000000000000001000011110101
00000000000000000000101010110110
11111111111111111110111101110011
11111111111111111110010000111100
11111111111111111111010101011111
00000000000000000000110011000100
11111111111111111111001001101000
00000000000000000000011100111010
11111111111111111101111110000111
11111111111111111110100110001111
00000000000000000001000001100010
00000000000000000000101011000001
00000000000000000000100000001101
00000000000000000000010100000110
11111111111111111110010001111000
00000000000000000001000000101001
11111111111111111110010110001111
11111111111111111110010001010011
11111111111111111110111110001011
11111111111111111110110101100100
11111111111111111111010111111010
11111111111111111111111010101111
11111111111111111110101101101100
00000000000000000001010011000000
00000000000000000001010011011110
00000000000000000001011110011101
11111111111111111101110110101111
00000000000000000000000010111011
00000000000000000000011011101010
00000000000000000000000010001110
11111111111111111111111110011001
11111111111111111110100011001111
11111111111111111111110010010100
11111111111111111111011101011100
11111111111111111111101110001100
00000000000000000000011000001111
11111111111111111111101001111110
00000000000000000000010000000101
11111111111111111111010100000110
00000000000000000000001100101010
11111111111111111110110100110011
11111111111111111111001001101111
00000000000000000001100111010010
11111111111111111111001111010110
00000000000000000010001110110001
11111111111111111110110110011011
00000000000000000010000111010110
00000000000000000010001011110100
00000000000000000000011011011111
11111111111111111111110101100111
00000000000000000001101110000111
00000000000000000000101110110011
00000000000000000000101101111011
11111111111111111111010101111010
11111111111111111110111101001101
00000000000000000001000001101111
00000000000000000000111111110101
00000000000000000000010001100100
11111111111111111111110010111101
11111111111111111110101111100001
00000000000000000000111001100011
00000000000000000001010101101010
11111111111111111111111010010010
11111111111111111111001100101010
00000000000000000000101111110001
11111111111111111111110111001111
00000000000000000001000111110000
00000000000000000000011010110110
11111111111111111110010110101001
11111111111111111101001010110011
00000000000000000001000100010010
00000000000000000000001010110110
11111111111111111101100001110111
11111111111111111111100110111101
11111111111111111111111001000011
11111111111111111110010111111011
00000000000000000001000011010001
00000000000000000000100011011001
11111111111111111111110101101001
11111111111111111111010110010101
00000000000000000000000001010010
11111111111111111111010101011001
00000000000000000000011000010011
11111111111111111111101100111010
00000000000000000000000100010011
00000000000000000000110100111110
00000000000000000001111110101110
11111111111111111111111011111011
11111111111111111111001110101001
11111111111111111111110000110101
00000000000000000001010000110111
11111111111111111111101110010110
11111111111111111110001100100010
00000000000000000000111000000001
00000000000000000000010011111010
11111111111111111111011001110010
00000000000000000001000100110110
00000000000000000000001010010001
00000000000000000001101000100110
11111111111111111110010100101101
00000000000000000000001001011100
00000000000000000000001100011110
00000000000000000000100101111001
00000000000000000000000001100110
11111111111111111111110010110110
11111111111111111111011000111000
11111111111111111110001100001101
00000000000000000000100000000111
11111111111111111111000010001011
11111111111111111111010001111010
11111111111111111111111101111100
00000000000000000000010110000000
00000000000000000000011000000010
00000000000000000001100010100111
00000000000000000000100011000110
11111111111111111101110101011010
11111111111111111111111111110101
11111111111111111110110111001001
00000000000000000000101001011100
11111111111111111101101110110100
00000000000000000001011000100001
11111111111111111110010101111010
11111111111111111110100011100101
00000000000000000000101110001100
00000000000000000000111000100000
11111111111111111110011000111000
00000000000000000000000001010110
00000000000000000001000110001011
11111111111111111111110101110001
00000000000000000010000011001001
11111111111111111111101010101101
11111111111111111110101111011110
11111111111111111110110001110011
11111111111111111110011000101100
11111111111111111111100011111101
00000000000000000001110101111100
00000000000000000000000001110110
00000000000000000000010001010011
11111111111111111111001101111111
00000000000000000000011001111010
00000000000000000000100000110101
00000000000000000001001101100000
00000000000000000000010011111100
11111111111111111101100000101001
00000000000000000000010100111100
00000000000000000000101000001000
11111111111111111110000000111111
00000000000000000001100111111100
00000000000000000000011011110100
11111111111111111110101101011110
00000000000000000000101010000001
11111111111111111111001101111001
11111111111111111110010111110011
00000000000000000001000110100111
00000000000000000001010010100000
00000000000000000000000100001100
11111111111111111110110011001000
00000000000000000000000111100001
00000000000000000001000000111011
00000000000000000000100011111001
00000000000000000000111100011011
11111111111111111111100111100011
11111111111111111110111100000100
11111111111111111111001111011111
11111111111111111110111100010010
00000000000000000000101000100010
11111111111111111111010011100111
11111111111111111111110010100010
00000000000000000001000000111111
00000000000000000000100101011001
00000000000000000000000100100100
11111111111111111111100110100011
00000000000000000000000010100110
00000000000000000001000001100010
11111111111111111111110100110010
11111111111111111110111010110111
00000000000000000000011010000000
11111111111111111111110110100000
00000000000000000000110000110110
00000000000000000000010011100110
11111111111111111111001000001000
11111111111111111110111111101111
11111111111111111111001011010101
11111111111111111110101100010001
11111111111111111110110100000000
11111111111111111110011110010101
11111111111111111111110100101001
00000000000000000000110010010100
00000000000000000000101010110001
00000000000000000001100000100010
11111111111111111111101001000101
00000000000000000000100010011110
11111111111111111111010101001101
00000000000000000001010011110110
11111111111111111110000000001100
11111111111111111111101010010110
11111111111111111110001011010111
11111111111111111110111111010001
11111111111111111110110101010011
11111111111111111110011001010101
11111111111111111111101100001001
00000000000000000000110001111010
00000000000000000000011111100111
00000000000000000001000010100000
11111111111111111110110111000010
00000000000000000000010000101101
11111111111111111110111000001100
00000000000000000001110100111101
11111111111111111110110001001111
00000000000000000001101101000110
11111111111111111110010011111011
11111111111111111110110101111011
11111111111111111110001001111111
00000000000000000001110010110100
11111111111111111110101000000100
00000000000000000001100110010011
00000000000000000000000000100100
11111111111111111111001010001111
00000000000000000000010100110111
00000000000000000000111001101010
00000000000000000000111111000011
00000000000000000000101011110011
00000000000000000001000111101011
00000000000000000010001101100011
11111111111111111110111100111011
11111111111111111111100101011000
11111111111111111111100111110010
11111111111111111111111001101110
00000000000000000000010001011101
00000000000000000000100110101010
00000000000000000001101110100101
11111111111111111111100001000010
11111111111111111111001101111110
11111111111111111111011101011111
11111111111111111110101100001101
00000000000000000001011001110101
00000000000000000001001001101100
11111111111111111111111111001111
00000000000000000000001111110011
11111111111111111111011011110001
11111111111111111111000011110001
00000000000000000000001111011101
00000000000000000000100010100001
11111111111111111111101010000110
11111111111111111111101101010011
00000000000000000000000000000011
00000000000000000001110110001010
11111111111111111110111110001001
11111111111111111110000100110100
11111111111111111111000111101101
00000000000000000001101111010011
00000000000000000000000100010100
00000000000000000000011011011101
00000000000000000000011001101100
11111111111111111111101100101000
11111111111111111111110001100001
00000000000000000000000000000011
11111111111111111111000001100010
11111111111111111110110111100100
11111111111111111111101000101101
00000000000000000001101000101101
00000000000000000000110100000110
11111111111111111111111100010100
11111111111111111111000000000111
00000000000000000010000010011110
11111111111111111110000111101001
11111111111111111111010110001100
11111111111111111111110000100010
00000000000000000000100000000001
00000000000000000000000111000011
11111111111111111111111011011011
00000000000000000000001001011110
00000000000000000000000100010111
11111111111111111110101011100110
11111111111111111111110001111010
00000000000000000000011110000100
00000000000000000000101011100001
00000000000000000001100000011010
11111111111111111110111011001000
00000000000000000000101110111011
00000000000000000000110110110000
11111111111111111111000101010010
00000000000000000000010000001010
00000000000000000000001111110100
11111111111111111111111101100111
11111111111111111111110110100010
11111111111111111111001100101100
11111111111111111111111100011111
11111111111111111110000010001101
11111111111111111111100101111001
11111111111111111111010100011100
00000000000000000000100000110001
11111111111111111110011111001011
00000000000000000011000110111110
00000000000000000000000011001111
11111111111111111111100001001001
11111111111111111111001011010101
11111111111111111111000101011101
00000000000000000000010010000100
11111111111111111111101000111011
00000000000000000001000010101110
00000000000000000000000011010010
00000000000000000001001110001001
11111111111111111110101011011000
00000000000000000000011111101111
00000000000000000000010111100100
11111111111111111111011110011010
11111111111111111111011100000011
00000000000000000001110001011000
11111111111111111111100000110101
11111111111111111111011110000110
00000000000000000000111100110010
00000000000000000000101101000010
00000000000000000000011001110111
11111111111111111110110110100110
11111111111111111111111011101101
11111111111111111111000010101000
11111111111111111110111000011001
11111111111111111111000001011011
00000000000000000000000010011110
00000000000000000000100101111110
11111111111111111111111000010010
00000000000000000001001100110011
11111111111111111110011101011000
00000000000000000001100010101001
00000000000000000000010100111101
11111111111111111111101011100011
11111111111111111110011101010001
00000000000000000000100001111001
