01110010
00101100
01010010
00111111
01001011
10010001
01000000
10010110
01001100
10101101
10111011
01111001
10101110
01110001
01011100
00110001
01001011
00000010
00101011
00001010
00101101
01111011
00110100
10110000
01010010
00001110
10011111
01000001
01011000
01010100
10010111
01001000
01001001
01000011
10011000
10101110
10000110
01001000
01001110
10101110
01011100
10010100
01000010
00000101
10100001
00011010
00100011
01110101
00100111
10000010
10100000
01111011
00110001
00100000
00000101
01010010
10101111
10001100
00000111
00011010
00000101
01000111
00100101
00111001
00001011
00010110
01111110
10001000
00101100
01001001
00100110
00001110
01001011
10011011
10110100
10001001
00001100
00110010
10111011
00011000
10010001
01101111
01110101
10110100
01010101
00100010
10111001
00100001
10110110
10111001
10101101
10111010
00010100
00010000
10010101
00101100
01101000
10110101
00001100
10010101
00000111
00100110
10010111
10001101
01011100
01100101
01001000
10000111
00011010
10000000
10111000
10010000
01110010
01000111
10110101
00100101
01001110
00000001
10101100
01111011
00011110
10101101
10101111
01110011
01011101
00011100
10011101
01100000
00101100
00011100
00100000
01001100
10010101
00100001
10000000
10011000
01100111
01100010
01100011
01100101
01100100
01011110
01010100
01001001
01011110
10010101
10101110
10100000
00101110
00111111
00100101
10110101
01000100
10101000
00011110
01100000
01110001
01111111
00111101
00010101
10101001
01001000
10001110
01000001
01110011
10001011
01110111
00011000
00101000
01111111
00110001
00001011
10101010
01010101
01000000
10110011
01111001
01101010
01111111
10100011
00010101
01111110
00000010
10101001
01010101
00100101
10000010
01011010
10101101
00101110
00100011
00111011
01011100
00101001
00110101
00010000
01101011
10101111
00100001
01001010
00011001
01110001
10111000
01101000
01010011
01110011
00100010
10111010
00101101
01000111
01010100
10010001
10001101
00110110
01010011
00001111
00111001
10100101
01110111
01110100
10001010
00010111
10101000
01101000
00010001
00100001
01110010
01001101
00000011
10000100
11000000
00010101
00110010
00001011
10001000
01101110
00101111
01001111
10110101
01011110
01011111
01101111
00100111
10010100
01001101
00111101
10000001
10011010
01000010
10010111
01011100
01111100
00110111
00001111
10001111
10101010
01000100
00100101
10110010
10100010
10110100
01001100
00101010
01101111
00101100
10101100
01000111
10100110
10010110
10010111
01110111
00110010
00110110
01100110
00000010
00010011
01010100
01011100
10101100
10101000
10110110
00110110
00000100
00100111
01010000
01010010
10110111
01100001
00100001
10111010
10001111
00010110
01110000
00000001
01110111
10001001
01000100
10110001
00111100
10011100
01011101
10110001
01100001
10001000
10100101
01000000
01100101
01011100
01100000
10010111
10010110
01110000
01111100
01000000
01010111
01001001
01011101
10101101
10111110
01000101
10011010
01101011
10010010
10010000
01101111
10000100
01001110
01111011
01110011
01111101
00111001
00101000
00110011
10101100
01010101
00011110
01111111
00101101
01001011
10010000
01100010
00001100
01000101
10100010
00010010
10000111
01000011
00101000
10000001
00110001
10111100
01100000
00110011
00001001
01011110
10100100
00010100
10011000
01110001
01010111
01000000
10001101
10001110
10111110
10001001
01111101
00110110
01111110
01110101
01100101
01110111
01101001
01101010
01111111
01100110
10001100
00010111
10000111
10100111
10001000
10100110
10010101
01110010
10000001
00100001
00111010
00101100
10101001
01110100
01001101
00111000
00010001
00011101
00010010
10110000
00111011
00101000
10110011
10110000
01011000
01001010
00110101
00010011
00111000
01001110
10001000
00111001
01011101
01010111
10100101
10111111
10010001
00001010
01001100
00101001
00101010
10100110
00101111
10011110
00110000
10000100
01010010
01001111
10100111
01001001
10010110
10100110
10001110
01000100
00001110
10011100
01111001
01001101
00101101
01001111
10110110
10011110
01011101
01100111
00011011
01101011
01001001
00011011
10001000
10111101
01000110
01110010
10101001
01100100
10001100
10101001
10111101
10110000
10110001
00001101
10111110
00110111
01101000
01000010
01011110
01111010
01000101
10110010
01010111
01010111
00111110
10101111
00011000
00010100
00111011
01111011
10010010
00010011
10010001
10100000
01100011
01111111
01100111
00111001
01111110
10001001
01101010
00010010
00101111
01100011
10100011
00001000
10010001
01010000
00111111
01010111
10000001
01100111
10010010
00100100
00010011
10011100
01111110
10101011
10111110
10100111
01001100
10000101
00101000
01101001
00011000
00010100
00010000
10011111
01010010
01001101
01101100
10011100
01010110
01010100
01111001
10000110
10100110
00010111
01111100
10111101
00101000
01110110
00011111
01000111
00101100
01010110
01110101
00010001
01100001
10111100
00100110
01111101
01010110
01010100
10111100
00101001
00000010
00011101
00010010
01010010
00110010
00101110
01011110
10100100
00101110
00001000
00011001
01010001
10101001
01100000
10111100
10111010
01010011
01000010
01011000
01100011
10001011
01110110
00100101
00110000
01110110
00100001
00110111
10000111
10001010
01000101
10011110
00110011
01011100
10101111
01100100
00100011
10000011
00000001
00010101
01000100
10101100
00101111
01010011
10010011
00110110
10101011
01100011
01000011
10000000
10000101
10110100
01001011
10000001
01000001
01101111
00011101
00110000
10110010
10000100
01001011
10100111
01010010
00100011
00100101
10110111
01001010
00001111
00000001
00111010
01001110
01110010
00111001
10100011
01111000
10011110
00110010
00000101
01111100
10001110
10000101
10110101
00101111
00010000
00000011
00111110
10110101
10101111
00010000
10011010
00100110
10110001
01011101
10111100
00011010
00011111
10010111
10010010
10111000
01011001
10101110
01100000
00000001
00010001
10001010
10110001
00110010
01101111
00011001
00001101
00100010
00001000
01100111
00101001
00001010
01111101
00101100
10010001
01111000
00000101
00100101
10100010
00110100
01001011
00101101
10001001
01000100
10101000
01110111
01010000
01101100
01010111
01001011
01000100
00100010
01110011
00100111
01100001
10011011
01011110
00011111
00110000
10001010
10111000
00111001
10100001
00001111
01111110
01100101
10010000
00101110
10010010
10001101
00101100
10011101
10001000
00101010
10101001
10101010
01101111
10011100
01011001
00011001
01101011
10100110
00111001
01000000
00101000
00010111
10010001
10010100
10001011
10101011
01100001
10001010
10001100
00011001
10001101
10010000
10101111
01110000
01010000
01110011
10111011
00011010
00110111
00010011
00111001
01110101
00010110
10100110
01111100
01111000
00001000
01010001
01111001
10000100
00011011
10111000
00100000
00101100
01110000
00001101
00010011
00011100
00100001
10001101
10011110
10001101
10011100
00010001
00110000
00100001
01010011
10011111
01110001
01100111
10101011
10100111
01001011
01001100
00010010
01011011
10111000
00111011
00110001
00100110
01101110
01110000
00000100
01011111
00111010
10101011
01001000
10111000
10101001
01100110
10111111
10111111
00010100
00011111
10100000
01010000
01010011
01010101
10110110
00101101
00101001
01110110
10101011
00110011
10100111
10111100
01101010
00010111
00001111
01010001
01001110
00101001
00010000
01000101
00111000
01111001
00011011
10101001
01111101
00111010
10010110
00111000
00111111
01101000
00101000
01100110
00111000
00011011
01001111
00111110
10111100
00010110
00011000
00110010
10010001
01101100
10111000
00100010
00001001
10110001
00101000
00101010
00010000
00000100
00100011
01001000
00100011
10110111
10100110
10000011
00100110
00011100
10001001
01000001
00111001
01110111
01101010
00111000
10010101
01111100
00011011
01100101
10011010
00111000
01011010
00111100
00101111
10000111
00111000
00010000
00100000
01000001
00011001
10101010
01001011
00100011
10110010
10110011
01000111
10111100
10001010
10010100
01111100
10101001
10000001
00100111
00111010
01000000
10100110
00010101
00001000
10110111
00101001
01110111
10011110
10011000
10111110
01111101
01001000
01111001
10010011
00011100
00100111
00000010
01001101
10001001
01011011
00011011
00101000
01101100
00111110
10011101
10000110
00111110
00001001
10111011
10000100
10011101
00000000
01001100
00110101
01110111
01011101
