01010100
01000111
10010100
10110010
01111010
10011001
10101011
10111111
01101100
01011010
10010100
01111111
00100100
10101100
00101011
10101011
10110010
01111000
00011010
10010100
10101100
00110011
00101001
01100110
00001011
01010101
10100100
00111001
10111011
00010011
10010101
00011010
01100001
00100010
01101001
00111110
10100011
10001001
01000101
01001101
00000111
01000101
00100101
00011010
10101001
10010110
01010101
10000010
01011001
00011110
10010011
00000010
01000111
01100111
01111011
00000010
01010111
01011110
01100100
10101000
00000111
10111100
10101100
00110011
00101010
10100101
10011111
00001101
01001000
00001000
00100010
00100011
01000011
10100101
01101000
00001001
10011101
00110011
00111010
01111010
01001010
01110101
00001011
00001100
01011100
00001100
01000100
10001111
10111111
00000100
10000010
00001000
00000000
10001111
00110101
10101001
01100010
00101111
10111101
00101101
00111001
01100010
10011101
10010010
01110111
00101100
00011010
00001000
01111001
00111110
01010110
01000010
01100011
01011001
01001001
10100101
00001010
10001100
00000101
01010110
00111011
01011001
10100010
01101001
00100001
00001100
10101100
10000110
01100100
10100010
10011110
01100010
10000010
01110001
00010011
01101110
10101000
10110100
10001101
10100111
00100100
01010101
00000001
00110111
01100100
01111101
10011001
01101010
01101001
10000100
00011001
00010011
00000100
00110101
01111111
00010000
10000100
01000111
00100100
10100000
00111000
01110111
10100001
01001010
01010101
00101110
01001011
00011111
00000010
01011010
10011011
01001011
00101000
10101001
00010011
00111110
10100011
00011100
10000011
00010001
01110011
10000000
00010110
10110110
01000011
10010001
01110101
10101111
01110011
00010000
00111111
01011011
00000110
00010011
01010001
10110101
00001100
10100101
00111010
00000100
01011010
10110101
10010000
01010100
10010001
10100110
00100101
10011100
00111101
00100001
01011101
01111111
00011000
10101110
10110011
01110111
10001000
00110110
01010111
10001010
00100111
10101001
00111011
10111010
01011110
00110001
10000010
01010100
10100011
00001111
00011100
01000011
10101001
01001011
00110000
10110101
01010101
10000111
00001010
10101010
01111100
01111111
10100111
01111100
01111011
01011011
00010000
10111001
01100000
10001110
00100101
10101100
01111110
10001001
01100011
10001101
10000111
00011111
10110101
10001100
01100101
10011110
01111011
10011000
00011101
00101001
10010101
00011100
10010010
00111011
00110001
01111110
01000101
01111101
10100011
10101000
00011000
01101000
01000111
00110100
01110101
00011000
10010001
01101000
01110101
01111110
01111110
10001011
10000001
10000001
10001010
01111110
10011011
10100011
01111110
10001111
10000000
10000111
01111111
01111110
10111000
10010100
00111000
01111100
01111010
00010010
01111011
00001000
10011100
10000111
01111011
00100110
00110011
01100100
10101101
10000101
00100010
01100010
10011110
00101011
00100010
01011101
10010011
01001010
00010100
01110010
01011101
01110111
10011010
01111011
01111101
00010011
00110111
00000110
00100000
10000000
01100010
00010100
10110000
00010010
00011010
01001010
00001101
10101100
10000001
00101000
00111010
01001111
10101111
10110000
01010001
10011000
00100101
01111110
10011000
01001111
00000010
01001111
10000010
01001100
01011100
01101001
00100001
01110010
10000101
10000110
00110000
10100100
00010101
01111011
10000010
10100000
10001110
00111111
00111110
00100010
10100010
10111100
10111011
10011010
01110011
01000110
01010111
01000011
01010011
10110010
00001110
01000000
10011011
01110010
10100011
00111010
00100010
01001100
10100100
10110010
10000110
10001111
01111011
10100011
10010110
10101101
00011011
00001110
01111011
00101101
00010101
10111110
00010111
01000101
10011011
10011011
01110110
10000110
10011110
01110111
10111111
10101011
10000001
00110010
10110001
01000011
00110011
01001000
00011001
10001001
01111101
01101001
10000100
00111101
10010111
10111101
01110000
10011011
01010010
01001011
10001000
01111110
01101011
00001100
10100110
01101111
00011001
01111111
01111000
00101110
01111100
00100110
10000000
01010111
00000000
01100111
01111100
10101001
01010100
10100101
00011111
10110100
10111000
01111010
01001011
01110011
01010000
00001111
00110110
00010011
10100011
00001000
10100111
10110011
00100111
00100110
00100010
01011100
10000101
10011010
01000111
01100111
01110110
01100000
01010111
01110100
01000111
01111001
10110011
00110111
01111100
01010011
10010001
10000010
10010010
10111110
00110010
01011010
00100100
01100111
00101011
01111101
10001010
00010010
10001111
01011011
01000101
10001100
10000010
01011001
01110010
10000010
10011110
01011001
01001101
01011010
01101010
10010010
10010111
00101100
01101110
00101111
10010101
00011010
01100000
01100000
10001010
01110011
01110110
10110000
01010011
01100011
00100011
10011111
01100000
01100001
01101010
00110101
10010111
01001111
01110001
01010111
00010100
00011100
00101110
01110100
10110001
10100111
01011101
10000000
01110010
00000100
10101100
00110111
10011110
00010001
00010111
01010001
01010001
00011000
10000011
10001100
00110010
00111000
01100000
01100101
00100101
00100110
01010110
00010111
01100011
01011110
00111100
01101100
10110111
10101000
10110011
10001101
10101011
00111001
10001100
10011101
01010100
10011000
01100101
01101011
01010010
10111110
00001001
00110111
00110011
00011111
10010011
00111010
00111101
10000100
10011101
00110010
00111011
00101000
00000011
00111110
01001010
10001101
00000000
01111011
10111110
00111101
10001000
10001011
10000001
00011011
01010111
10111101
00001111
10000000
10001011
01101101
10000011
10111011
01010010
10100000
10110110
10111110
00011001
01001111
10110111
00100100
00110100
01101100
01011010
01011001
00000101
01000110
00111101
10010100
00001111
01111010
00000111
10111010
00011111
10111010
01100101
10000101
00011000
00111100
00000100
01011100
00011000
01100011
01001010
00111111
01100100
01010001
01000111
01111001
01110011
10010111
00111101
01010100
00111001
01000100
01000111
10001110
01111001
00010111
10010000
00011110
00100001
10110101
10100010
00111110
10010011
10010010
01001110
10011111
01010001
00100110
00110000
10101010
01100100
01101001
00010100
11000000
10111010
00001000
00110110
01011000
01111011
01010101
00100011
10001000
01111001
01100101
01111101
10000101
01111000
01001000
01000000
00001000
01010000
00101110
10100111
10000100
01100011
00100100
01100100
00000010
00101100
00010010
10011000
00100110
01110011
00000100
10001001
10001101
01111101
00010101
00111011
10001000
00100100
01000011
10100010
10101111
01100000
00010011
01111100
00110000
00111111
10101000
10001110
01001010
10100000
10000101
00111100
01101101
01010010
10111100
00110100
10001110
10000101
10011001
10110001
10110011
01000011
00000001
10101101
00101111
10001110
10001111
10111111
00011101
10000010
01000010
00111011
00101010
01101010
01010100
10011100
10011000
01111001
10110100
10111010
10111101
10100101
01010001
01100010
01101101
00011000
01011001
01101100
10100011
10111101
10011110
10011001
00001100
10100110
00110001
00100111
01000110
10101100
10010100
10001010
01001001
10101100
10010011
10100111
10110101
10000011
10101111
10111110
10111101
00100011
00101011
01111110
01010110
00011011
00000011
10100110
01111100
01100100
00011010
10101010
00110001
01100101
00100000
11000000
10000011
10000111
10001111
00110101
10010001
01100110
10000010
00000101
01100101
01001001
10100001
00010110
00000100
01111100
01010011
00101101
01100101
10100100
00100111
00010010
10000001
00110111
01111000
00100010
00000000
00010110
01010001
10000000
00001101
01101011
00011000
01111111
10011111
01100010
00010000
10100101
10110010
00100111
00000011
01100100
00110010
00100110
01111010
00010001
10001010
00111111
10101100
00101001
00001011
10111001
10010011
00001100
01110110
00111011
00011110
01000010
10111110
00000111
01101000
00001110
00101010
10000000
10100000
10100000
10111101
10001000
10001011
00000011
10001111
10111011
01001100
01111111
00000001
10101111
10111110
10111101
00100001
10100101
01100101
00010101
00010010
00011101
01110011
01100010
00000001
01011111
01110011
01111011
10110011
00010011
00110001
00001101
01000100
10101111
10000010
01100110
10011010
10111000
00101110
10001110
10101001
01101011
00100001
