0000000001000100
0000000000010010
0000000100100001
1111111111111111
0000101100010100
0000000010100001
1111111111010011
0000000000000000
0001101011001011
0000000000001111
0000000000000000
0000001001100101
0000000000000000
0000000000000110
1111111111101100
1111111111111000
1111111111111111
1111111111111111
1111111111101110
1111111111111111
0000000000000000
0000000000010110
0000000000000011
1111111111111101
1111111111111111
1111111111111111
0000000000000000
1111111011110001
1111111111111110
0000000000001010
1111111111111011
1111111111111011
0000100001101111
0000000000010000
1111110110011101
0000000000000101
1111111111111101
0000000001010100
0000100011110010
1111111111110101
1111111111111111
1111111111111111
0000000000000000
1111111111111111
1111111111111111
0000000000000000
0000000000000100
0000011001010100
1111111100101010
1111111111111111
1111111111110110
1111111111111111
1111111101011111
1111111111111110
1111111111111110
0000000000000000
1111111111110010
0000000000000000
1111111111111111
0000000000000000
0000000000000000
1111111111111111
0000000000000000
0000000000000100
1111111111111111
1111111111111111
1111111111100100
1111111111111110
1111111101100101
1111111111111100
1111111111011110
0000000000000000
0000000000000000
1111111111111100
0000000000001110
1111111111111111
1111111111111110
0000000000000100
1111111111111111
0000000000000000
1111101110110111
0000000100010101
0000000000000000
1111111111111111
1111100011000011
1111111111111110
1111111111111101
1111111111111110
0000000000000000
0000000000000000
1111111111111110
0000000000000000
0000000000000000
0000000000000000
0000000000101111
0000000000000000
0000010101011000
0000000000000000
0000000000000000
0000000001000111
1111111111111111
1111111111110011
1111111111111110
1111111111101000
1111111111111110
1111110111011101
0000000000000000
1111111111111110
1111111111111111
0000000000000110
1111111111111101
0000000011001101
0000000000011100
1111111111111111
1111111111111110
1111111111110011
1111111111110111
0000000000000000
0000000000000000
1110110100111110
0000000000000011
1111111111101101
1111111111111111
0000000101001000
1111111011000001
1111111111111111
1111111111111111
1110110011100010
1111111111110011
1111111111111110
1111111111110011
1111111111111111
0000000011000101
1111111101111101
0000000000010110
1111111101101100
1111111111110011
0000000000000010
0000000001000001
1111111111101101
0000000110000001
1111111101110111
0000000000000000
0000001101111000
1110001110110010
1111111111111110
1111111111111111
0000000000000000
1111111110010010
0000000110111010
1111111111111111
0000000000000000
1111111111111111
0000000000000001
1111111111101011
1111111111111111
0000011000000000
1111001000000100
1111111111111111
1111111111111111
0000000000000000
0000000000001000
1111111111111111
1111111111111110
0000100111001011
1111111111111111
0001000000001000
0000000000000010
1111111111111111
0000000000001100
0000000000000010
1111111111111111
1111111111111111
0000000000000111
1111111111100101
1111111111111010
0000000000001111
0000000001010000
1111111111111100
1111111111111111
0000000000101111
0000000000010011
0000000000000000
0000000000000000
1111111000010110
0000000000011010
0000000000010000
1111111111110110
0000000000001001
1111111111111111
1111111111111111
1111111111111101
1111111111111100
0000000000000000
1111101111110011
1111111111111111
1111111111111010
0000000000000000
0000000000100001
0000000000000000
0000000000011111
1111111111111111
1111111111111110
1110010101010001
1111110001101001
1111111111111011
1111111111100010
0000000000000000
0000000000010111
1111111111000100
1111111000111010
0000001010101100
1111111111111010
0000000000000000
1111111111111010
0000000000000000
1111111111111110
0000000000000011
0000000001001010
0000000100001110
1111111111111111
0000000000000000
0000000000000000
1111111111111111
1111111111011111
0000000000010101
1110111101001100
1111111111011100
1111111111111111
1111111111111111
0000000000000000
0000000000000110
0000000000000000
1111111111111111
1111111111110110
1111111111111110
1111111001010100
1111110111001111
0000000000000000
1111111111111110
0000000001001101
0000000000000111
1111111111111111
1111111100001000
1110111001111111
0001010100110000
1111111111111111
1111111111111111
0000000000000000
1111111111101000
0000000000000011
1111111111111101
1111111111111111
1111111111111111
0000000000100101
0000000000010001
0000000000001111
0000000000000101
1111111111111110
0000000001001011
1111111111111110
1111111001011010
0000000001101001
0000000111001101
0000000000000010
0000000000000000
0000000000000001
1111111111111110
1111111111110101
1111111010101101
1111111111011010
1111111111111011
1111111111111010
0000001111101011
0000000000000000
1111111111111111
0000000000000010
0000000000001010
1111111111010110
1111111111011111
0000000000000010
1111111111101001
0000000000000000
0000001001000000
0000000111010001
1110100010110100
1111111111111111
0000001110110010
0000000000000000
0000000000000000
0000001000100111
1111111111111111
1111111110101100
0000000000000000
1111000000101111
0000001100000100
1111110100010010
0000000000000000
1111110110010000
1111111111100011
1111111111111111
0000000000000001
0000101111100100
0000000001001110
1111111111101101
1111111111111111
0000010001010100
0000000000000000
1111110110101101
1111111111100110
0000000010110100
1111111110010001
1111111111111100
0001110011010111
1111111111110010
1111110011001000
1111111111111111
0000000000011110
1111111111111111
0000000001110010
0000000000010000
1101010110100001
0000000011101010
1111110100100100
1111111111110110
0000000000000000
1111101110011101
1110111001000000
1111111011001110
0000001111111000
1111101111101010
1111111111111101
0000000000101011
1111111111111111
1111111111111111
1111111111110010
1111110001011101
1111111111111000
0000000000001011
0000000000000000
0000000000011111
0000000000000001
1111111111111011
0000000000000000
0000000000001010
1111111111101111
1111110011011111
0000000000000111
1111111111111001
0000000000000000
1111111111111111
0000001000000101
0000000000000000
0000000000000001
1111111101111011
0000000000011011
1111111111111111
1111111111000101
1111000011001000
0000000000000000
0001011101000100
1111101100100111
0000000000000000
0000000000000000
0000000000000000
1111111101110010
1111111111010011
1111111111101000
1111111111111111
1110011000111001
1111001100111001
0000000110000110
1111100100100101
0000000000001000
0000000010111011
0000000001110100
1111111111111101
0000000000000000
1111111111111110
1111111111110101
1111111111111100
1111110001001010
1111011010011010
0000000000010110
0000000000011000
1111111111111101
1111111111111110
0000000000000000
0000000011110101
1110111000111011
1111111110100011
0000000000000100
0000000000001000
0000000000000101
1111111111111111
0000000000000000
1111111111111101
0000000000000000
1111111111111111
1111111111111111
1111101110101100
0000000000000001
0000000000000000
0000000000000011
0000011100100111
1111111111101010
1111111111111111
0000000000000000
1111111110101000
0000000000100100
0000000000000000
0000000000000000
1111111111111111
0000000000010000
0000000000010100
1111111111111111
0000000000000000
1111111111101111
1111111111110110
0000000000011100
0000000000001000
0000011011111000
0000000000000000
1111111110010011
0000000000001000
1111111111111101
0000000001000100
0000000000000001
0000001000000011
0000000000000000
1111111111111100
0000000000000000
0000000000000011
0000000000000000
1111111111010110
0000000000000011
1111111111110111
1110001000011101
0000000000101001
0000000000000000
1111111111111111
1111111111111100
0000000000000001
1111111111111101
0000000000000000
0000000110110100
1111101111001011
0000000000000000
1110110000011001
1111100111011101
0000000000000000
0000000000000000
1111111111111111
1111111111111110
0000000000000000
1111111111111111
1111111110001011
1111111111111101
1111111111111101
0000010101111000
1111111111110100
1111111111110110
1111111111111101
0000000000000000
0000000011101100
1111111111111111
0000000000000000
0000000000000000
0000000000000000
1111111111111101
1111111111111010
0000000000000000
0000000000000000
1111111111111110
0000000000000000
1111111111111110
0000100101100100
1111111111111100
1111111000010000
0000000100101110
1111111100011001
0000011001000111
0000000000000000
0000010111011111
0000000000010011
0000000000000100
1111111111111111
0000000001011001
0000000011101110
1111111111011011
0000000110110011
1111111111111111
1111111111111011
0000000000000000
0000000000010001
1111111111101110
0000000000000100
0000000000100101
1111111111111111
1111111111111111
0000000000010100
1111110010110110
1111111000011110
1111111110010000
0000000100011001
1111111111111110
0000000000000110
0000000000001110
1111111111111110
0010000010011101
1111111110101001
0001100101111101
1111111111101110
1111111100010100
0000000001110011
0000001011110111
1111111010110111
0000000000000001
1111111111111111
1111111111110111
1111111111111111
1111111000100011
1111111111110111
1111111111111101
1111111111010101
0000000000000000
1111111001110110
1111111111111110
0000000000000001
1111111111111111
1111111111111111
1111111111111110
0000000000000000
0000101101011111
0000000100111100
1111111111111110
1111111111111111
1111111111111111
0000000000000000
0000000000000000
1111110100101101
1111111101001101
0000000000000000
1111111111111110
1111111101011010
1111111100100001
1111111111111111
1111111111111111
1111111111111111
1111111111010111
1111111111111110
0000000000000000
1111111111111111
0010101111000111
1111111111111100
1111111101101100
0000000101110010
0000001100110000
0000010010100101
0000000000001010
1111111100000101
1111110100101100
1111111111100101
1111111111111111
1111101100100011
1111111111111111
0000100001100011
0000000010001010
0000000000101000
1111111111101111
1111111111111110
0000000001110111
1111111111111110
1111111111101100
0000000000000000
1111111111111101
0000000000100000
1111111111111101
1111111111111101
0000000011011010
1111111111111110
0000111000110001
1111111111111111
1111111111111111
1111111111111111
1111110101000111
0000000000000000
1111111111111111
0000000000000000
0000000111000111
1111110000111001
1111111111111110
0000000000000000
1111111101110000
0000000000000000
1111111111111110
1111111111111111
1111111111001101
0010011000111000
1111111111111000
0000000000000000
1111111111111111
0000000000000000
1111111111110111
0000000000000000
1111110111011100
1111111111111111
1111111111111000
0000111100010010
1111111111111111
1111111111111110
1111111111111101
0000000001001001
1111111111111110
0000000010110110
1111111111111111
1111010100000100
1111111111111110
1111111111111110
0000000000000000
0000000000000000
1111110111011101
0000000000000000
0000000000000000
0000000000000000
1111111101110100
1111111111111111
1111111111111010
0000000000000000
1111111111111111
1111111111111111
1111111111111111
1111111111111111
1111111111101000
0000000000000000
0000000000000010
1111111111111110
1111111111111111
0000000000000000
0000000000001111
1111111111111110
0000000000000000
1111111111111111
0000111110000000
1111111111111111
1111111111111010
0000000000000101
1111111111111111
1111111111111111
1111111011100111
0000000000000000
0000100000101100
1111111111111110
1111111111111111
1111110110011110
1111111111111111
1111111011111001
1111111110101010
1111101001000101
1111110101000100
0000000000000000
0000000000001101
0000000010001111
0000000000000000
0000000010000010
0000000000000101
1111111111111111
0000000000000000
0000000010100011
0000000000000000
0000000000111100
1111111111111111
0000000110110100
0000000000000000
1111111111111001
1111111111111110
0000000011010101
1111111100100001
0000000000010011
0000000000000000
1111111111111111
0000000000000000
1111111111111101
1111000001001110
0000000000000000
1111011010010010
1111111111001101
0000000011000011
0000010001100000
1111111111111011
1111111111100000
1111111111101101
0000001111110000
1111111111111011
0000000000000011
1111111111111110
1111111101011110
0000000000010000
0000000000000000
1111000101000101
1111111111111100
1111111111000101
1111111111100110
1111111111111111
0000000000000011
1111111111111111
0000000001111111
1111111111111111
1111111111111111
1111111111111111
1111111111111110
1111111111110110
0000000000011110
0000000000000000
0000000000010000
1111111111111110
1111111110111101
0001100111100110
1111111111111111
1111111111111111
0000000000011101
1111111111111111
1111111111111111
1111110100110110
0000001011100010
1111111111111110
1111111111111100
0000000000000000
1111111111111111
1111111111111111
1111111111010000
1110110100110010
0000000101110111
0000000000000000
1111111111111111
1111111111111110
1111111110010001
1111111001100111
1111111111111111
0000000000000000
0000000000000000
0000000000000000
1111111111111111
0000000000000000
0000000000000000
1111111111100101
0000000000000000
1111111111110010
1111111111111110
0000000000101011
1111111101011100
0000001001100000
0000000010001000
1111111111111111
1111111111111111
0000000001001000
1111011101111011
1111111111111111
0000000000000001
1111111111111111
0000000000001010
1111111111110010
1111111111111110
0000000010011010
1111111111100111
0000000000000000
0000011000010001
1111111111111111
0000000000000000
1111111111111111
1111111111111111
1111111111111111
0000000000000000
0000000000000000
0000000000000000
0000000000000000
0000000000000000
0000000000000001
0000000100001110
1111101110100001
0000000000000000
0000000000000000
1111111111101001
1111111111111111
1111001011001000
0000000000000000
0000000000000000
0000000000000000
1111111111111111
1111111110111001
1111111111111111
1111111111111111
0000000000000001
0000000000000000
1111111111101111
0000000000010000
1111111100100001
1111111111000001
1111111111111011
0000000000000000
1111111111111110
1111111111110010
0000000000000000
0000000101100110
0000000111111000
0000000111000001
1111111111111100
1111111111010001
0000110110000101
0000000001011111
0000000000000000
1111111111111110
0000000000000000
1111111111111111
0000000000000000
1111111111111111
1111111111110100
0000000001000101
1111111010011100
1111111111111111
0000000000000100
0000000000000000
1111111111111111
0000000000000000
0000000000000000
1111111111111111
1111111111111111
0000000000000000
0000000000000000
1111111101110011
1111111111111111
1111111111111110
0000000111000011
1111111111111011
0000000001010101
0000000000010011
0001110000000100
1111111111110101
1111111111111111
1111111111111111
0000000000100110
0000000000000000
0000000000001000
0000000000000010
1111111111111111
0000000110111010
1111111111110101
0000000010100001
1111111101110111
1111111111111111
0000000100101100
0000000000000001
1111111111111111
1111111111111111
0000000000000001
0000000001010011
0000000000000001
0000000000010000
1111111010101001
0000000000000000
0000000000000000
1111101111010100
0000000000000000
0000000000010111
0000000000000010
0000000100001000
0000000000000000
1111111111111111
1111111110011101
0000000001001000
1111111111111111
1111111111111111
1111111111111110
1111111111111111
1111111111111111
0000000000000000
0000000000100000
0000000000000000
0000000000000000
1111111111111111
1111111111111111
1111111010010011
1111111111111111
1111111111111111
0000000000000000
1111111111111101
0000000000000000
0000000000000000
0000000001011110
1101101101010100
0000000010010111
1111111111111110
1111111111111111
1111110011011101
1111111111111110
0000001011010000
0000000000000101
1111111111111110
1111111111111110
1111111111101111
0000000000000000
0000000000000000
0000000000000000
0000000000000000
1111111111111110
1111111111111111
1111111111111110
0000000000000000
0000000000001001
1111111111111111
1111111111100110
1111110110101011
1111111111111111
1111111110100010
1111111111111010
1111111100001000
0000000000010101
0000000000000010
1111111111110010
1111111111111111
1111111111111111
1111100010111110
0000010001010101
0000000000000001
1111111010111111
0000000000001110
0000110111100010
0000000000011101
0000000000000101
0000000000000000
1111111111010000
0000000000001010
1111111111111111
0000000000001010
1111111001001110
0000000000000010
0000000000000000
1111111111111011
1111010100110000
1111111111111110
1111111100110110
0000000000000000
0000000010111001
1111111111110001
1111111111111110
1111010111100000
1111111111111100
0000000000000000
1111111111110011
0000000000100110
1111111111100111
1111111111111111
1111111111011111
1111111111011110
0000000000000000
1111110110111111
1111101111001111
1111111110000111
1111111111111110
0000000000000000
0000000000000000
1111111111111111
0000000000010001
1111111111111001
1110100000010000
0000000000000000
1111111011011110
1111111111111111
0000000000000001
0000000000011011
0000000000000000
1111111111101111
1111111111111111
0000000001001110
1111111111110111
1111111111111111
1111111111111110
0000000000000000
0000000000000000
0000000000000000
0000000110111001
1111111111111110
0000000000000000
1111111111111111
0000010011011101
1111011100111000
0000000000000011
1111111111111100
1111111111111111
0001010111000001
1111111111111111
0000000000000001
1111111111111111
1111111111011101
1111111111001001
0000000000000110
1111111110000111
1111111111111110
0000000000000000
0000000000000001
0000000000000000
1111111111111111
1111111111111110
1111111111011110
1111111111111010
1111111111110101
1111111111100100
0000011100100110
1111111010000110
0000000000000100
1111111111111101
1110110011001100
0000000000000000
0000000101110100
0000000000000010
0000000000000000
1111111111111111
0000000000000000
1111111111111111
0001100011011001
0000000000010000
1111111111111111
0000111001000101
0000000000100000
1111111111000000
1111111111111101
1111111111111110
1111111111111111
0000000000000000
0000000000000000
0000000000010011
1111101001100011
0000000010111001
1111100001001111
0001111100010101
0001111011101110
1110110010011011
0000000000000101
0000010011000000
1110101001001010
1111111110111100
1111111111011010
1111111111100000
1111101110011010
1111011110001000
0000000001100010
1111111111111111
0000000000101010
1101111010001110
0001010011101010
0000011011001110
0000001000100001
0000000000001010
1111111111001010
1111111111100010
1111111111111111
0000000000000000
1111111111111111
1111111111111111
0000000000101011
1111111111110111
0000000000000000
1111111111111111
0000000000000000
1111111111111110
0000000000000000
0001010000110011
0000000000000000
0000000000000010
1110111000011001
0000000000000000
0000000000000000
1111111111111111
1111111111111111
1111111111111111
1111111111111101
0000000000000000
1111111000110110
1111101010110111
0000000000000000
0000100000100101
1111111111111111
1111111111111111
1111111111110001
0000000000000000
1111111111111011
1111111110110110
1111111111111100
0000000000000000
1111111111111101
0000000000110010
1111111111111110
0000000011110001
1111111111101010
0000000000010011
0000000000000000
1111111111111011
1111011100100100
0000000000000000
0000000000000000
0000000000000000
1111111111111111
1111111111111111
1111111111111111
0000000000000000
1111111111111111
1111111111001100
1111111111111111
0000000000000001
1111111111111111
1111111111111111
1111110110010011
0000110101100011
1111111111101111
0000000000000000
1111111111110101
1111111111111111
0000000000000000
0000000001101111
0000000001111101
1111111111111000
1111110001100011
1111111111111011
1111111111111111
1111111111110010
0000000000000000
1111110101101111
0000000000001101
1111111111111110
0000000000000000
0000000000000000
0000000000000000
0000100000110101
1111000111101010
0000000000111000
1111111111111000
1111111110110111
1111111111111001
1111111111111111
0000000000010011
1111111111111111
1111111111100000
1111111000000011
1111111111111111
1111111111111111
1111111101001010
1111111111111111
0000000000000000
0000000000000000
1111111111111111
0000001100110100
1111111111111111
1111111111111111
1111111111111111
1111010110010011
1111111111111111
1111111111111110
1111111111111111
0000000111110000
1111111111111100
0000000000000010
0000000000000000
0000000110011011
0000000001101101
1111111111111110
0000000000000000
0000000001011111
1111111111111111
0000000000000110
0000010010010010
1111110110001011
1111111111111111
0000000000000101
1111111111010001
0000000000000000
0000000000000000
1111111111111111
0000000011011010
1111101100011110
1111111010010101
1111111111010011
1111111111111111
1111101101100101
0000000000000000
1111111111111111
0000001010011100
1111111111111110
0000000000000000
1111111111111001
1111110100010011
0000000000001101
1111101111110100
0000000000000001
1111111111111111
0000101101101001
0000111110011001
0000000000000000
0000000000000000
1111111110000110
1111111111111011
0000000000000000
1110111110101010
1111111110101101
0000000000000011
1111111111111110
1111111111111111
0000000000000000
0000000000000001
1111111111111000
1111111111111110
1111111111111110
0000000001001000
0000000001001110
1111111111111111
0000000011100011
0000000000000110
1111111111111111
0000100110100011
1111111111111110
0000000000000010
1111111111111111
0000000000000000
1111111111111111
0000000000000010
1111001111111101
1111101000110110
0000000000000010
1111111110100010
1111111111110011
1111111101001101
1111111111111111
0000000000000110
0000000000000010
0000000000000000
1111111101011110
1111111111111111
1111111111101101
1111111010100000
0000001010011010
0001001010111101
1111111111111110
1111111111111100
1111111111110101
0000010101110010
0000000000000011
0000000000000111
1111001011011110
1111111111110111
0000000000000000
1111111111111111
1111111111111111
1111111111111110
1111111111111111
1111111111111110
0000000000000000
1111111111111111
0000001010100010
0000000000000000
1111111111111111
1111111111100100
1111111111101010
0000000000000000
0000000000000111
0000000000000000
0000000000000011
1111111100011111
0000000000000000
1111111111111111
1111111111111111
0000000000000000
1111111111111110
1111111101011110
1110011010010001
1111100010100110
0000000000010010
1111111111111110
1111111100111111
1111111111010111
0010000010010100
0000000000000000
0000000000000000
0000000000000000
1111111101011110
1111111111111111
1111111111111111
1111111111011100
0000000000000000
1111111111111111
1111111111111110
1111111000100011
1111000000000010
1111111111111010
1111111111111110
1111111110111001
1111111111111111
0000000001010001
1111111111111101
0000101011000001
1111111111111011
0000000000000000
0000000000000000
1111111111111111
0000000011110110
0000010001010000
1111111111111111
1111111111111111
0000000000000000
0000000000000000
0000001110010001
0000000000000000
1111111111111111
0000011011001000
0000000000000000
0000000000000000
1111111111111010
1111111101010010
0000000000000000
0000000000000001
0000000000000000
0000000000000000
1111111111111111
0000000000000001
1111101101011110
1111111111111111
0000000001001000
1111101010000111
0000000100100100
1111111111111111
1111111110111001
1111111111111111
1111111110111110
1111111111111110
0000000000000000
0000000010010000
1111111111100101
1111111001111010
1111111111111111
0000000010010000
0000000000000010
1111111111111110
0000000000000000
0001000001100011
0000001101000011
0000000000000000
0000000101001111
0000000000010001
0000000000000000
1101111110011110
0000000101100101
1111111111011101
0000000000001011
1111111111111111
0000000000000000
1111111111111111
0000000000000000
1111111111111111
0000000000010110
1111111100001101
0000000000100110
0000000001100000
1110001000010011
1111111111111111
0000001011010000
1111101101011111
0000000001101111
1111111111111110
1111111111111111
0000000000000000
0000000000000110
1111111111111110
1111111111111101
0000000000000100
1111111111111110
0000000000000000
0000000000000000
0000011000011001
1110110000011001
0000000000000100
1111111111111111
0000000000000000
0000000000000000
0000000000000000
0000000000000101
0000000000001110
0000000000000000
0000000010100101
0000000000000000
1111111111011101
0000000000000000
0000000000000000
1111111111111111
1111111111110111
0000000000010010
1111111111111101
0000000000010010
0000000000011101
1111111111111111
1111100100010000
1111111111111111
0000000000000000
1111111111101101
1111111111110110
0000011111110001
1111111110100111
0000000000000000
1111111111111011
0000001110010110
0000000000000000
0000100011101111
1111111111111101
0000000000010011
1111000001101100
0000000011101000
1111111111111101
1111111111111111
0000000000001000
0000000001011101
0000000000000000
0000000000000001
0000000000000001
0000000000000000
0000000000001011
1111111111111011
0000000000000000
1111111111100111
0000000000000000
0000000000000000
1111111001101010
0010001011001011
1111111100100100
1111111111111111
1111111001100011
0000000000000000
1111111111111111
0000000000000000
0000000000000000
0000000000101000
1111111111111111
1111111101011101
1111111111110010
1111111111111100
0000000000001000
1111111110110101
0000000000000000
1111111111111111
0000000000000000
0000000000000010
1111111111111111
0000000000000000
1111111111111010
0000000000000000
0000000000000000
0000000000000110
1110010010000100
0000000000000000
0000000000000000
1111111111111110
1111110011100110
1111111111110110
0000000000100001
1111111111111101
1111110001011101
1111111111011100
1111111111111000
0000000010100011
0000000001000010
0000000000000000
1111111111111111
0000000000000000
0000000000000010
0000000000000000
1111111111111010
0000000000000000
0000000000000000
0000000000000000
1111100000000110
0000000000000000
1111111111111111
1111111111111111
1111111101001010
1111110110101101
0000000000110100
0000000000000000
1111111011101101
1111111111111111
0000001011001010
1111111111111110
1111111111111111
1111111111111100
1111111111111110
0000000000011011
0000000000000001
1111111000001000
0000000000000000
1111111000000101
1111111111111111
1111111111110000
0000000000010100
0000000100111000
0000000000000000
0000000111010001
0000000000000000
0000000000000000
1111111111111111
0000000001001000
0001001000011101
0000000000000000
1111111111010001
1111110110101011
0000000001110010
0000000000000000
0000000000011010
1111111111111110
1111111111111111
0000000011101100
0000000011011100
0000000000000000
1111111111111010
0000000000000000
0000000000000000
1111111111111110
1111111101111101
1111101001011001
0000000000000000
1110110111010011
1111111111111111
0000000110110011
0000000000000000
1111110000101110
1111111111111100
0000000000000100
0000000000000000
0000000000000000
0000000000000000
1111111111111011
1111111111001110
1111111111111111
0000000000100110
1111111111110001
0000000000001000
0000000101001100
0000000000000000
0000000000000000
1111111110101011
1111000010111110
0000000000000010
0000000000110010
1111111111101011
0000000000000000
0001100000100000
1111111111111111
1111111111111111
1111111111111110
1111110101111101
1111111000100001
0000000000000000
1111111111111100
0000000000000000
0000000000000000
0000000000000000
1111111111111110
1111111111111111
1111100010010011
0000000000000000
0000000000000000
0000000000000000
0000000000000000
1111111111010010
0000000000000000
0000000101011111
0000000000000000
1111111111101000
1111111110110001
1111111111111111
0000000000000000
0000011100000101
1110010111101000
0000000000000000
0000000000000001
1111111111000001
1111111111111111
0000000000000000
1111111111001101
1111111111111111
1111111111111110
1111111111111111
1111111111101110
0000001011110110
0000010100101011
0000000000000000
1111111111111111
1111111111111111
1111111111111100
1111111111110101
1111111111111111
0000000000000000
1111111111111111
1111111111111111
1111111111111111
0000110010100011
0000110100011101
0000011100101100
1111111111111110
1111111111111111
0000000000000000
1111110000101101
0000000000111100
1111111111111111
0000000000000000
0000000111010101
1111111111111011
0000000000000000
1111111111100011
1111111111111110
0000000000000000
1111111111111111
1111110111000110
1111111010110111
1111111111111110
1111111111111101
1111111111111111
0000000000000000
0000000110111010
1111111000100111
1111111110010011
0000000010000000
0000000000000001
0000000000000000
0000000000000001
1111111111111100
0000000000000000
0000000000000000
1111111111111110
1111111111111111
1111111111111111
0000000000000000
0000000000000001
1111111111111111
0000000000000100
0000000000000000
1111111111111111
0000000100010001
1111111111111111
1110111001101010
0000000000100000
1111111111111110
1111111111111010
0000000000000000
0001111111100110
1111111111110001
1111111111110111
1111111111111111
0000000000001011
0000000000000000
1111111111111111
1111100101110011
1111111111111111
1111111111110111
1111111111111111
0000000000111000
0000000011010011
1111111111001111
1111111111111111
0000000000000111
1111111111111101
0000000100010100
0000000000000000
0000001111010001
0000000000000000
0000000110010000
1111111111110111
1111111111111001
1111111111111110
0000000000000000
1111111111111111
0000010000100111
0000000000000000
0000000001101111
1111111111111111
1111111111111100
1111111111111110
1111111111100110
1111111111111111
1111111111111110
1111111111111010
0000000100000011
0000000000000000
1111111111110000
1111111111111101
0000110111010000
1111111111111111
0000000000010101
0000000010010101
0000000000000111
0000010010110111
1111111111111111
1111111111111111
1111111111101101
1111111111111111
1111001001001100
1111111111111111
0000000000000000
1111111111111101
0000011110010010
0000000000000000
1111111111111111
0000000000000000
0000000000000000
0000001111110001
0000000110011101
0000000000000000
0000011100010001
1101110001100010
1111111111111111
1111111111111101
0000000000000000
0000000000000000
1111111111111101
0000000000000000
0000000000000111
0000011011110110
0000000000100010
0000000000000000
1111111111111111
1111111111100010
1111111111111111
1111111111100001
0000000000111100
1111111101010010
1111110010100000
1111111111110011
0000000000000000
1111111111100000
0000000000000001
0000000001100110
1111110111010011
1111111111111110
0000001000111100
0000000000000101
1111111111111111
1101100000001000
1111111111111111
0000010010110000
0001000111000010
1111111111111100
1111111111111011
0000000000001010
1111111111111111
1111111111111111
0000000000100011
0000000000011111
0000000000000010
0000000000000000
1111111111111111
1111001110110101
1111111111111111
0000001000101011
0000000000000000
1111111111111111
1111111010101101
0000000000000000
1110111111101101
1111111111010010
0000001000010010
0000001010011100
1111111111110001
1111111111110101
1101100010000011
0000000000000110
1111111111111110
1111111111111111
1111111111111111
0000000000000000
0000000000101000
0000000000000000
0000001011001001
0000000000011111
1111111111111110
1110110010110011
1110111001011010
1111111111111111
1111111111111111
1111111111111111
1111010010001110
0000000000000000
1111001100110010
0001100010100111
0000000010010110
1111110001101100
1111111111101110
0000000001010100
1111111111100111
0000010111100101
1111111111111101
1111111111110101
1111111111111111
1111111111111100
0000000000000000
0000000000000000
0000000000000011
0000000001000100
0001110011001001
1111111111000110
0000000000001001
1111111111111111
1111111011011100
0000000000000000
0000000000010100
0000000000000001
0000000000000010
0000100011110011
0000000000000000
0000000000101011
1111111111111111
1111111111111111
1111111111111111
0000000011000001
1111111001101100
0000000000100100
1111111111110111
1111111111111110
1110011011111110
0000000000000001
1111111111110110
1111111111111111
0000000000000000
0000000000000000
0000000000000011
0000000000000000
1111111111111111
1111111111111011
1111111111111111
0000000000000000
1111011001101000
1111111111110010
1111111111111111
0000000101100010
1111111111111110
1111111111010001
1111111111111111
1111111111111100
0000000000000000
1111110110111111
0000000000101100
0000000000000000
1111111111111111
1111111110111110
1111111111111111
1111111111111111
0000000000000100
0000000000000000
0000000000100010
1111111111111110
1111111111111111
0000000000000000
0000000000001000
0000000011110110
1111111111111101
1111111111111111
1111111110001100
1110110100101000
0000000000000000
1111111101100000
1111111111111110
1111111111111111
0000111011011100
0000000000000000
1111111111111111
0000000000000001
1111111111111110
1111111111111110
0000000000000110
0000000000100011
0000000000111011
1111111111111111
0000000000000010
1111111111111111
0000000000000000
0000000001101110
1111111111111111
1110010101101111
0000000000011011
1111111111111111
1111001001100111
1111111111110110
0000000000000000
1111111101110110
1111111111111111
1111111111111111
1111111110010011
1111111111110010
0000010001001110
0000000000000000
1111111111111110
0000000000000000
0000000000010101
0000000000000111
0010001000110110
0000000000000000
1111111111110101
1111111111111111
0000000000000000
1111111100110011
1111111111111111
1111111111111111
0000000000000001
0000000001100001
0000000000000001
0000000000000100
1111111111111111
1111111111111111
1111111111111111
0000000000000000
1110111101000111
0000001010011110
0000000000000000
0000000000101010
0000000000000000
1111111111111111
1111110100100110
1111111111111111
0000000000000000
0000000001010000
0000000000000000
1111110101111011
1111111111111110
0000000000000000
1111111110011011
0000000000000000
1111111111101100
1111111111110001
1111111111010111
0000000000000110
0000000000000000
0000000000000000
1111111100010011
1111111111110111
1111011100101110
1111111111111111
0000000000001100
0000000000000000
1111111111111111
0000000000001101
1111100111000100
1111010101101110
0000000000000010
0000000000000000
1111111011101000
0000001010100010
0000000010000010
0000000001100100
1111111111111111
1111111111111111
0000001000101000
0000000000000000
1111110001010101
0001011110001010
0000000001000100
1110010101000111
1111111111111111
0000000000000000
1111111111011000
1111111111111110
0000000000000000
1111111101110001
0000000000000000
1111010011110100
1111111111111111
0000000000000000
0000100110100110
1111001010001100
0000000000000000
1111111111100001
1111111111110001
1111111111111111
0000000000000000
0000000110100100
0000001100111010
1111111111111111
1111111111111111
1111111110110100
0000000000000000
0000000000010101
1111111111001010
0001101011010111
0000000000000000
0000000000000000
0000000000010001
1111111111111111
0000000000000000
1111111111101001
0000000001110010
0000000000000100
1111111111111110
0000000000000000
1111111111111111
0000000010110010
0000000000000000
0000000000000000
1111111111111100
1111101111101010
1111111111111011
1111111111111111
0000001010100010
0000000000000000
1111111111111111
1111111111111111
1111111111110111
0000000000010000
0000000000000110
0000000000000000
0000000100100000
0000000000000010
1111111111111111
1111111010101010
1111111111111010
0000000000000000
0000000000000000
0000000000000000
0000000000000000
1111111111100101
1111111101100000
1111111111111110
0000000000000000
0000000000000001
0000000000000000
0001011101100101
0000000000000000
1111011110011110
1111111001110110
1111110001110100
1111111111111110
0000000001110100
1111111111111111
1111111110101101
0000000000010001
1111111110100001
1111111110010111
1111111111111111
0000000000000000
0000000000000010
1111111101100001
1111111111111100
1111111111111111
0000000010001101
1111111111111111
1111111111111111
0000001010101101
1111111111111111
0000000000000000
1111111111111111
0000000000000001
0000000000000000
1111111111011100
1111111111111111
0000000100101110
0000001010111000
0000010000101001
1111111111111011
1111111111110111
1111111111101010
0000000000100001
1111111111111010
1111111111111100
1111111111010011
1111111011000100
1111111111111111
0000011110111001
0000000000000000
0000000000000000
1111111111111111
1111111111111111
1111111111111111
1111111111111111
1111111111111101
0000000000000010
1111111111111111
1111111111110011
0000001110100001
1111111111111011
0000000000111000
1111111100000010
0000010100010110
1111111111111110
1111111111111110
1111111111111111
0000000000001110
0000000000000000
1111111111101110
1111111111111111
0000001110001110
1111111111100111
