00000000000000000000010100100001
11111111111111111111101110110110
00000000000000000001111011000110
00000000000000000000000000110111
11111111111111100110011000111000
00000000000000000001001110011101
00000000000000000000000000011000
00000000000000000000000000000000
00000000000001110100111101111000
11111111111111111111011011001111
00000000000000000000000000000000
00000000000000000110111001111001
00000000000000000000000000000000
00000000000000000000000010011110
11111111111111111111111101001101
11111111111111111111110110011011
00000000000000000000000000110010
11111111111111111111111111110101
00000000000000000000001101010011
00000000000000000000000000100011
00000000000000000000000000000000
11111111111111111111100011010011
11111111111111111111111111111110
00000000000000000000000111000000
00000000000000000000000000000000
00000000000000000000000000010100
00000000000000000000000000000000
00000000000000000000011011010011
00000000000000000000000000110110
00000000000000000000000010111010
00000000000000000000000101000010
11111111111111111111010000110101
00000000000000001010100011111011
11111111111111111111110101001101
11111111111111111000001010010001
00000000000000000000001010001010
00000000000000000000000000001000
11111111111111111111011011100000
11111111111111110111001101000100
11111111111111111111111110110001
00000000000000000000000000000101
11111111111111111001100000101011
00000000000000000000000000000000
00000000000000000000000000001100
11111111111111111111111111010110
00000000000000000000000000000000
00000000000000000000000011110001
00000000000000000000110011101000
00000000000000000000001001011101
00000000000000000000000000001010
11111111111111111111111011010110
11111111111111111111111111011001
00000000000000000100101111010111
11111111111111111111111111101111
00000000000000000000000001001001
00000000000000000000000000100000
11111111111111111111111001100001
00000000000000000000000000000000
00000000000000000000000000000001
00000000000000000000000000000000
00000000000000000000000000000000
11111111111111111111111111011110
00000000000000000000000000000001
00000000000000000000000000100100
11111111111111111111111111111000
00000000000000000000000000111010
11111111111111111111110010001101
11111111111111111111111111110101
11111111111111111101001000000110
00000000000000000000000010010000
11111111111111111111110100010011
00000000000000000000000000000000
00000000000000000000000000000000
00000000000000000000000000101001
11111111111111111111101001111010
00000000000000000000000000011010
00000000000000000000000001010010
11111111111111111111111100111110
00000000000000000000000000001111
00000000000000000000000000000000
11111111111111111111011101111100
11111111111111111110101100100101
11111111111111111111111111111110
11111111111111111111111111000101
00000000000000000111011110011011
11111111111111111111111111110011
11111111111111111111111111100011
11111111111111111111111111101100
00000000000000000000000000000000
00000000000000000000000000000000
11111111111111111111111111111000
00000000000000000000000000000000
00000000000000000000000000000000
00000000000000000000000000000000
00000000000000000000000010001101
00000000000000000000000000000011
00000000000000101010110100010011
00000000000000000000000000000000
11111111111111111111111111101001
11111111111111111111010000001111
11111111111111111111111111101111
11111111111111111111110110100010
11111111111111111111111101001101
00000000000000000000000010110101
11111111111111111111111110101010
11111111111111111011111000110011
00000000000000000000000000000000
11111111111111111111111111011111
00000000000000000000000000000110
11111111111111111111111001101111
11111111111111111111111111011000
11111111111111111111101011111001
11111111111111111111101101001110
11111111111111111111111110111100
11111111111111111111111111010101
00000000000000000000000111101010
11111111111111111111111100111001
00000000000000000000000000000000
00000000000000000000000000000000
00000000000000101010111011001011
11111111111111111111100111110011
11111111111111111111111010011101
00000000000000000000000000001110
00000000000000000000011110111011
11111111111111111111111011100111
00000000000000000000000000010010
11111111111111111111111111100111
00000000000000001001110010010011
00000000000000000000000011000011
00000000000000000000000001010101
00000000000000000000000011010010
00000000000000000000000000100001
00000000000000000100101001111100
00000000000000000000100001010100
00000000000000000000010100111101
11111111111111111111101111011111
11111111111111111111111011111100
00000000000000000000000100000000
00000000000000000000100100001111
11111111111111111110100001110001
11111111111111111110100111000010
11111111111111111111101101000111
00000000000000000000000000000000
00000000000000001001110100001111
11111111111101111010100011111100
11111111111111111111111111101101
11111111111111111111111111101001
00000000000000000000000000000000
11111111111111111111101001000100
11111111111111111101101001111011
00000000000000000000000000101001
00000000000000000000000000000000
11111111111111111111111111101101
00000000000000000000000000100010
11111111111111111111111110110000
11111111111111111111111111100110
00000000000000000011011101100010
11111111111111111111101100000010
11111111111111111111111111110000
11111111111111111111111111101011
00000000000000000000000000011111
11111111111111111111111101010001
00000000000000000000000000111100
00000000000000000000000011111011
11111111111111110111110111011000
00000000000000000000000000001101
00000000000000110100001000101000
00000000000000000000000000101011
00000000000000000000000000000011
00000000000000000000001000010110
11111111111111111111111110011000
00000000000000000000000000010011
11111111111111111111111111101000
11111111111111111111111011101111
11111111111111111111111001000001
11111111111111111111111110001000
00000000000000000000110010100110
00000000000000000001001100000001
11111111111111111111111110111010
00000000000000000000000000001010
11111111111111111111111100000011
11111111111111111111110100111000
00000000000000000000000000000000
00000000000000000000000000010110
11111111111111111100110110000010
00000000000000000000001001111100
00000000000000000000001010000110
00000000000000000000010001010000
11111111111111111111111101111111
00000000000000000000000000100000
00000000000000000000000000110100
11111111111111111111111111000010
00000000000000000000000010110111
00000000000000000000000000000000
00000000000000000000001001011000
00000000000000000000000000011100
00000000000000000000000000110101
00000000000000000000000000000000
11111111111111111111010111010100
00000000000000000000000000000000
11111111111111111111110010110010
00000000000000000000000001010001
00000000000000000000000001010100
00000000000000011001100000101100
11111111111111111001011000100001
11111111111111111111111111100101
00000000000000000000000011110110
00000000000000000000000000000000
00000000000000000000000111100011
00000000000000000001110110110001
11111111111111111101110111111111
00000000000000000000000000111111
00000000000000000000000001010111
11111111111111111111111010110010
11111111111111111111111110100001
00000000000000000000000000010110
00000000000000000000000000011101
00000000000000000000000001000101
11111111111111111101111111010100
11111111111111111111101001001001
00000000000000000000000000100010
00000000000000000000000000000000
00000000000000000000000000100110
11111111111111111111111111100100
11111111111111111111111100011000
00000000000000000000000100101101
11111111111111001110010010010000
00000000000000000000001001101010
00000000000000000000000000011100
11111111111111111111111111110101
00000000000000000000000000000000
00000000000000000000000110100011
00000000000000000000000000000000
00000000000000000000000000011111
00000000000000000000001100010101
11111111111111111111111111110100
11111111111111111111010011101101
11111111111111110011011000100000
00000000000000000000000000010100
00000000000000000000000000100010
00000000000000000000001101000001
00000000000000000000000100100010
00000000000000000000000000000011
00000000000000000001101001011010
00000000000000000101010110110010
11111111111111101011010000001010
11111111111111111111111111101110
00000000000000000000000000000100
00000000000000000000000000000000
11111111111111111111001011001011
11111111111111111111111111001111
11111111111111111111111110100001
00000000000000000000000000000110
11111111111111111111111111101111
11111111111111111111101111101000
11111111111111111111111111010101
00000000000000000000000101011010
11111111111111111111111011101011
11111111111111111111111111110001
11111111111111111111100001010100
11111111111111111111111111110000
00000000000000000001000000101100
11111111111111111011011010010100
00000000000000000111111100100011
11111111111111111111111111010001
00000000000000000000000000000000
00000000000000000000000000111010
11111111111111111111111111111000
11111111111111111111111010001101
11111111111111111101001110010010
00000000000000000000001110100010
11111111111111111111111101110111
00000000000000000000000000000110
11111111111111111111010000000000
00000000000000000000000000000000
00000000000000000000000000011000
00000000000000000000000000110110
00000000000000000000000110100101
00000000000000000000001011101000
00000000000000000000000001010001
11111111111111111111111111100010
00000000000000000000001100101101
00000000000000000000000000000000
00000000000000000100010101000100
11111111111111110100101010110001
00000000000000110000001001010001
11111111111111111111111111100000
00000000000000000111110010011000
00000000000000000000000000000000
00000000000000000000000000000000
11111111111111111011010111011010
00000000000000000000000000001100
11111111111111111111110101010001
00000000000000000000000000000000
00000000000000010100010001100101
00000000000000000001000110001101
11111111111111111111110000011111
00000000000000000000000000110001
00000000000000000010101001010111
11111111111111111111111001001000
00000000000000000000000000011111
11111111111111111111111111111010
00000000000000001110101110000110
11111111111111111111100011000011
11111111111111111111111100001010
11111111111111111111111111110110
00000000000000001011110000100111
11111111111111111111111111101001
00000000000000000010100000000010
11111111111111111111101110010101
11111111111111111110111100100000
11111111111111111111110000100110
11111111111111111111111110110111
11111111111111111000111010111101
00000000000000000000001001001010
11111111111111111111111001101011
11111111111111111111111111110001
00000000000000000000010011010110
00000000000000000000000000000001
11111111111111111111101000100101
00000000000000000000000101011000
00000000000001010010011011101011
11111111111111111100111001111111
11111111111111111001010100000011
11111111111111111111111011101010
00000000000000000000000000000000
00000000000000000001011110100000
11111111111111101011000001000010
00000000000000000001100011100001
00000000000000001011010111011011
11111111111111111100010011010011
11111111111111111111111111101101
11111111111111111111111010001100
00000000000000000000000000011110
00000000000000000000000001001111
11111111111111111111111110101011
00000000000000010001011001010110
11111111111111111111111111101011
11111111111111111111110010000000
00000000000000000000000000000000
00000000000000000000000001011011
00000000000000000000000000111011
00000000000000000000000010100011
00000000000000000000000000000000
11111111111111111111111101010010
11111111111111111111111101101110
00000000000000000110100110111011
00000000000000000000001001101110
11111111111111111111111000100100
11111111111111111111111111010101
11111111111111111111111111111101
11111111111111111100000011011101
00000000000000000000000000000000
00000000000000000000000000000100
00000000000000000111110111100000
00000000000000000001010001011010
00000000000000000000000000000110
11111111111111111101001001101011
11111111111111100001110010101101
00000000000000000000000000000000
00000000000000001111101011000110
11111111111111111110010111110010
00000000000000000000000000000000
00000000000000000000000000000000
11111111111111111111111111011000
00000000000000000000001101100011
00000000000000000000000111100111
00000000000000000000010000111111
00000000000000000000000000011110
11111111111111111001100110101100
00000000000001001010100100010000
11111111111111111110011111111011
11111111111111110101011010110100
00000000000000000000000011110011
11111111111111110100111110110010
00000000000000000000000110111111
11111111111111111111111110011000
00000000000000000000000000000000
00000000000000000000000000001101
11111111111111111111111101101010
00000000000000000000000000101011
11111111111111110111110000111010
00000000000000000111001000001101
11111111111111111111111001110101
00000000000000000000001001100110
11111111111111111111111111100111
11111111111111111111111111010100
00000000000000000000000000000000
11111111111111111110100000000001
00000000000000011001111011111111
00000000000000000001000001111010
00000000000000000000000001100000
00000000000000000000000011011001
11111111111111111111111111100111
00000000000000000000000000001100
11111111111111111111111111101101
00000000000000000000000000110000
00000000000000000000000000000000
11111111111111111111111111101000
00000000000000000000000000000000
11111111111111111001100001101111
11111111111111111111111111001111
00000000000000000000000000000000
11111111111111111111111111101010
11111111111111011010110101100001
00000000000000000000000000101010
11111111111111111111111111100010
00000000000000000000000000000000
11111111111111111111111011110000
00000000000000000000000110001010
00000000000000000000000000000000
00000000000000000000000000000000
11111111111111111111111111100111
11111111111111111111111011101000
00000000000000000000000101101000
11111111111111111111111111111111
00000000000000000000000000000000
00000000000000000000000111101111
00000000000000000000000010100101
11111111111111111111111001001001
11111111111111111111111101000000
11111111111111101010110001000001
00000000000000000000000000001001
11111111111111111111100010011101
00000000000000000000010110011110
00000000000000000000000001011101
11111111111111111111101110011011
11111111111111111111111111110110
11111111111111111011001001001010
11111111111111111111111111101000
00000000000000000000000000010000
00000000000000000000000000000000
00000000000000000000000000000111
00000000000000000000000000011111
00000000000000000000010000000110
11111111111111111111111110011011
00000000000000000000000100010110
00000000000000001110001010000101
00000000000000000000100101001000
00000000000000000000000000000000
11111111111111111111111111111111
11111111111111111111111101011110
11111111111111111111111111110101
11111111111111111111111110000110
00000000000000000000000000000000
11111111111111111100110100011001
00000000000000000001000001011000
00000000000000000000000000000000
11111111111111100010000101101101
11111111111111100011010110010110
00000000000000000000000000000000
00000000000000000000000000000001
11111111111111111111111111111110
11111111111111111111111111001110
00000000000000000000000000000000
00000000000000000000000000010100
00000000000000000000100101010000
00000000000000000000000010110111
00000000000000000000000001010011
00000000000000000001111110111111
11111111111111111111111001110000
11111111111111111111111011110100
11111111111111111111111101011000
00000000000000000000000000000000
00000000000000000000101111001110
00000000000000000000000000111001
00000000000000000000000000000000
00000000000000000000000000000000
00000000000000000000000000000000
11111111111111111111111111111111
11111111111111111111111101100000
00000000000000000000000000000000
00000000000000000000000000000000
11111111111111111111111111101110
00000000000000000000000000000000
00000000000000000000000000000100
00000000000000000111110110000010
00000000000000000000000000100100
00000000000000000000100110110100
00000000000000000000011101010101
11111111111111111110111011001111
00000000000000000101001000001010
00000000000000000000000000000000
11111111111111111001010110100000
11111111111111111111111111000001
00000000000000000000000010010000
11111111111111111111111111101110
00000000000000000001010100110111
00000000000000000001100010110001
00000000000000000000001111100010
11111111111111111000000011111011
00000000000000000000000000110111
00000000000000000000000000100001
00000000000000000000000000000000
11111111111111111111111111111101
00000000000000000000000011011010
00000000000000000000000000110010
00000000000000000000000000110100
00000000000000000000000000010100
11111111111111111111111111110001
11111111111111111111101011001001
00000000000000001001110011010110
11111111111111111101111011111110
00000000000000000000000001001100
11111111111111111010111101101100
00000000000000000000000000000000
11111111111111111111111111011000
11111111111111111111111100100000
11111111111111111111111111111101
11111111111110101111000111100110
00000000000000000000001010001001
11111111111111000000000100010010
11111111111111111111101110101110
11111111111111110101100001011010
00000000000000000000100011011011
00000000000000000010110001101110
11111111111111111110011110001111
11111111111111111111111111001000
11111111111111111111111111110101
11111111111111111111111101000011
11111111111111111111111111110111
00000000000000000100111111001110
11111111111111111111111110100010
11111111111111111111111111110011
11111111111111111111111111111110
00000000000000000000000000000000
11111111111111111110110011001010
11111111111111111111111111010100
00000000000000000000000000010001
00000000000000000000000000010100
11111111111111111111111111111011
11111111111111111111111111101011
00000000000000000000000011110111
11111111111111111110011010111110
00000000000000000000010001010010
11111111111111111111111111111000
11111111111111111111111111111100
00000000000000000000000000010001
00000000000000000000000000000000
00000000000000000000000000000000
11111111111111111111001010101101
00000000000000000001010001010100
00000000000000000000000000000101
00000000000000000000000000010111
00000000000000000000101100010110
00000000000000000001111011110010
11111111111111111111111111100011
00000000000000000000000000001011
11111111111111111111111111111111
11111111111111111111111110101101
11111111111111111111111111110110
00000000000000000000000000000000
00000000000000000000000000111011
11111111111111111100011101000111
00000000000000000000000010110011
11111111111111111110111110100100
00000000000000000001000010100000
11111111111111111011101000100101
11111111111111111110001001100101
11111111111111111111111110011100
00000000000000000000001011111011
00000000000000000000011001111001
00000000000000000000001000001110
11111111111111111111111111010000
11111111111111110011101001101101
00000000000000000000000000010011
00000000000000011010100111011000
00000000000000000001110100000110
11111111111111111111101111011000
11111111111111111111110000111111
00000000000000000000000000100010
00000000000000000000000110100011
11111111111111111111111111000110
11111111111111111111111011100011
00000000000000000000000000000000
11111111111111111111111011111110
11111111111111111111111101111101
11111111111111111111111111101001
00000000000000000000000011101001
11111111111111111111010100101001
00000000000000000000000000001000
11111111111111111101100110110100
11111111111111111111111111111010
00000000000000000000000000001100
11111111111111111111111111110000
11111111111111111011001100000000
00000000000000000000000000001101
11111111111111111111111111010100
11111111111111111111111111101100
00000000000000000000011111001110
00000000000000000010111010111100
00000000000000000000000001000111
00000000000000000000000000000010
11111111111111111110001110110010
11111111111111111111111111100000
00000000000000000000000000010011
00000000000000000000000000001000
11111111111111111111111000101011
00000000000000110101010001001010
00000000000000000000000001011100
00000000000000000000000000000000
11111111111111111111111111101011
00000000000000000000000000000100
00000000000000000000000010101101
00000000000000000000000000000000
00000000000000000000010110000011
11111111111111111111111111111001
00000000000000000000000100010011
11111111111111111101111001001000
00000000000000000000000000001110
00000000000000000000000000011000
00000000000000000000000001010100
00000000000000000000001011110111
11111111111111111111111111110100
00000000000000000000011101110110
00000000000000000000000000000101
11111111111111111101010111010010
00000000000000000000000000101110
00000000000000000000000000010100
00000000000000000000000000001011
00000000000000000000000000000000
11111111111111111101111011101110
11111111111111111111111111111101
00000000000000000000000000011011
00000000000000000000000000000000
00000000000000000000010001001111
00000000000000000000000000010110
11111111111111111111111111110010
00000000000000000000000000000000
00000000000000000000000000000011
00000000000000000000000000001010
00000000000000000000000000000000
11111111111111111111111111110000
11111111111111111111111110010001
00000000000000000000000000000000
00000000000000000000000000010001
00000000000000000000000000010111
11111111111111111111111111110001
00000000000000000000000000000000
11111111111111111111111111111001
00000000000000000000000000001111
00000000000000000000000000000011
00000000000000000000000000000011
00000000000000010011111011101011
11111111111111111111111111110101
00000000000000000000000010000010
11111111111111111111111101010000
11111111111111111111111110111110
11111111111111111111111111111000
00000000000000000010111011000100
00000000000000000000000000000000
11111111111111111101110001110011
11111111111111111111111111101001
11111111111111111111111111101111
11111111111111111111100110101110
11111111111111111111111111110100
00000000000000000000011100100000
11111111111111111111111110011010
00000000000000000011110100100011
00000000000000000001110000000001
00000000000000000000000000000000
00000000000000000000000001000100
11111111111111111111110100010111
11111111111111111111111111100001
00000000000000000000011011010110
11111111111111111111111111010010
11111111111111111111111111100100
11111111111111111111111111011101
11111111111111111111110011001100
00000000000000000000000000000000
00000000000000000000001011001001
00000000000000000000000000001001
00000000000000000001110100110000
00000000000000000000000000000010
11111111111111111111111111100110
00000000000000000000000000000000
11111111111111111111110011000111
00000000000000000000000001100001
00000000000000000000000000110110
00000000000000000000000000000000
00000000000000000000000000010010
00000000000000000000000000000001
11111111111111111111111101010000
00000000000000011001011110110111
00000000000000000000000000000000
00000000000000001110100001101100
00000000000000000000001001100000
00000000000000000001011111001110
00000000000000000100001011101111
00000000000000000000000011101010
00000000000000000000001100010010
00000000000000000000000000011001
11111111111111111010110110000011
00000000000000000000001000101011
11111111111111111111111111010100
11111111111111111111111111101000
11111111111111111110111101010011
11111111111111111000110100001100
00000000000000000000000000000000
00000000000000010101100011010000
00000000000000000000000001010001
11111111111111111111100011010010
00000000000000000000000111011111
11111111111111111111111111111111
00000000000000000000000001001111
11111111111111111111111111111101
00000000000000000000110011111100
11111111111111111111111111111111
00000000000000000000000010011001
00000000000000000000000000000000
11111111111111111111111111101100
00000000000000000000000100101010
11111111111111111111001100000101
00000000000000000000000000000000
00000000000000000000000110000000
00000000000000000000000000010110
11111111111111111111001101111110
00000000000000011010101010110110
11111111111111111111111111100011
00000000000000000000000000001011
11111111111111111111101111110010
11111111111111111111111111111011
11111111111111111111111111110010
00000000000000000100010100010010
11111111111111110101000011001111
00000000000000000000000000000110
00000000000000000000000001001000
00000000000000000000000000000000
00000000000000000000000000001100
00000000000000000000000000000110
11111111111111111111101011111111
11111111111111100000101101010110
00000000000000000000101010010011
11111111111111111111111111101110
00000000000000000000000000000101
11111111111111111111111111100001
00000000000000000000001100100100
11111111111111111101111010111011
11111111111111111111111111111111
11111111111111111111111111110111
11111111111111111111111111111010
00000000000000000000000000000000
00000000000000000000000000001000
00000000000000000000000000000010
00000000000000000000000000000000
11111111111111111111110011010011
00000000000000000000000000000000
11111111111111111111111111011001
00000000000000000000000000001011
11111111111111110111001111000011
11111111111111111111011111010011
00000000000000000010110011011111
00000000000000000000001001100010
11111111111111111111111111101110
00000000000000000000000000000010
11111111111111111111111111011110
11111111111111111001010011101100
00000000000000000000000000001101
11111111111111111111111111011111
00000000000000000000000000100110
00000000000000000000000000111000
11111111111111111111110101111000
00000000000000000000000000011001
11111111111111111111010010111011
11111111111111111111111101010111
00000000000000000000000000000000
11111111111111111101010100101100
00000000000000000000000000000101
00000000000000000000000000000000
00000000000000000000000000001111
11111111111111111111111111110100
00000000000000000000000000010011
00000000000000000000000000000000
00000000000000000000000000000000
00000000000000000000000000000000
00000000000000000000000000000000
00000000000000000000000000000000
11111111111111111111111101110011
00000000000000000101011100000010
11111111111111111110111111101001
00000000000000000000000000000000
00000000000000000000000000000000
00000000000000000000001010001010
11111111111111111111111111111101
11111111111111110001101110010000
00000000000000000000000000000000
00000000000000000000000000000000
11111111111111111111111111101100
11111111111111111111111111111101
00000000000000000000001101000100
11111111111111111111111111110111
00000000000000000000000000010101
00000000000000000000000000100001
00000000000000000000000000001000
00000000000000000000001001010100
11111111111111111111111110100001
11111111111111111111101100100110
00000000000000000000000100101111
11111111111111111111111111000110
11111111111111111111111111110000
11111111111111111111111111100101
00000000000000000000100100101010
00000000000000000000000000000000
00000000000000000001000111010110
11111111111111111110010111011000
00000000000000000000110100000110
11111111111111111111111111011010
11111111111111111111110011000110
11111111111111110100101001110001
11111111111111111110000001011001
00000000000000000000000000000000
00000000000000000000000000011111
00000000000000000000000000010010
11111111111111111111111111110001
00000000000000000000000000000000
00000000000000000000000000001101
00000000000000000000000000101011
11111111111111111111111000010100
11111111111111111111110001001100
11111111111111111111111111110100
00000000000000000000000000001010
00000000000000000000000000000000
11111111111111111111111111101110
00000000000000000000000000000000
11111111111111111111111111111110
11111111111111111111111111100101
00000000000000000000000000001110
00000000000000000000000000000000
00000000000000000000000000000000
11111111111111111111010101101001
11111111111111111111111111110110
11111111111111111111111111111110
00000000000000000000000011110011
00000000000000000000000001001101
00000000000000000000000010111000
00000000000000000000010100011001
11111111111111110100011100011011
00000000000000000000000000011001
11111111111111111111111111110000
00000000000000000000000000000101
11111111111111111111111010101010
00000000000000000000000000000000
11111111111111111111111011010111
11111111111111111111111111110010
00000000000000000000000101001110
11111111111111111101101101110111
11111111111111111111111101110010
11111111111111111111110010101100
00000000000000000001100101011000
11111111111111111111111111111110
11111111111111111110011010110010
11111111111111111111111111111100
00000000000000000000000000000100
11111111111111111111111111101011
00000000000000000000000000001000
00000000000000000000101100011101
00000000000000000000000000001011
00000000000000000000000110000110
00000000000000000001101111100101
00000000000000000000000000000011
00000000000000000000000000000000
11111111111111111111010101111001
00000000000000000000000000000000
00000000000000000000000110001111
00000000000000000000000100000101
11111111111111111110101101011001
00000000000000000000000000000000
00000000000000000000000000000100
11111111111111111111101110011111
11111111111111111111100101010101
11111111111111111111111111110101
11111111111111111111111111110010
00000000000000000000000000010100
00000000000000000000000000001100
00000000000000000000000000001110
00000000000000000000000000000000
11111111111111111111111110011100
00000000000000000000000000000000
00000000000000000000000000000111
11111111111111111111111111101100
00000000000000000000000000010101
11111111111111111111001100101101
11111111111111111111111111011001
00000000000000000000000000001001
00000000000000000000000000000000
11111111111111111111111111111100
00000000000000000000000000000000
00000000000000000000000000000000
00000000000000000000001000001011
00000000000000001000001011110111
11111111111111111111011110101110
11111111111111111111111111110010
11111111111111111111111111011001
00000000000000000011010010100010
00000000000000000000000000010010
11111111111111111110101110111110
11111111111111111111111110111010
11111111111111111111111111101111
00000000000000000000000000000111
11111111111111111111111001000000
00000000000000000000000000000000
00000000000000000000000000000000
00000000000000000000000000000000
00000000000000000000000000000000
00000000000000000000000000010101
00000000000000000000000001011101
00000000000000000000000000000100
00000000000000000000000000000000
00000000000000000000000011011101
11111111111111111111111111111010
11111111111111111111111111011000
00000000000000000001010100110101
11111111111111111111111111110001
11111111111111111111111000000101
00000000000000000000000000000011
11111111111111111110101100111110
11111111111111111111111010100011
00000000000000000000000000101010
00000000000000000000101001100110
11111111111111111111111111110101
00000000000000000000000000001011
11111111111111111100100111101001
00000000000000000010111000010000
11111111111111111111111111111111
00000000000000000001001110000111
00000000000000000000000000110010
00000000000000000001010111011011
11111111111111111111000110110110
11111111111111111111111101101010
00000000000000000000000000000000
00000000000000000000100111100100
00000000000000000000000101100110
11111111111111111111111111110100
11111111111111111111111111010100
11111111111111111111011001101111
00000000000000000000000000100000
00000000000000000000000000000000
11111111111111111111111111000001
11111111111111111101100101110010
00000000000000000000000000000101
11111111111111111101000101100010
00000000000000000000000000000000
11111111111111111111101100000010
11111111111111111111111011100111
11111111111111111111111111101010
00000000000000000011100010000100
11111111111111111111111110111011
00000000000000000000000000000000
00000000000000000000000000010010
00000000000000000010001101101001
11111111111111111111111101110101
11111111111111111111111111111011
11111111111111111111111010110111
11111111111111111111101001101011
00000000000000000000000000000000
11111111111111111100010010001010
00000000000000000011111110101101
00000000000000000000101010111110
11111111111111111111111111010000
00000000000000000000000000000000
00000000000000000000000000000000
00000000000000000000000000001111
11111111111111111111111111000110
11111111111111111111111110100001
11111111111110001110110111001000
11111111111111111111111111101101
00000000000000000000011000010100
11111111111111111111111111111000
00000000000000000000000000000110
11111111111111111111111011100011
11111111111111111111111111110100
00000000000000000000000011000010
11111111111111111111111111110000
00000000000000000000100011100000
11111111111111111111111111101111
00000000000000000000000000000110
11111111111111111111111111101101
00000000000000000000000000000011
00000000000000000000000000000000
00000000000000000000000000000010
00000000000000001001010110001101
11111111111111111111111111100011
00000000000000000000000000000000
00000000000000000000000000001000
00000000000000000011010101000010
00000000000000000101110001000101
00000000000000000000000000110000
11111111111111111111111100110110
11111111111111111111111111111010
11111111111111101001010110010000
00000000000000000000000000100011
11111111111111111111111111100111
11111111111111111111111111111001
11111111111111111111101110101011
00000000000000000001101011010101
11111111111111111111111110100100
11111111111111111111110101110110
11111111111111111111111111011010
00000000000000000000000000000000
00000000000000000000000000011101
00000000000000000000000000001011
11111111111111111111111111110110
11111111111111111111111111100000
00000000000000000000000001011011
11111111111111111111111111011010
11111111111111111111101011100011
00000000000000000000010001010000
00000000000000010001111110100111
11111111111111110110100001110001
00000000000000000000000000001111
00000000000000000000000000010001
00000000000000100011100000011011
00000000000000000000000000000000
00000000000000000001000001000111
00000000000000000000000001000010
00000000000000000000000000000010
00000000000000000000000000000010
00000000000000000000000000000000
00000000000000000000000000101000
11111111111111100111000110001101
00000000000000000000001111110101
11111111111111111111111101111011
00000000000000001110000110110111
11111111111111111111101110011111
00000000000000000000000011011000
11111111111111111111111111101000
00000000000000000000000011011110
00000000000000000000000000001000
00000000000000000000000000000000
11111111111111111111111110011110
11111111111111111111111001100110
11111111111111111011000001100100
11111111111111111101111011111111
11111111111111100011101111100111
11111111111111110000011000000111
11111111111111101000100000000101
11111111111111100100010010101010
11111111111111111111111110111011
11111111111111111010001011001111
11111111111111110001010011100000
11111111111111111101110001011100
11111111111111111111110110110010
11111111111111111111101100101100
11111111111111111100000001011100
11111111111111111101011101111101
11111111111111111110001011000011
11111111111111111111111111111110
11111111111111111111101111100100
11111111111111110101101100001010
11111111111111101010010011010100
00000000000000000011000101000010
11111111111111101101100110000000
11111111111111111111110101000010
00000000000000000000101000100001
11111111111111111111110110010000
00000000000000000000000000010001
00000000000000000000000000000000
00000000000000000000000000011010
11111111111111111111111111111011
00000000000000000000000011010011
00000000000000000000000011010010
11111111111111111111111111100000
11111111111111111111111111101010
00000000000000000000000000000000
11111111111111111111111111111100
00000000000000000000000000000000
00000000000000100001100110001010
00000000000000000000000000000000
11111111111111111111111111110001
00000000000000001001011111001010
11111111111111111111111111111001
11111111111111111111111111111101
00000000000000000000000000000101
11111111111111111111111111110001
11111111111111111111111111001110
00000000000000000000000001001100
00000000000000000000000000000000
11111111111111111110001011100000
00000000000000000010010101111010
00000000000000000000000000000000
11111111111111111010110011111011
00000000000000000000000000011000
11111111111111111111111111011111
11111111111111111111111111111101
00000000000000000000000000000000
00000000000000000000000001001100
11111111111111111111101101111010
00000000000000000000000000101110
00000000000000000000000000101000
11111111111111111111111111011101
00000000000000000000000111001111
11111111111111111111111010011010
11111111111111111010011011100000
11111111111111111111111001000111
00000000000000000000000001111111
00000000000000000000000000000000
11111111111111111111111110111000
00000000000000000010100100101101
00000000000000000000000000000101
00000000000000000000000000000000
00000000000000000000000000000000
11111111111111111111111111111011
00000000000000000000000001010010
11111111111111111111111111100101
00000000000000000000000000000000
00000000000000000000000000001111
00000000000000000001101101110000
11111111111111111111111111111000
11111111111111111111111111101101
00000000000000000000000000001101
11111111111111111111111111110001
00000000000000000001010000101110
00000000000000000011101011000100
00000000000000000000000100100111
00000000000000000000000000000000
11111111111111111111111100001111
11111111111111111111111111101100
00000000000000000000000000010010
11111111111111111111111111101000
00000000000000000000011100010001
11111111111111111111110111110110
00000000000000000101111011000101
11111111111111111111111111111010
00000000000000000000000000001110
00000000000000000000011010000001
00000000000000000000000000000000
00000000000000000001001010110100
11111111111111111111111100010111
11111111111111111111111111011100
11111111111111111111111111111110
00000000000000000000000000000000
00000000000000000000000000000000
11111111111111110100010100011101
00000000000000001001000111000101
00000000000000000000000011111110
11111111111111111111111100011101
00000000000000000000010010000001
11111111111111111111111111001001
00000000000000000000000000111101
00000000000000000000000010000000
11111111111111111111111111111111
11111111111111111111111110000111
00000000000000000000100100111000
11111111111111111111111111111100
11111111111111111111111111110100
00000000000000000000001000111010
11111111111111111111111111100010
11111111111111111111111111101100
00000000000000000000000000000000
00000000000000000000000000001101
11111111111111111101100001010011
00000000000000000000000000000111
00000000000000000000000000001110
11111111111111111111111111111010
00000000000000001000001010101001
11111111111111111111111111101100
11111111111111111111111111001011
00000000000000000000000000001011
11111111111111111111100110001111
00000000000000000000000000000110
00000000000000000000000011010111
00000000000000000000000000000000
00000000000000000001010110010101
00000000000000000000000001101000
11111111111111111111111111110110
00000000000000000000000000000000
11111111111111111111110111001000
00000000000000000000000000000110
00000000000000000000000000000111
00000000000000000100101100101110
11111111111111111101100111010101
00000000000000000000000000000001
00000000000000000000000000001011
11111111111111111111110101011011
00000000000000000000000000000000
00000000000000000000010001111101
00000000000000000000000000001000
00000000000000000000110100111110
11111111111111111100110111001001
11111111111111110111111001101110
00000000000000000000010101000011
11111111111111111111111111111101
11111111111111111000101001110010
00000000000000000000000000000000
00000000000000000000000000101000
11111111111111111101100100010101
11111111111111111111111111100010
00000000000000000000000000000100
11111111111111111111111111100000
11111111111111111111011001001000
00000000000000000000000001101100
11111111111111111000111101011001
00000000000000000000000000000111
00000000000000000000000000001001
11111111111111111111010000110000
00000000000000001000011010100100
00000000000000000000000000000000
00000000000000000000000000000000
00000000000000000000000010101110
00000000000000000000000000001111
00000000000000000000000000000000
11111111111111011101101101001100
11111111111111111111111100101010
11111111111111111111111110011101
11111111111111111111111111101101
11111111111111111111111111110010
00000000000000000000000000000000
00000000000000000000000000001011
11111111111111111111111101011011
11111111111111111111111111011010
00000000000000000000000000000000
00000000000000000000001100100101
11111111111111111111100111000001
11111111111111111111111111110010
11111111111111111111101011101100
00000000000000000000000001010000
00000000000000000000000000100000
00000000000000000111010100001110
00000000000000000000000000010110
00000000000000000000000000000010
11111111111111111111111111110001
00000000000000000000000000000101
11111111111111111111111111011011
00000000000000000000000000011111
00000000000000000011001001011010
11111111111111110011110111010001
11111111111111111111111111101111
11111111111111111111111111011100
00000000000000000000001110010101
11111111111111111111110100011100
00000000000000000000000000100000
00000000000000000000000001111110
11111111111111111111111110110001
00000000000000000000000000000000
00000000000000000000010101111111
11111111111111111111111111111110
11111111111111111111111011100110
11111111111111111110101010000001
11111111111111111101101101111100
11111111111111101011110010011110
11111111111111111111111111110110
00000000000000000000000000010110
11111111111111111111111110001100
11111111111111111111111100101111
00000000000000000000000000111110
11111111111111111111011110010111
00000000000000010001111100010100
00000000000000000000000001101001
00000000000000000000000000000000
00000000000000000000000000001011
11111111111111111111111111110111
11111111111111111111111111110001
00000000000000000000000000011011
00000000000000000000000000100011
00000000000000000000000000001000
11111111111111111111111111110011
11111111111111111111101001101010
00000000000000000000000000000000
00000000000000000000000000010101
00000000000000000000000001001110
11111111111111111111111100010011
11111111111111111111111111110111
11111111111111111111101000111011
00000000000000000000000000000000
00000000000000000000000000111011
11111111111111111111110100001110
00000000000000000000000000000000
11111111111111111111111111111100
11111111111111111111111111110111
00000000000000000000000000000000
11111111111111111111111111101111
11111111111111111110111010110001
11111111111111101110000101100101
00000000000000000111011011100101
11111111111111111111111111000000
11111111111111111111111111111011
11111111111111111110000111100110
00000000000000000000000101010010
00000000000000111100000010101010
11111111111111111111111110110001
00000000000000000000000000000000
00000000000000000000000000000000
11111111111111111010010001010001
11111111111111111111111111100010
00000000000000000000000000010011
00000000000000000000010011011110
00000000000000000000000000000000
11111111111111111111111111111001
11111111111111111111111111000110
00000000000000000000000001011010
00000000000000001011100101111000
00000000000000000000000001001110
11111111111111111111111111010110
11111111111111111111010001110011
00000000000000000000000000001000
00000000000000000000011111110010
00000000000000000000000010111001
00000000000000010010010010001101
00000000000000000000000000111010
00000000000000000000000000000000
00000000000000000000000000000000
00000000000000000000000000100110
11111111111111111111110000101010
11111111111111111011010110100101
11111111111111111111111111111010
00000000000000000000000000000110
00000000000000000000000000000000
00000000000000000000000000000000
11111111111111111110100010100010
00000000000000000000000000000000
00000000000000000000000001001110
11111111111111111110000010011100
00000000000000000000000000000000
00000000000000000000000000000000
00000000000000000000000000110011
00000000000000000000101000011010
00000000000000000000000000000000
00000000000000000000000000100000
00000000000000000000000000000000
00000000000000000000000000000000
11111111111111111111111111111100
11111111111111111111111111110101
11111111111111111110110110001100
11111111111111111111111111111100
00000000000000000000001110001001
00000000000000000000111000011101
00000000000000000001101110110100
00000000000000000000000000010000
11111111111111111100100011110100
11111111111111111111111111011110
00000000000000000000000100010100
00000000000000000000000000000100
00000000000000000000000000000000
11111111111111111110110100010000
00000000000000000000000010011001
00000000000000000100010101111011
00000000000000000000000000001101
11111111111111111101100001000101
11111111111111111111111111000101
11111111111111111111111111100010
00000000000000000000000000000000
11111111111111110011001100101111
11111111111111111110111010100000
00000000000000000000000000010000
11111111111111111111110000111001
00000000000000000000010010000101
00000000000000000000000000001011
11111111111110110101100100110110
11111111111111111111100101001101
11111111111111111111111000000011
11111111111111111111111111000101
11111111111111111111111111110101
00000000000000000000000000000000
00000000000000000000000000001110
00000000000000000000000000000000
11111111111111111111111111101110
00000000000000000000000010110000
00000000000000000001010011011010
11111111111111111101100000101000
11111111111111111111010010110001
00000000000000001110111111001001
11111111111111111111111111111001
00000000000000000110011111111000
11111111111111111110001000010010
00000000000000000000010110000001
11111111111111111111111111110011
00000000000000000000000000000101
00000000000000000000000000000000
11111111111111111111111111100110
11111111111111111111111111111001
11111111111111111111111111101100
11111111111111111111111111000011
00000000000000000000000000010010
00000000000000000000000000000000
00000000000000000000000011010000
00000000000000000010010010100101
11111111111111101101100101101110
11111111111111111111110001011001
00000000000000000000000000010101
11111111111111111111111111111101
00000000000000000000000000000000
00000000000000000000000000000111
00000000000000000000000000111011
00000000000000000000000110001000
00000000000000000000000000000000
11111111111111111111100001011000
00000000000000000000000000010100
11111111111111111111110110101101
00000000000000000000000000000000
00000000000000000000000000000000
00000000000000000000000000000000
00000000000000000000000010010010
00000000000000000000001001010101
11111111111111111111111100101101
11111111111111111111111111111001
00000000000000000000000011011110
11111111111111111111111111111111
11111111111111111011110010000101
00000000000000000000000000001101
00000000000000000000000000000110
00000000000000000000000110111100
11111111111111111111111111101001
00000000000000000110100101100100
11111111111111111111111111101000
00000000000000000000000000000000
11111111111111111111111110001111
00000000000000000111100110110111
11111111111111111111111110001011
00000000000000000111111111111101
11111111111111111111111111101111
00000000000000000000100010100010
00000000000000010111110111100111
00000000000000000000110111000001
00000000000000000000000001010100
00000000000000000000000000000111
11111111111111111111111011100111
11111111111111111111111100111100
00000000000000000000000000000000
00000000000000000000000000100101
11111111111111111111111111001010
00000000000000000000000000000000
11111111111111111111111101101010
00000000000000000000000101011111
00000000000000000000000000000000
00000000000000000000000101011100
00000000000000000000000000000000
00000000000000000000000000000000
00000000000000000000011000101001
11111111111111101101100111011001
00000000000000000001001001111110
11111111111111111111111111111111
11111111111111111110000100101110
00000000000000000000000000000000
00000000000000000000000000000110
00000000000000000000000000000000
00000000000000000000000000000000
00000000000000000000000000110001
00000000000000000000000000000001
00000000000000000000010010110000
00000000000000000000010100000110
00000000000000000000000001110010
00000000000000000000000011110010
11111111111111111111110001101111
00000000000000000000000000000000
11111111111111111111111111101101
00000000000000000000000000000000
00000000000000000000000000011100
00000000000000000000000000000011
00000000000000000000000000000000
00000000000000000000000001011011
11111111111111111111111111010010
11111111111111111111111111111100
11111111111111111111010001001001
00000000000000111000110010110001
00000000000000000000000000000000
00000000000000000000000000000000
11111111111111111111111111101000
11111111111111111110000101010110
11111111111111111111111101110011
00000000000000000000000000100010
11111111111111111111111111111010
00000000000000000001110111010111
11111111111111111111111110010101
11111111111111111111111111011010
11111111111111111110001110100010
00000000000000000000011001011100
00000000000000000000000000000000
11111111111111111111111111111100
00000000000000000000000000010111
00000000000000000000000001010110
00000000000000000000000000000000
11111111111111111111111111011110
11111111111111111111111111111110
11111111111111111111111111101011
00000000000000000000000000000000
00000000000000000011011101110010
11111111111111111111111111111101
11111111111111111111111111101110
00000000000000000000000000001000
00000000000000000000100001111001
00000000000000000001011001100111
11111111111111111110111111100001
00000000000000000000000000000000
11111111111111111111110001011110
11111111111111111111111111001000
11111111111111111001001111111100
00000000000000000000000000000000
00000000000000000000000000000100
00000000000000000000000001000011
00000000000000000000000000001010
11111111111111111111111111101110
00000000000000000000000000010111
11111111111111111111011110010101
00000000000000000000000000000000
11111111111111111011100010000011
00000000000000000000000000001001
00000000000000000000000100010110
00000000000000000000000010001101
11111111111111111110111011111101
00000000000000000000000000000000
11111111111111111111000000110111
00000000000000000000000000000000
00000000000000000000000000000000
00000000000000000000000000000100
00000000000000000000001110010111
00000000000000000001111011010000
00000000000000000000000000000000
00000000000000000000000111010110
11111111111111111111101111111100
11111111111111111110111000011001
00000000000000000000000000000000
11111111111111111111111100111000
00000000000000000000000000011100
11111111111111111111111111110000
11111111111111111101101101011111
00000000000000000101110001011011
00000000000000000000000000000000
11111111111111111111111110000010
00000000000000000000000000011100
11111111111111111111111111110110
11111111111111111111111111100010
00000000000000000000000101100100
00000000000000000001010100010101
00000000000000000000000000000000
00000000000000010001011101010101
00000000000000000000000000001010
00000000000000000010111110101101
00000000000000000000000000000000
00000000000000000100110010100111
00000000000000000000000000011100
00000000000000000000000001001110
11111111111111111111111111101011
00000000000000000000000000000000
00000000000000000000000000000000
00000000000000000000000010111111
11111111111111111111111000111000
11111111111111111111111111101111
00000000000000000000011001011110
11111111111111111111111110000110
00000000000000000000000101001101
11111111111111111110001000001111
00000000000000000000000000000000
00000000000000000000000000000000
00000000000000000001000000110011
11111111111111111101010011001011
11111111111111111111111011110000
00000000000000000000001000001100
00000000000000000000011000110000
00000000000000000000000000101100
11111111111111011010010010010011
00000000000000000000000000000110
00000000000000000000000000001010
00000000000000000000000000010100
00000000000000000010000000101000
11111111111111111111110111110101
00000000000000000000000000000000
11111111111111111111111111010011
00000000000000000000000000000000
00000000000000000000000000000000
00000000000000000000000000000000
00000000000000000000000000000111
00000000000000000000000000001011
11111111111111110101100000111010
00000000000000000000000000000000
00000000000000000000000000000000
00000000000000000000000000000000
00000000000000000000000000001100
11111111111111101010111100101100
00000000000000000000000000000000
11111111111111111111000001010110
00000000000000000000000000000000
11111111111111111111111111011000
00000000000000000000001000000111
00000000000000000000000000000111
11111111111111111111111111101011
11111111111111001010000010000101
00000000000000001101110101011011
00000000000000000000000000000000
11111111111111111111111111111010
00000000000000000000000011100011
11111111111111111111111111001100
00000000000000000000000000001000
11111111111111111111100010111110
11111111111111111111111111100100
00000000000000000000000000100111
00000000000000000000000000010110
00000000000000000000000101011000
00000000000000000001001001010100
11111111111111111111011111010110
00000000000000000000000000000000
00000000000000000000000000011111
11111111111111111111111111110010
00000000000000000000000101010111
11111111111111111111111110001011
00000000000000000000000000101100
00000000000000000000000000000000
11111111111111111111111111010110
00000000000000000000000000001011
11111111111111111111111111100001
00000000000000010010001000101110
00000000000000001100100110111111
00000000000000100001100101101100
00000000000000000000000001010011
00000000000000000000000000000010
11111111111111111111111111111010
11111111111111111011101011001000
11111111111111111111011110001000
11111111111111111111111111100001
00000000000000000000000000000000
11111111111111111110111001101000
11111111111111111111111110111110
00000000000000000000000000000110
11111111111111111111110001000110
11111111111111111111111111110010
00000000000000000000000000000000
11111111111111111111111111111111
11111111111111111100010000000111
11111111111111111011010011000010
11111111111111111111111111011000
11111111111111111111111101110010
11111111111111111111111111110000
00000000000000000000000000000000
00000000000000000001011011000001
00000000000000000011010011101001
11111111111111111111101100111110
11111111111111111101100010100000
00000000000000000000000000000010
00000000000000000000000000111010
11111111111111111111111101111001
11111111111111111111111011101001
00000000000000000000000000000000
00000000000000000000000000000000
00000000000000000000000000100101
00000000000000000000000000101011
00000000000000000000000000010000
00000000000000000000000000001001
11111111111111111111111111110100
11111111111111111111111111111010
00000000000000000000000001011001
00000000000000000000000000000000
00000000000000000000000000011001
00000000000000000000101100001110
11111111111111111111111111110000
11111111111111010110001101011010
11111111111111111111111011111100
00000000000000000000000000110001
00000000000000000000000000101111
00000000000000000000000000000000
11111111111111101110111110000001
11111111111111111111111011111000
11111111111111111111111010000101
00000000000000000000000000001111
11111111111111111111101010010010
00000000000000000000000000000000
00000000000000000000000000000011
00000000000000001110101011010011
00000000000000000000000000001110
00000000000000000000000000000010
11111111111111111111111111100110
11111111111111111111000001100011
11111111111111111110000000100001
11111111111111111111010100011000
11111111111111111111111111111101
11111111111111111111111111000110
11111111111111111111111110100110
00000000000000000111110101111111
00000000000000000000000000000000
00000000000000000110000110100101
11111111111111111111111110101111
11111111111111111001100011000100
11111111111111111111111100111000
00000000000000000000000011101101
00000000000000000000000000000100
00000000000000000000000000011111
11111111111111111111111110100110
00000000000000011010110011100010
00000000000000000000000000000000
00000000000000000000001111100101
00000000000000000000000000000101
00000000000000000000000010101000
11111111111111111111111110011110
00000000000000000000010000001100
00000000000000000000000000111010
00000000000000000000000000101110
11111111111111111111111010111100
11111111111111111111011010110101
00000000000000000000000000000000
00000000000000000000000000111000
11111111111111111111111111000100
11111111111111110011000101000000
11111111111111111111111111111011
00000000000000000000000111011111
11111111111111111110010001010101
00000000000000000000000001001001
11111111111111110110111010011010
11111111111111111111111111110010
11111111111111111111111111110010
11111111111111111111110010001001
11111111111111111111111111101110
11111111111111101110000111000001
00000000000000000000000000000100
00000000000000000000000000000101
00000000000000000000000000110001
00000000000000000001100111110100
00000000000000000000000000000000
11111111111111111111111111101110
00000000000000000000000000000000
00000000000000000000000000000000
00000000000000000001001000101111
00000000000000000001010000000011
00000000000000000000000000000000
11111111111111110010101001000111
11111111111111010110000000111001
11111111111111111111111111100101
00000000000000000000000000101001
00000000000000000000000000000010
00000000000000000000000000000000
11111111111111111111111110110011
00000000000000000000000000000000
00000000000000000000001011110011
00000000000000000100000000010100
11111111111111111111110011010110
00000000000000000000000000000000
11111111111111111111111111111011
00000000000000000000000100110000
00000000000000000000000000101111
00000000000000000000001101101000
11111111111111111111001011010011
11111111111111111110101111101011
00000000000000000000110101111101
11111111111111111111111000101101
00000000000000000000000000000000
11111111111111111111111110100101
11111111111111111111111101011110
11111111111111101010100010111000
00000000000000000001100110110101
11111111111111111111111111110100
11111111111111110001101111100110
11111111111111111111111000110111
00000000000000000000000000000010
11111111111111001000000111100100
11111111111111111111111111011000
00000000000000001111000011011010
11111111111111100110110001001000
00000000000000000000000001000001
11111111111111111111111101100001
11111111111111111111101001111111
00000000000000000000000000010001
11111111111111111111111111110000
11111111111111111110011100001011
11111111111111111111110011100010
00000000000000000000000011011001
00000000000000000000000000010001
11111111111111111111111111101110
00000000000000000110101111011111
00000000000000000000000000011100
00000000000000001100011000010011
00000000000000000000000000000000
00000000000000000000000000010100
00000000000000000001000101101101
11111111111111111111111111111001
11111111111111011001001001110111
00000000000000000000100000011111
00000000000000000001001111101101
11111111111111111000100110010110
11111111111111111111111111000110
00000000000000000000000000111111
11111111111111111000110111110101
11111111111111111111101110010101
00000000000000000000000000010011
11111111111111111111111111100100
00000000000000000000000000000011
00000000000000000000000000000000
11111111111111111000100111010111
00000000000000000000000000000000
11111111111111111001101000001111
11111111111111111111111010011111
11111111111111111111111111000100
00000000000000100000011110011111
00000000000000001011010101111100
00000000000000000000000000000100
11111111111111111111111111100010
11111111111111111111111111101000
00000000000000000011101111000010
00000000000000000000000000000000
11111111111111110101110010100100
11111111111111011100110111000000
11111111111111111111111001100011
11111111111111111110110010111001
00000000000000000000000111100110
00000000000000000000011101001100
11111111111111111111111011010011
00000000000000000110111110000000
00000000000000000000000001110100
11111111111111111111111111110001
00000000000000000000000000001110
11111111111111111111111100011111
00000000000000000000000000110101
00000000000000000000000000000000
11111111111111111111111110111110
11111111111111111110111010000110
00000000000000000010000010011100
00000000000000000000011011010110
00000000000000000000000001010000
00000000000000000000000000001011
00000000000000000001100110011101
11111111111111111111111111111100
00000000000000000000000100101011
00000000000000000000000000001101
00000000000000000000000001011010
11111111111111101101110110100101
00000000000000000000000000000000
11111111111111111111111000110111
11111111111111111111111111111101
00000000000000000000000000011000
11111111111111111111111111011010
11111111111111111110101100100010
11111111111111111110111100100101
00000000000000000000000000010110
11111111111111111111111110111001
11111111111111111111111111000000
00000000000000001001000101100010
00000000000000000000000000011011
00000000000000000000001011000101
11111111111111111111111101110000
00000000000000000000000000000000
00000000000000000000000000000000
00000000000000000000000001000100
00000000000000000000000000000000
00000000000000000000000000010001
11111111111111111111111110111010
11111111111111111111111111100010
11111111111111111111111111010110
11111111111111101001010101010011
11111111111111111111111110001000
11111111111111111111111111100101
11111111111111111111100011001110
11111111111111011010101111010101
11111111111111111111100101100101
11111111111111111111111111101111
00000000000000000000000001111101
00000000000000000000000000000000
00000000000000000011100000110101
11111111111111111111101100111100
00000000000000000000000000000000
11111111111111111111111111100111
11111111111111111111100111100001
11111111111111111111111111010001
00000000000000000000000000011101
00000000000000000000000110100010
00000000000000000000000000000000
11111111111111111111101011101001
11111111111111111111110101100011
00000000000000000000000000010000
00000000000000000000000001000111
00000000000000000000000010000110
00000000000000000000100000111100
11111111111111111111111111101111
11111111111111111111111111101000
11111111111111111111101111110110
00000000000000101100001011010011
00000000000000000000000000000000
00000000000000001001111011010000
11111111111111111111111111101000
11111111111111111111111111111100
11111111111111011100010110000111
11111111111111111111111111011110
00000000000000000000000000000001
11111111111111111111111111110000
00000000000000000000000001010101
11111111111111111111111111110111
11111111111111111111011010100100
11111111111111111111111100100010
11111111111111111111111000110000
11111111111111111111111111110010
00000000000000000000000001000111
00000000000000000000000000000100
00000000000000000000000000000000
11111111111111111111000101111000
00000000000000000000000000000000
11111111111111011011010110110011
00000000000000000000000010000001
11111111111111111111111111110010
11111111111111101111111010000110
00000000000000000000000011111100
00000000000000000000000000001011
11111111111111111111011110110001
00000000000000000000000000001010
00000000000000000000000000011100
00000000000000000001010101111111
11111111111111111111111101101100
00000000000000001100001010000101
00000000000000000000000000000000
00000000000000000000000000001101
00000000000000000000000000000000
00000000000000000000010001010111
00000000000000000000000110000010
00000000000010000011000110011011
00000000000000000000000000000000
00000000000000000000000000101000
00000000000000000000000000001110
11111111111111111111111111111010
11111111111111111111011010011011
11111111111111111111111111111101
00000000000000000000000000001011
11111111111111111111111111110001
00000000000000000010011111110101
00000000000000000000000001001000
11111111111111111111111011010111
11111111111111111111111111100011
11111111111111111111111111101000
00000000000000000000000000101010
11111111111111111111110111101010
11111111111110110100000010000110
11111111111111111010100100011010
00000000000000000000000000000000
00000000000000000000000010010011
00000000000000000000000000000000
11111111111111111111111111011001
11111111111111101000011110001100
00000000000000000000000000101001
00000000000000000000000000000000
00000000000000000000110010010101
00000000000000000000000000000001
00000000000000011010001010111001
00000000000000000000000000110100
00000000000000000000000000000000
00000000000000000000000001110011
00000000000000000000000000000000
00000000000000000000001001111010
00000000000000000111011000010000
00000000000000000000000000000001
11111111111111111111111101111001
00000000000000000000000000000000
00000000000000000000000000000000
00000000000000000111011000101101
11111111111111111111111101001011
00000000000000001000100000011101
11111111111111111111111111101000
11111111111111111111101100101100
00000000000000000000000000000000
11111111111111111111111111010001
00000000000000000000001000011001
00000000000000000111100000010010
00000000000000010010000111111100
11111111111111111111111010001100
11111111111111111111111111101001
11111111111111111101100100001111
11111111111111110110000110010100
00000000000000000000010110101111
00000000000000000000001101100111
11111111111111111111111111111000
00000000000000000000000000000000
11111111111111111110001011011010
00000000000000000000000000000000
11111111111111111001001011000000
11111111111111010001011010000101
00000000000000000011101001110011
00000000000000001111101100010100
11111111111111111111111111101100
11111111111111111111111111101000
00000000000000000000001110111100
11111111111111111111111101010101
00000000000000000000000000000000
11111111111111111111110110000000
00000000000000000000000000000000
00000000000000010110110011100111
00000000000000000000000000111100
11111111111111111111111111110011
11111111111111110110110000111111
00000000000000000100100101011110
00000000000000000000000000000000
11111111111111111111110000010011
00000000000000000000000001110111
00000000000000000000000000010101
00000000000000000000000000000000
11111111111111110100110100001110
00000000000000000000010111100101
11111111111111111111111111110111
00000000000000000000000000101110
00000000000000000000000010111100
00000000000000000000000000011111
00000000000000000000000000100001
11111111111111111110011001011100
00000000000001010011010110000101
00000000000000000000000000000000
00000000000000000000000000000000
00000000000000000000000010100101
11111111111111111111111111111011
00000000000000000000000000000000
00000000000000000000000100011011
00000000000000000001000110010100
00000000000000000000000010011101
11111111111111111111111111110100
00000000000000000000000000000000
11111111111111111111111111011000
11111111111111111101000110011011
00000000000000000000000000000000
00000000000000000000000100000111
11111111111111111111111101110100
00000000000000001100010010111101
00000000000000000000000010001011
11111111111111111111111111111111
00000000000000000010001001100101
00000000000000000000000000000000
00000000000000000000000000001001
11111111111111111111111111010110
11111111111111111111111110101101
00000000000000000000000011010100
11111111111111111111111110011110
11111111111111111111111100111011
11111111111111111111001011000010
00000000000000000000000001001111
00000000000000000000000000010111
00000000000000000100001011110000
11111111111111111111111111111111
00000000000000000000000000000000
00000000000000000000000000000000
00000000000000000000000000000000
00000000000000000000000000001011
11111111111111111111000101000110
11111111111111111101010111000100
11111111111111111111111111000000
11111111111111111111111111010001
00000000000000000000000001001111
00000000000000000000000000000000
11111111111111101000111110110100
00000000000000000000000000001011
11111111111111111010100000101011
00000000000000000101011011010011
11111111111111111010010110010001
11111111111111111111111111110100
00000000000000000000110010100010
00000000000000000000000000010010
11111111111111111111100100101000
00000000000000000000011000001110
00000000000000000000010100010111
00000000000000000000010110101110
11111111111111111111111111101101
11111111111111111111111111100001
11111111111111111111111110110001
00000000000000000001001111010101
00000000000000000000000000101010
00000000000000000000000000111001
00000000000000000001100101001111
00000000000000000000000000010101
00000000000000000000000000110111
00000000000000000100000011110110
00000000000000000000000001101110
00000000000000000000000000000000
11111111111111111111111111000011
11111111111111111111101000011100
00000000000000000000000000000000
11111111111111111111100010000100
11111111111111111111111110101001
00000000000000000011000101101000
00000000000000000001111001111110
00000000000000000010111000110110
00000000000000000000001000101010
00000000000000000000000001010001
11111111111111111111101010010100
00000000000000000000010111111100
11111111111111111111111110101100
11111111111111111111111111110011
00000000000000000000101001010001
11111111111111111000000011000001
11111111111111111111111111111110
00000000000000001000111100011010
11111111111111111111111111101101
00000000000000000000000000000000
11111111111111111111111111011100
00000000000000000000000000100001
00000000000000000000000000000110
11111111111111111111111111101100
11111111111111111111111101001110
00000000000000000000000100110100
11111111111111111111111111111001
00000000000000000000000110110001
11111111111111111110100000101110
11111111111111111111111110000010
11111111111111111111011011010011
00000000000000001111011010111010
00000000000000011111001001100001
00000000000000000000000000011101
11111111111111111111111101110101
00000000000000000000000000001011
00000000000000000000001110111101
00000000000000000000000000000000
00000000000000000000000001101110
11111111111111111111111111101011
11111111111111110110010100010110
00000000000000000000000001010011
