 
****************************************
Report : area
Design : pipeline_wrapper
Version: L-2016.03-SP2
Date   : Thu Jan  2 10:59:32 2020
****************************************

Library(s) Used:

    sc7p5mcpp96p_cln16fcll001_base_svt_c16_tt_typical_max_0p80v_25c (File: /afs/eecs.umich.edu/kits/ARM/TSMC_16FFC/arm_2018.02/TS74LB019-FB-00000-r2p0-03eac0/arm/tsmc/cln16fcll001/sc7p5mcpp96p_base_svt_c16/r2p0/db/sc7p5mcpp96p_cln16fcll001_base_svt_c16_tt_typical_max_0p80v_25c.db)
    sram_2p_uhde_tt_0p80v_0p80v_25c (File: /n/trenton/v/westbl/memory/sram_2p_uhde_64b_tt_0p80v_0p80v_25c.db)
    sram_sp_hde_tt_0p80v_0p80v_25c (File: /n/trenton/v/westbl/memory/sram_sp_hde_32b_tt_0p80v_0p80v_25c.db)
    sram_dp_uhde_tt_0p80v_0p80v_25c (File: /n/trenton/v/westbl/memory/sram_dp_uhde_32b_tt_0p80v_0p80v_25c.db)

Number of ports:                       227383
Number of nets:                       1144478
Number of cells:                       840891
Number of combinational cells:         709571
Number of sequential cells:            128632
Number of macros/black boxes:             384
Number of buf/inv:                      45940
Number of references:                      69

Combinational area:             248986.321108
Buf/Inv area:                     8496.046204
Noncombinational area:           95543.286257
Macro/Black Box area:         12075607.265625
Net Interconnect area:      undefined  (Wire load has zero net area)

Total cell area:              12420136.872990
Total area:                 undefined

Core Area:                    803102
Aspect Ratio:                 1.0000
Utilization Ratio:            0.6140


The above information was reported from the logical library. The following are from the physical library:

  Total moveable cell area: 434207.2
  Total fixed cell area: 0.0
  Total physical cell area: 434207.2
 Core area: 0.000, 0.000, 896.160, 896.160
1
