************************************
Report : units
Design : pipeline_wrapper
Version: L-2016.03-SP2
Date   : Thu Jan  2 10:59:13 2020

************************************
Units
------------------------------------
Time_unit            : 1.0e-12 Second(ps)
Capacitive_load_unit : 1.0e-15 Farad(fF)
Resistance_unit      : 1000 Ohm(kOhm)
Voltage_unit         : 1 Volt
Power_unit           : N/A
Current_unit         : 1.0e-06 Amp(uA)
1
