 
****************************************
Report : timing
        -path full
        -delay max
        -nets
        -max_paths 1
        -transition_time
Design : pipeline_wrapper
Version: L-2016.03-SP2
Date   : Thu Jan  2 10:59:22 2020
****************************************

 * Some/all delay information is back-annotated.

 # A fanout number of 1000 was used for high fanout net computations.

Operating Conditions: tt_typical_max_0p80v_25c   Library: sc7p5mcpp96p_cln16fcll001_base_svt_c16_tt_typical_max_0p80v_25c
Wire Load Model Mode: Inactive.

  Startpoint: gen_pipelines_x_1__gen_pipelines_y_7__pipeline_0/ntrp_tbl/interp_table_data_out_reg_33_
              (rising edge-triggered flip-flop clocked by core_clock)
  Endpoint: gen_pipelines_x_1__gen_pipelines_y_7__pipeline_0/ntrp/k8_reg_21_
            (rising edge-triggered flip-flop clocked by core_clock)
  Path Group: core_clock
  Path Type: max

Attributes:
    d - dont_touch
    u - dont_use
   mo - map_only
   so - size_only
    i - ideal_net or ideal_network
  inf - infeasible path

  Point                                       Fanout     Trans      Incr       Path      Attributes
  ---------------------------------------------------------------------------------------------------------
  clock core_clock (rise edge)                                      0.00       0.00
  clock network delay (ideal)                                       0.00       0.00
  gen_pipelines_x_1__gen_pipelines_y_7__pipeline_0/ntrp_tbl/interp_table_data_out_reg_33_/CK (DFFQA_X1N_A7P5PP96PTS_C16)     0.00     0.00 #     0.00 r
  gen_pipelines_x_1__gen_pipelines_y_7__pipeline_0/ntrp_tbl/interp_table_data_out_reg_33_/Q (DFFQA_X1N_A7P5PP96PTS_C16)    14.94    40.66    40.66 r
  gen_pipelines_x_1__gen_pipelines_y_7__pipeline_0/ntrp_tbl/interp_table_data_out[33] (net)     4     0.00    40.66 r
  gen_pipelines_x_1__gen_pipelines_y_7__pipeline_0/ntrp_tbl/interp_table_data_out[33] (pipeline_wrapper_interp_table_SAMPLE_BIT_WIDTH32_TABLE_BIT_WIDTH16_MAX_INTERP_WINDOW_SIZE8_TABLE_OVERSAMP32_NUM_TABLE_ENTRIES256_NUM_BUFFER_ENTRIES16384_49)     0.00    40.66 r
  gen_pipelines_x_1__gen_pipelines_y_7__pipeline_0/interp_table_data_out[33] (net)     0.00    40.66 r
  gen_pipelines_x_1__gen_pipelines_y_7__pipeline_0/ntrp/interp_table_data_in[33] (pipeline_wrapper_interp_SAMPLE_BIT_WIDTH32_TABLE_BIT_WIDTH16_NUM_BUFFER_ENTRIES16384_49)     0.00    40.66 r
  gen_pipelines_x_1__gen_pipelines_y_7__pipeline_0/ntrp/interp_table_data_in[33] (net)     0.00    40.66 r
  gen_pipelines_x_1__gen_pipelines_y_7__pipeline_0/ntrp/sub_x_2/B[1] (pipeline_wrapper_interp_SAMPLE_BIT_WIDTH32_TABLE_BIT_WIDTH16_NUM_BUFFER_ENTRIES16384_48_DW01_sub_J61_0_0)     0.00    40.66 r
  gen_pipelines_x_1__gen_pipelines_y_7__pipeline_0/ntrp/sub_x_2/B[1] (net)     0.00    40.66 r
  gen_pipelines_x_1__gen_pipelines_y_7__pipeline_0/ntrp/sub_x_2/U157/Y (INVP_X1R_A7P5PP96PTS_C16)    11.96    13.25 *    53.91 f
  gen_pipelines_x_1__gen_pipelines_y_7__pipeline_0/ntrp/sub_x_2/n236 (net)     2     0.00    53.91 f
  gen_pipelines_x_1__gen_pipelines_y_7__pipeline_0/ntrp/sub_x_2/U158/Y (NOR2_X1N_A7P5PP96PTS_C16)    10.11    10.79 *    64.69 r
  gen_pipelines_x_1__gen_pipelines_y_7__pipeline_0/ntrp/sub_x_2/n239 (net)     1     0.00    64.69 r
  gen_pipelines_x_1__gen_pipelines_y_7__pipeline_0/ntrp/sub_x_2/U162/Y (OAI21_X0P7N_A7P5PP96PTS_C16)    16.26    15.41 *    80.10 f
  gen_pipelines_x_1__gen_pipelines_y_7__pipeline_0/ntrp/sub_x_2/n245 (net)     1     0.00    80.10 f
  gen_pipelines_x_1__gen_pipelines_y_7__pipeline_0/ntrp/sub_x_2/U168/Y (AOI21_X1F_A7P5PP96PTS_C16)    12.91    15.31 *    95.41 r
  gen_pipelines_x_1__gen_pipelines_y_7__pipeline_0/ntrp/sub_x_2/n249 (net)     1     0.00    95.41 r
  gen_pipelines_x_1__gen_pipelines_y_7__pipeline_0/ntrp/sub_x_2/U172/Y (OAI21_X0P7N_A7P5PP96PTS_C16)    17.25    16.82 *   112.23 f
  gen_pipelines_x_1__gen_pipelines_y_7__pipeline_0/ntrp/sub_x_2/n255 (net)     1     0.00   112.23 f
  gen_pipelines_x_1__gen_pipelines_y_7__pipeline_0/ntrp/sub_x_2/U178/Y (AOI21_X1F_A7P5PP96PTS_C16)    12.02    15.03 *   127.26 r
  gen_pipelines_x_1__gen_pipelines_y_7__pipeline_0/ntrp/sub_x_2/n259 (net)     1     0.00   127.26 r
  gen_pipelines_x_1__gen_pipelines_y_7__pipeline_0/ntrp/sub_x_2/U182/Y (OAI21_X0P7N_A7P5PP96PTS_C16)    18.60    17.31 *   144.57 f
  gen_pipelines_x_1__gen_pipelines_y_7__pipeline_0/ntrp/sub_x_2/n265 (net)     1     0.00   144.57 f
  gen_pipelines_x_1__gen_pipelines_y_7__pipeline_0/ntrp/sub_x_2/U188/Y (AOI21_X1F_A7P5PP96PTS_C16)    12.34    15.70 *   160.27 r
  gen_pipelines_x_1__gen_pipelines_y_7__pipeline_0/ntrp/sub_x_2/n269 (net)     1     0.00   160.27 r
  gen_pipelines_x_1__gen_pipelines_y_7__pipeline_0/ntrp/sub_x_2/U192/Y (OAI21_X0P7N_A7P5PP96PTS_C16)    17.67    16.95 *   177.22 f
  gen_pipelines_x_1__gen_pipelines_y_7__pipeline_0/ntrp/sub_x_2/n275 (net)     1     0.00   177.22 f
  gen_pipelines_x_1__gen_pipelines_y_7__pipeline_0/ntrp/sub_x_2/U198/Y (AOI21_X1F_A7P5PP96PTS_C16)    13.77    16.23 *   193.45 r
  gen_pipelines_x_1__gen_pipelines_y_7__pipeline_0/ntrp/sub_x_2/n279 (net)     1     0.00   193.45 r
  gen_pipelines_x_1__gen_pipelines_y_7__pipeline_0/ntrp/sub_x_2/U202/Y (OAI21_X1R_A7P5PP96PTS_C16)    22.07    19.48 *   212.94 f
  gen_pipelines_x_1__gen_pipelines_y_7__pipeline_0/ntrp/sub_x_2/n286 (net)     2     0.00   212.94 f
  gen_pipelines_x_1__gen_pipelines_y_7__pipeline_0/ntrp/sub_x_2/U159/Y (AOI21B_X0P7N_A7P5PP96PTS_C16)    38.74    31.00 *   243.94 r
  gen_pipelines_x_1__gen_pipelines_y_7__pipeline_0/ntrp/sub_x_2/n292 (net)     2     0.00   243.94 r
  gen_pipelines_x_1__gen_pipelines_y_7__pipeline_0/ntrp/sub_x_2/U217/Y (OAI21_X0P7N_A7P5PP96PTS_C16)    32.71    33.29 *   277.22 f
  gen_pipelines_x_1__gen_pipelines_y_7__pipeline_0/ntrp/sub_x_2/n299 (net)     2     0.00   277.22 f
  gen_pipelines_x_1__gen_pipelines_y_7__pipeline_0/ntrp/sub_x_2/U225/Y (AOI21_X1N_A7P5PP96PTS_C16)    21.55    25.04 *   302.27 r
  gen_pipelines_x_1__gen_pipelines_y_7__pipeline_0/ntrp/sub_x_2/n305 (net)     2     0.00   302.27 r
  gen_pipelines_x_1__gen_pipelines_y_7__pipeline_0/ntrp/sub_x_2/U232/Y (OAI21_X0P7N_A7P5PP96PTS_C16)    31.17    27.36 *   329.63 f
  gen_pipelines_x_1__gen_pipelines_y_7__pipeline_0/ntrp/sub_x_2/n312 (net)     2     0.00   329.63 f
  gen_pipelines_x_1__gen_pipelines_y_7__pipeline_0/ntrp/sub_x_2/U240/Y (AOI21_X1F_A7P5PP96PTS_C16)    22.87    25.13 *   354.76 r
  gen_pipelines_x_1__gen_pipelines_y_7__pipeline_0/ntrp/sub_x_2/n318 (net)     2     0.00   354.76 r
  gen_pipelines_x_1__gen_pipelines_y_7__pipeline_0/ntrp/sub_x_2/U247/Y (OAI21_X0P7N_A7P5PP96PTS_C16)    32.36    28.45 *   383.20 f
  gen_pipelines_x_1__gen_pipelines_y_7__pipeline_0/ntrp/sub_x_2/n325 (net)     2     0.00   383.20 f
  gen_pipelines_x_1__gen_pipelines_y_7__pipeline_0/ntrp/sub_x_2/U255/Y (AOI21_X1F_A7P5PP96PTS_C16)    21.61    24.70 *   407.91 r
  gen_pipelines_x_1__gen_pipelines_y_7__pipeline_0/ntrp/sub_x_2/n331 (net)     2     0.00   407.91 r
  gen_pipelines_x_1__gen_pipelines_y_7__pipeline_0/ntrp/sub_x_2/U263/Y (OAI21_X0P7N_A7P5PP96PTS_C16)    26.38    24.67 *   432.58 f
  gen_pipelines_x_1__gen_pipelines_y_7__pipeline_0/ntrp/sub_x_2/n332 (net)     1     0.00   432.58 f
  gen_pipelines_x_1__gen_pipelines_y_7__pipeline_0/ntrp/sub_x_2/U265/CO (ADDF_X0P7N_A7P5PP96PTS_C16)    18.57    42.73 *   475.31 f
  gen_pipelines_x_1__gen_pipelines_y_7__pipeline_0/ntrp/sub_x_2/n334 (net)     1     0.00   475.31 f
  gen_pipelines_x_1__gen_pipelines_y_7__pipeline_0/ntrp/sub_x_2/U267/CO (ADDF_X0P7N_A7P5PP96PTS_C16)    18.54    40.14 *   515.45 f
  gen_pipelines_x_1__gen_pipelines_y_7__pipeline_0/ntrp/sub_x_2/n336 (net)     1     0.00   515.45 f
  gen_pipelines_x_1__gen_pipelines_y_7__pipeline_0/ntrp/sub_x_2/U268/CO (ADDF_X0P7N_A7P5PP96PTS_C16)    19.19    40.62 *   556.07 f
  gen_pipelines_x_1__gen_pipelines_y_7__pipeline_0/ntrp/sub_x_2/n341 (net)     2     0.00   556.07 f
  gen_pipelines_x_1__gen_pipelines_y_7__pipeline_0/ntrp/sub_x_2/U276/Y (INVP_X1R_A7P5PP96PTS_C16)     8.87    11.40 *   567.47 r
  gen_pipelines_x_1__gen_pipelines_y_7__pipeline_0/ntrp/sub_x_2/n344 (net)     1     0.00   567.47 r
  gen_pipelines_x_1__gen_pipelines_y_7__pipeline_0/ntrp/sub_x_2/U277/Y (OAI21_X1R_A7P5PP96PTS_C16)    18.95    15.74 *   583.21 f
  gen_pipelines_x_1__gen_pipelines_y_7__pipeline_0/ntrp/sub_x_2/n345 (net)     1     0.00   583.21 f
  gen_pipelines_x_1__gen_pipelines_y_7__pipeline_0/ntrp/sub_x_2/U279/CO (ADDF_X0P7N_A7P5PP96PTS_C16)    18.46    40.21 *   623.42 f
  gen_pipelines_x_1__gen_pipelines_y_7__pipeline_0/ntrp/sub_x_2/n347 (net)     1     0.00   623.42 f
  gen_pipelines_x_1__gen_pipelines_y_7__pipeline_0/ntrp/sub_x_2/U281/CO (ADDF_X0P7N_A7P5PP96PTS_C16)    18.30    39.92 *   663.34 f
  gen_pipelines_x_1__gen_pipelines_y_7__pipeline_0/ntrp/sub_x_2/n349 (net)     1     0.00   663.34 f
  gen_pipelines_x_1__gen_pipelines_y_7__pipeline_0/ntrp/sub_x_2/U283/CO (ADDF_X0P7N_A7P5PP96PTS_C16)    18.27    39.83 *   703.17 f
  gen_pipelines_x_1__gen_pipelines_y_7__pipeline_0/ntrp/sub_x_2/n351 (net)     1     0.00   703.17 f
  gen_pipelines_x_1__gen_pipelines_y_7__pipeline_0/ntrp/sub_x_2/U285/CO (ADDF_X0P7N_A7P5PP96PTS_C16)    18.45    39.96 *   743.13 f
  gen_pipelines_x_1__gen_pipelines_y_7__pipeline_0/ntrp/sub_x_2/n353 (net)     1     0.00   743.13 f
  gen_pipelines_x_1__gen_pipelines_y_7__pipeline_0/ntrp/sub_x_2/U287/CO (ADDF_X0P7N_A7P5PP96PTS_C16)    18.48    40.06 *   783.18 f
  gen_pipelines_x_1__gen_pipelines_y_7__pipeline_0/ntrp/sub_x_2/n355 (net)     1     0.00   783.18 f
  gen_pipelines_x_1__gen_pipelines_y_7__pipeline_0/ntrp/sub_x_2/U288/CO (ADDF_X0P7N_A7P5PP96PTS_C16)    18.91    40.39 *   823.58 f
  gen_pipelines_x_1__gen_pipelines_y_7__pipeline_0/ntrp/sub_x_2/n363 (net)     2     0.00   823.58 f
  gen_pipelines_x_1__gen_pipelines_y_7__pipeline_0/ntrp/sub_x_2/U195/Y (AO21_X0P7N_A7P5PP96PTS_C16)    15.81    30.34 *   853.92 f
  gen_pipelines_x_1__gen_pipelines_y_7__pipeline_0/ntrp/sub_x_2/n385 (net)     1     0.00   853.92 f
  gen_pipelines_x_1__gen_pipelines_y_7__pipeline_0/ntrp/sub_x_2/U300/CO (ADDF_X0P7N_A7P5PP96PTS_C16)    18.42    39.06 *   892.98 f
  gen_pipelines_x_1__gen_pipelines_y_7__pipeline_0/ntrp/sub_x_2/n367 (net)     1     0.00   892.98 f
  gen_pipelines_x_1__gen_pipelines_y_7__pipeline_0/ntrp/sub_x_2/U301/CO (ADDF_X0P7N_A7P5PP96PTS_C16)    14.93    37.34 *   930.32 f
  gen_pipelines_x_1__gen_pipelines_y_7__pipeline_0/ntrp/sub_x_2/n371 (net)     1     0.00   930.32 f
  gen_pipelines_x_1__gen_pipelines_y_7__pipeline_0/ntrp/sub_x_2/U304/Y (XOR2_X0P7N_A7P5PP96PTS_C16)    16.87    24.37 *   954.69 f
  gen_pipelines_x_1__gen_pipelines_y_7__pipeline_0/ntrp/sub_x_2/DIFF[31] (net)     1     0.00   954.69 f
  gen_pipelines_x_1__gen_pipelines_y_7__pipeline_0/ntrp/sub_x_2/DIFF[31] (pipeline_wrapper_interp_SAMPLE_BIT_WIDTH32_TABLE_BIT_WIDTH16_NUM_BUFFER_ENTRIES16384_48_DW01_sub_J61_0_0)     0.00   954.69 f
  gen_pipelines_x_1__gen_pipelines_y_7__pipeline_0/ntrp/k8_next_31 (net)     0.00   954.69 f
  gen_pipelines_x_1__gen_pipelines_y_7__pipeline_0/ntrp/U218/Y (NOR2B_X1N_A7P5PP96PTS_C16)    30.58    17.30 *   972.00 f
  gen_pipelines_x_1__gen_pipelines_y_7__pipeline_0/ntrp/n441 (net)     1     0.00   972.00 f
  gen_pipelines_x_1__gen_pipelines_y_7__pipeline_0/ntrp/k8_reg_21_/D (DFFQA_X1N_A7P5PP96PTS_C16)    30.58     0.00 *   972.00 f
  data arrival time                                                          972.00

  clock core_clock (rise edge)                                   1000.00    1000.00
  clock network delay (ideal)                                       0.00    1000.00
  gen_pipelines_x_1__gen_pipelines_y_7__pipeline_0/ntrp/k8_reg_21_/CK (DFFQA_X1N_A7P5PP96PTS_C16)     0.00  1000.00 r
  library setup time                                              -28.00     972.00
  data required time                                                         972.00
  ---------------------------------------------------------------------------------------------------------
  data required time                                                         972.00
  data arrival time                                                         -972.00
  ---------------------------------------------------------------------------------------------------------
  slack (MET)                                                                  0.00


1
